<?xml version="1.0" encoding="UTF-8"?>
<!DOCTYPE svg PUBLIC "-//W3C//DTD SVG 1.1//EN" "http://www.w3.org/Graphics/SVG/1.1/DTD/svg11.dtd">
<svg version="1.2" width="259.08mm" height="210.82mm" viewBox="0 0 25908 21082" preserveAspectRatio="xMidYMid" fill-rule="evenodd" stroke-width="28.222" stroke-linejoin="round" xmlns="http://www.w3.org/2000/svg" xmlns:ooo="http://xml.openoffice.org/svg/export" xmlns:xlink="http://www.w3.org/1999/xlink" xmlns:presentation="http://sun.com/xmlns/staroffice/presentation" xmlns:smil="http://www.w3.org/2001/SMIL20/" xmlns:anim="urn:oasis:names:tc:opendocument:xmlns:animation:1.0" xml:space="preserve">
 <defs class="ClipPathGroup">
  <clipPath id="presentation_clip_path" clipPathUnits="userSpaceOnUse">
   <rect x="0" y="0" width="25908" height="21082"/>
  </clipPath>
  <clipPath id="presentation_clip_path_shrink" clipPathUnits="userSpaceOnUse">
   <rect x="25" y="21" width="25857" height="21040"/>
  </clipPath>
 </defs>
 <defs>
  <font id="EmbeddedFont_1" horiz-adv-x="2048">
   <font-face font-family="Liberation Sans embedded" units-per-em="2048" font-weight="normal" font-style="normal" ascent="1852" descent="423"/>
   <missing-glyph horiz-adv-x="2048" d="M 0,0 L 2047,0 2047,2047 0,2047 0,0 Z"/>
   <glyph unicode="⟖" horiz-adv-x="1113" d="M 891,168 L 1102,168 C 1128,168 1141,182 1141,209 1141,236 1128,250 1102,250 L 891,250 891,623 1102,623 C 1128,623 1141,637 1141,664 1141,690 1128,705 1102,705 L 891,705 471,461 39,705 39,168 459,412 891,168 Z M 584,432 L 809,563 809,311 584,432 Z M 346,440 L 121,309 121,561 346,440 Z"/>
   <glyph unicode="å" horiz-adv-x="1060" d="M 414,-20 C 305,-20 224,9 169,66 114,123 87,202 87,302 87,414 124,500 198,560 271,620 390,652 554,656 L 797,660 797,719 C 797,807 778,870 741,908 704,946 645,965 565,965 484,965 426,951 389,924 352,897 330,853 323,793 L 135,810 C 166,1005 310,1102 569,1102 705,1102 807,1071 876,1009 945,946 979,856 979,738 L 979,272 C 979,219 986,179 1000,152 1014,125 1041,111 1080,111 1097,111 1117,113 1139,118 L 1139,6 C 1094,-5 1047,-10 1000,-10 933,-10 885,8 855,43 824,78 807,132 803,207 L 797,207 C 751,124 698,66 637,32 576,-3 501,-20 414,-20 Z M 455,115 C 521,115 580,130 631,160 682,190 723,231 753,284 782,336 797,390 797,445 L 797,534 600,530 C 515,529 451,520 408,504 364,488 330,463 307,430 284,397 272,353 272,299 272,240 288,195 320,163 351,131 396,115 455,115 Z M 799,1410 C 799,1343 775,1286 728,1239 681,1192 624,1168 557,1168 490,1168 433,1192 386,1239 339,1286 315,1343 315,1410 315,1477 339,1534 386,1581 433,1628 490,1651 557,1651 623,1651 680,1628 728,1581 775,1534 799,1477 799,1410 Z M 691,1410 C 691,1447 678,1479 652,1505 626,1531 594,1544 557,1544 519,1544 487,1531 461,1505 435,1479 422,1447 422,1410 422,1373 435,1341 460,1314 485,1287 518,1273 557,1273 596,1273 628,1287 653,1314 678,1341 691,1373 691,1410 Z"/>
   <glyph unicode="v" horiz-adv-x="1033" d="M 613,0 L 400,0 7,1082 199,1082 437,378 C 446,351 469,272 506,141 L 541,258 580,376 826,1082 1017,1082 613,0 Z"/>
   <glyph unicode="u" horiz-adv-x="874" d="M 314,1082 L 314,396 C 314,325 321,269 335,230 349,191 371,162 402,145 433,128 478,119 537,119 624,119 692,149 742,208 792,267 817,350 817,455 L 817,1082 997,1082 997,231 C 997,105 999,28 1003,0 L 833,0 C 832,3 832,12 831,27 830,42 830,59 829,78 828,97 826,132 825,185 L 822,185 C 781,110 733,58 679,27 624,-4 557,-20 476,-20 357,-20 271,10 216,69 161,128 133,225 133,361 L 133,1082 314,1082 Z"/>
   <glyph unicode="t" horiz-adv-x="531" d="M 554,8 C 495,-8 434,-16 372,-16 228,-16 156,66 156,229 L 156,951 31,951 31,1082 163,1082 216,1324 336,1324 336,1082 536,1082 536,951 336,951 336,268 C 336,216 345,180 362,159 379,138 408,127 450,127 474,127 509,132 554,141 L 554,8 Z"/>
   <glyph unicode="s" horiz-adv-x="901" d="M 950,299 C 950,197 912,118 835,63 758,8 650,-20 511,-20 376,-20 273,2 200,47 127,91 79,160 57,254 L 216,285 C 231,227 263,185 311,158 359,131 426,117 511,117 602,117 669,131 712,159 754,187 775,229 775,285 775,328 760,362 731,389 702,416 654,438 589,455 L 460,489 C 357,516 283,542 240,568 196,593 162,624 137,661 112,698 100,743 100,796 100,895 135,970 206,1022 276,1073 378,1099 513,1099 632,1099 727,1078 798,1036 868,994 912,927 931,834 L 769,814 C 759,862 732,899 689,925 645,950 586,963 513,963 432,963 372,951 333,926 294,901 275,864 275,814 275,783 283,758 299,738 315,718 339,701 370,687 401,673 467,654 568,629 663,605 732,583 774,563 816,542 849,520 874,495 898,470 917,442 930,410 943,377 950,340 950,299 Z"/>
   <glyph unicode="r" horiz-adv-x="530" d="M 142,0 L 142,830 C 142,906 140,990 136,1082 L 306,1082 C 311,959 314,886 314,861 L 318,861 C 347,954 380,1017 417,1051 454,1085 507,1102 575,1102 599,1102 623,1099 648,1092 L 648,927 C 624,934 592,937 552,937 477,937 420,905 381,841 342,776 322,684 322,564 L 322,0 142,0 Z"/>
   <glyph unicode="o" horiz-adv-x="980" d="M 1053,542 C 1053,353 1011,212 928,119 845,26 724,-20 565,-20 407,-20 288,28 207,125 126,221 86,360 86,542 86,915 248,1102 571,1102 736,1102 858,1057 936,966 1014,875 1053,733 1053,542 Z M 864,542 C 864,691 842,800 798,868 753,935 679,969 574,969 469,969 393,935 346,866 299,797 275,689 275,542 275,399 298,292 345,221 391,149 464,113 563,113 671,113 748,148 795,217 841,286 864,395 864,542 Z"/>
   <glyph unicode="n" horiz-adv-x="874" d="M 825,0 L 825,686 C 825,757 818,813 804,852 790,891 768,920 737,937 706,954 661,963 602,963 515,963 447,933 397,874 347,815 322,732 322,627 L 322,0 142,0 142,851 C 142,977 140,1054 136,1082 L 306,1082 C 307,1079 307,1070 308,1055 309,1040 310,1024 311,1005 312,986 313,950 314,897 L 317,897 C 358,972 406,1025 461,1056 515,1087 582,1102 663,1102 782,1102 869,1073 924,1014 979,955 1006,857 1006,721 L 1006,0 825,0 Z"/>
   <glyph unicode="m" horiz-adv-x="1457" d="M 768,0 L 768,686 C 768,791 754,863 725,903 696,943 645,963 570,963 493,963 433,934 388,875 343,816 321,734 321,627 L 321,0 142,0 142,851 C 142,977 140,1054 136,1082 L 306,1082 C 307,1079 307,1070 308,1055 309,1040 310,1024 311,1005 312,986 313,950 314,897 L 317,897 C 356,974 400,1027 450,1057 500,1087 561,1102 633,1102 715,1102 780,1086 828,1053 875,1020 908,968 927,897 L 930,897 C 967,970 1013,1022 1066,1054 1119,1086 1183,1102 1258,1102 1367,1102 1447,1072 1497,1013 1546,954 1571,856 1571,721 L 1571,0 1393,0 1393,686 C 1393,791 1379,863 1350,903 1321,943 1270,963 1195,963 1116,963 1055,934 1012,876 968,817 946,734 946,627 L 946,0 768,0 Z"/>
   <glyph unicode="l" horiz-adv-x="187" d="M 138,0 L 138,1484 318,1484 318,0 138,0 Z"/>
   <glyph unicode="k" horiz-adv-x="901" d="M 816,0 L 450,494 318,385 318,0 138,0 138,1484 318,1484 318,557 793,1082 1004,1082 565,617 1027,0 816,0 Z"/>
   <glyph unicode="i" horiz-adv-x="187" d="M 137,1312 L 137,1484 317,1484 317,1312 137,1312 Z M 137,0 L 137,1082 317,1082 317,0 137,0 Z"/>
   <glyph unicode="g" horiz-adv-x="927" d="M 548,-425 C 430,-425 336,-402 266,-356 196,-309 151,-243 131,-158 L 312,-132 C 324,-182 351,-220 392,-248 433,-274 486,-288 553,-288 732,-288 822,-183 822,27 L 822,201 820,201 C 786,132 739,80 680,45 621,10 551,-8 472,-8 339,-8 242,36 180,124 117,212 86,350 86,539 86,730 120,872 187,963 254,1054 355,1099 492,1099 569,1099 635,1082 692,1047 748,1012 791,962 822,897 L 824,897 C 824,917 825,952 828,1001 831,1050 833,1077 836,1082 L 1007,1082 C 1003,1046 1001,971 1001,858 L 1001,31 C 1001,-273 850,-425 548,-425 Z M 822,541 C 822,629 810,705 786,769 762,832 728,881 685,915 641,948 591,965 536,965 444,965 377,932 335,865 293,798 272,690 272,541 272,393 292,287 331,222 370,157 438,125 533,125 590,125 640,142 684,175 728,208 762,256 786,319 810,381 822,455 822,541 Z"/>
   <glyph unicode="f" horiz-adv-x="557" d="M 361,951 L 361,0 181,0 181,951 29,951 29,1082 181,1082 181,1204 C 181,1303 203,1374 246,1417 289,1460 356,1482 445,1482 495,1482 537,1478 572,1470 L 572,1333 C 542,1338 515,1341 492,1341 446,1341 413,1329 392,1306 371,1283 361,1240 361,1179 L 361,1082 572,1082 572,951 361,951 Z"/>
   <glyph unicode="e" horiz-adv-x="980" d="M 276,503 C 276,379 302,283 353,216 404,149 479,115 578,115 656,115 719,131 766,162 813,193 844,233 861,281 L 1019,236 C 954,65 807,-20 578,-20 418,-20 296,28 213,123 129,218 87,360 87,548 87,727 129,864 213,959 296,1054 416,1102 571,1102 889,1102 1048,910 1048,527 L 1048,503 276,503 Z M 862,641 C 852,755 823,838 775,891 727,943 658,969 568,969 481,969 412,940 361,882 310,823 282,743 278,641 L 862,641 Z"/>
   <glyph unicode="d" horiz-adv-x="927" d="M 821,174 C 788,105 744,55 689,25 634,-5 565,-20 484,-20 347,-20 247,26 183,118 118,210 86,349 86,536 86,913 219,1102 484,1102 566,1102 634,1087 689,1057 744,1027 788,979 821,914 L 823,914 821,1035 821,1484 1001,1484 1001,223 C 1001,110 1003,36 1007,0 L 835,0 C 833,11 831,35 829,74 826,113 825,146 825,174 L 821,174 Z M 275,542 C 275,391 295,282 335,217 375,152 440,119 530,119 632,119 706,154 752,225 798,296 821,405 821,554 821,697 798,802 752,869 706,936 633,969 532,969 441,969 376,936 336,869 295,802 275,693 275,542 Z"/>
   <glyph unicode="b" horiz-adv-x="953" d="M 1053,546 C 1053,169 920,-20 655,-20 573,-20 505,-5 451,25 396,54 352,102 318,168 L 316,168 C 316,147 315,116 312,74 309,31 307,7 306,0 L 132,0 C 136,36 138,110 138,223 L 138,1484 318,1484 318,1061 C 318,1018 317,967 314,908 L 318,908 C 351,977 396,1027 451,1057 506,1087 574,1102 655,1102 792,1102 892,1056 957,964 1021,872 1053,733 1053,546 Z M 864,540 C 864,691 844,800 804,865 764,930 699,963 609,963 508,963 434,928 388,859 341,790 318,680 318,529 318,387 341,282 386,215 431,147 505,113 607,113 698,113 763,147 804,214 844,281 864,389 864,540 Z"/>
   <glyph unicode="a" horiz-adv-x="1060" d="M 414,-20 C 305,-20 224,9 169,66 114,123 87,202 87,302 87,414 124,500 198,560 271,620 390,652 554,656 L 797,660 797,719 C 797,807 778,870 741,908 704,946 645,965 565,965 484,965 426,951 389,924 352,897 330,853 323,793 L 135,810 C 166,1005 310,1102 569,1102 705,1102 807,1071 876,1009 945,946 979,856 979,738 L 979,272 C 979,219 986,179 1000,152 1014,125 1041,111 1080,111 1097,111 1117,113 1139,118 L 1139,6 C 1094,-5 1047,-10 1000,-10 933,-10 885,8 855,43 824,78 807,132 803,207 L 797,207 C 751,124 698,66 637,32 576,-3 501,-20 414,-20 Z M 455,115 C 521,115 580,130 631,160 682,190 723,231 753,284 782,336 797,390 797,445 L 797,534 600,530 C 515,529 451,520 408,504 364,488 330,463 307,430 284,397 272,353 272,299 272,240 288,195 320,163 351,131 396,115 455,115 Z"/>
   <glyph unicode="S" horiz-adv-x="1192" d="M 1272,389 C 1272,259 1221,158 1120,87 1018,16 875,-20 690,-20 347,-20 148,99 93,338 L 278,375 C 299,290 345,228 414,189 483,149 578,129 697,129 820,129 916,150 983,193 1050,235 1083,297 1083,379 1083,425 1073,462 1052,491 1031,520 1001,543 963,562 925,581 880,596 827,609 774,622 716,635 652,650 541,675 456,699 399,724 341,749 295,776 262,807 229,837 203,872 186,913 168,954 159,1000 159,1053 159,1174 205,1267 298,1332 390,1397 522,1430 694,1430 854,1430 976,1406 1061,1357 1146,1308 1205,1224 1239,1106 L 1051,1073 C 1030,1148 991,1202 933,1236 875,1269 795,1286 692,1286 579,1286 493,1267 434,1230 375,1193 345,1137 345,1063 345,1020 357,984 380,956 403,927 436,903 479,884 522,864 609,840 738,811 781,801 825,791 868,781 911,770 952,758 991,744 1030,729 1067,712 1102,693 1136,674 1166,650 1191,622 1216,594 1236,561 1251,523 1265,485 1272,440 1272,389 Z"/>
   <glyph unicode="P" horiz-adv-x="1112" d="M 1258,985 C 1258,852 1215,746 1128,667 1041,588 922,549 773,549 L 359,549 359,0 168,0 168,1409 761,1409 C 919,1409 1041,1372 1128,1298 1215,1224 1258,1120 1258,985 Z M 1066,983 C 1066,1165 957,1256 738,1256 L 359,1256 359,700 746,700 C 959,700 1066,794 1066,983 Z"/>
   <glyph unicode="N" horiz-adv-x="1165" d="M 1082,0 L 328,1200 333,1103 338,936 338,0 168,0 168,1409 390,1409 1152,201 C 1144,332 1140,426 1140,485 L 1140,1409 1312,1409 1312,0 1082,0 Z"/>
   <glyph unicode="M" horiz-adv-x="1377" d="M 1366,0 L 1366,940 C 1366,1044 1369,1144 1375,1240 1342,1121 1313,1027 1287,960 L 923,0 789,0 420,960 364,1130 331,1240 334,1129 338,940 338,0 168,0 168,1409 419,1409 794,432 C 807,393 820,351 833,306 845,261 853,228 857,208 862,235 874,275 891,330 908,384 919,418 925,432 L 1293,1409 1538,1409 1538,0 1366,0 Z"/>
   <glyph unicode="L" horiz-adv-x="927" d="M 168,0 L 168,1409 359,1409 359,156 1071,156 1071,0 168,0 Z"/>
   <glyph unicode="H" horiz-adv-x="1165" d="M 1121,0 L 1121,653 359,653 359,0 168,0 168,1409 359,1409 359,813 1121,813 1121,1409 1312,1409 1312,0 1121,0 Z"/>
   <glyph unicode="G" horiz-adv-x="1377" d="M 103,711 C 103,940 164,1117 287,1242 410,1367 582,1430 804,1430 960,1430 1087,1404 1184,1351 1281,1298 1356,1214 1409,1098 L 1227,1044 C 1187,1124 1132,1182 1062,1219 991,1256 904,1274 799,1274 636,1274 512,1225 426,1127 340,1028 297,890 297,711 297,533 343,393 434,290 525,187 652,135 813,135 905,135 991,149 1071,177 1150,205 1215,243 1264,291 L 1264,545 843,545 843,705 1440,705 1440,219 C 1365,143 1274,84 1166,43 1057,1 940,-20 813,-20 666,-20 539,9 432,68 325,127 244,211 188,322 131,432 103,562 103,711 Z"/>
   <glyph unicode="F" horiz-adv-x="1006" d="M 359,1253 L 359,729 1145,729 1145,571 359,571 359,0 168,0 168,1409 1169,1409 1169,1253 359,1253 Z"/>
   <glyph unicode="A" horiz-adv-x="1377" d="M 1167,0 L 1006,412 364,412 202,0 4,0 579,1409 796,1409 1362,0 1167,0 Z M 685,1265 L 676,1237 C 659,1182 635,1111 602,1024 L 422,561 949,561 768,1026 C 749,1072 731,1124 712,1182 L 685,1265 Z"/>
   <glyph unicode="4" horiz-adv-x="1060" d="M 881,319 L 881,0 711,0 711,319 47,319 47,459 692,1409 881,1409 881,461 1079,461 1079,319 881,319 Z M 711,1206 C 710,1202 700,1184 683,1153 666,1122 653,1100 644,1087 L 283,555 229,481 213,461 711,461 711,1206 Z"/>
   <glyph unicode="3" horiz-adv-x="1006" d="M 1049,389 C 1049,259 1008,158 925,87 842,16 724,-20 571,-20 428,-20 315,12 230,77 145,141 94,236 78,362 L 264,379 C 288,212 390,129 571,129 662,129 733,151 785,196 836,241 862,307 862,395 862,472 833,532 774,575 715,618 629,639 518,639 L 416,639 416,795 514,795 C 613,795 689,817 744,860 798,903 825,962 825,1038 825,1113 803,1173 759,1217 714,1260 648,1282 561,1282 482,1282 418,1262 369,1221 320,1180 291,1123 283,1049 L 102,1063 C 115,1178 163,1268 246,1333 328,1398 434,1430 563,1430 704,1430 814,1397 893,1332 971,1266 1010,1174 1010,1057 1010,967 985,894 935,838 884,781 811,743 715,723 L 715,719 C 820,708 902,672 961,613 1020,554 1049,479 1049,389 Z"/>
   <glyph unicode="2" horiz-adv-x="954" d="M 103,0 L 103,127 C 137,205 179,274 228,334 277,393 328,447 382,496 436,544 490,589 543,630 596,671 643,713 686,754 729,795 763,839 790,884 816,929 829,981 829,1038 829,1115 806,1175 761,1218 716,1261 653,1282 572,1282 495,1282 432,1261 383,1220 333,1178 304,1119 295,1044 L 111,1061 C 124,1174 172,1263 255,1330 337,1397 443,1430 572,1430 714,1430 823,1397 900,1330 976,1263 1014,1167 1014,1044 1014,989 1002,935 977,881 952,827 914,773 865,719 816,665 721,581 582,468 505,405 444,349 399,299 354,248 321,200 301,153 L 1036,153 1036,0 103,0 Z"/>
   <glyph unicode="1" horiz-adv-x="927" d="M 156,0 L 156,153 515,153 515,1237 197,1010 197,1180 530,1409 696,1409 696,153 1039,153 1039,0 156,0 Z"/>
   <glyph unicode="&amp;" horiz-adv-x="1297" d="M 1193,-12 C 1075,-12 976,30 895,115 845,72 788,38 724,15 660,-8 593,-20 523,-20 380,-20 269,15 190,84 111,153 72,248 72,371 72,556 186,699 415,800 393,841 374,890 358,947 342,1004 334,1055 334,1102 334,1202 365,1280 426,1335 487,1390 573,1417 685,1417 786,1417 867,1392 929,1341 990,1290 1021,1221 1021,1133 1021,1054 991,984 930,923 869,862 763,801 612,741 686,604 784,467 905,329 980,440 1037,576 1076,739 L 1221,696 C 1179,530 1108,374 1009,227 1073,162 1142,129 1217,129 1264,129 1303,134 1334,145 L 1334,10 C 1297,-5 1250,-12 1193,-12 Z M 869,1133 C 869,1181 852,1220 819,1251 786,1281 740,1296 683,1296 619,1296 570,1279 537,1245 504,1210 487,1163 487,1102 487,1026 509,945 552,858 639,893 704,924 745,950 786,976 817,1004 838,1034 859,1064 869,1097 869,1133 Z M 795,217 C 663,373 557,525 476,674 319,607 240,507 240,373 240,292 266,229 318,182 369,135 440,111 529,111 576,111 624,120 671,139 718,157 760,183 795,217 Z"/>
   <glyph unicode=" " horiz-adv-x="556"/>
  </font>
 </defs>
 <defs>
  <font id="EmbeddedFont_2" horiz-adv-x="2048">
   <font-face font-family="Liberation Sans embedded" units-per-em="2048" font-weight="normal" font-style="italic" ascent="1852" descent="423"/>
   <missing-glyph horiz-adv-x="2048" d="M 0,0 L 2047,0 2047,2047 0,2047 0,0 Z"/>
   <glyph unicode="U" horiz-adv-x="1351" d="M 654,-20 C 499,-20 376,20 287,101 198,181 153,291 153,431 153,460 156,496 161,537 166,578 171,610 176,635 L 326,1409 517,1409 355,566 C 344,508 338,460 338,423 338,332 367,262 426,211 484,160 565,135 670,135 926,135 1080,270 1131,541 L 1299,1409 1489,1409 1319,530 C 1283,348 1209,211 1097,119 985,26 837,-20 654,-20 Z"/>
   <glyph unicode="N" horiz-adv-x="1430" d="M 987,0 L 456,1210 C 441,1096 427,1007 414,943 L 233,0 63,0 336,1409 548,1409 1082,194 C 1099,320 1114,415 1127,478 L 1308,1409 1480,1409 1207,0 987,0 Z"/>
   <glyph unicode="L" horiz-adv-x="953" d="M 63,0 L 336,1409 527,1409 284,156 996,156 966,0 63,0 Z"/>
  </font>
 </defs>
 <defs class="TextShapeIndex">
  <g ooo:slide="id1" ooo:id-list="id3 id4 id5 id6 id7 id8 id9 id10 id11 id12 id13 id14 id15 id16 id17 id18 id19 id20 id21 id22 id23 id24 id25 id26 id27 id28 id29 id30 id31 id32 id33 id34 id35 id36 id37 id38 id39 id40 id41 id42 id43 id44 id45 id46 id47 id48 id49 id50 id51 id52 id53 id54 id55 id56 id57 id58 id59 id60 id61 id62 id63 id64 id65 id66 id67 id68 id69 id70"/>
 </defs>
 <defs class="EmbeddedBulletChars">
  <g id="bullet-char-template-57356" transform="scale(0.00048828125,-0.00048828125)">
   <path d="M 580,1141 L 1163,571 580,0 -4,571 580,1141 Z"/>
  </g>
  <g id="bullet-char-template-57354" transform="scale(0.00048828125,-0.00048828125)">
   <path d="M 8,1128 L 1137,1128 1137,0 8,0 8,1128 Z"/>
  </g>
  <g id="bullet-char-template-10146" transform="scale(0.00048828125,-0.00048828125)">
   <path d="M 174,0 L 602,739 174,1481 1456,739 174,0 Z M 1358,739 L 309,1346 659,739 1358,739 Z"/>
  </g>
  <g id="bullet-char-template-10132" transform="scale(0.00048828125,-0.00048828125)">
   <path d="M 2015,739 L 1276,0 717,0 1260,543 174,543 174,936 1260,936 717,1481 1274,1481 2015,739 Z"/>
  </g>
  <g id="bullet-char-template-10007" transform="scale(0.00048828125,-0.00048828125)">
   <path d="M 0,-2 C -7,14 -16,27 -25,37 L 356,567 C 262,823 215,952 215,954 215,979 228,992 255,992 264,992 276,990 289,987 310,991 331,999 354,1012 L 381,999 492,748 772,1049 836,1024 860,1049 C 881,1039 901,1025 922,1006 886,937 835,863 770,784 769,783 710,716 594,584 L 774,223 C 774,196 753,168 711,139 L 727,119 C 717,90 699,76 672,76 641,76 570,178 457,381 L 164,-76 C 142,-110 111,-127 72,-127 30,-127 9,-110 8,-76 1,-67 -2,-52 -2,-32 -2,-23 -1,-13 0,-2 Z"/>
  </g>
  <g id="bullet-char-template-10004" transform="scale(0.00048828125,-0.00048828125)">
   <path d="M 285,-33 C 182,-33 111,30 74,156 52,228 41,333 41,471 41,549 55,616 82,672 116,743 169,778 240,778 293,778 328,747 346,684 L 369,508 C 377,444 397,411 428,410 L 1163,1116 C 1174,1127 1196,1133 1229,1133 1271,1133 1292,1118 1292,1087 L 1292,965 C 1292,929 1282,901 1262,881 L 442,47 C 390,-6 338,-33 285,-33 Z"/>
  </g>
  <g id="bullet-char-template-9679" transform="scale(0.00048828125,-0.00048828125)">
   <path d="M 813,0 C 632,0 489,54 383,161 276,268 223,411 223,592 223,773 276,916 383,1023 489,1130 632,1184 813,1184 992,1184 1136,1130 1245,1023 1353,916 1407,772 1407,592 1407,412 1353,268 1245,161 1136,54 992,0 813,0 Z"/>
  </g>
  <g id="bullet-char-template-8226" transform="scale(0.00048828125,-0.00048828125)">
   <path d="M 346,457 C 273,457 209,483 155,535 101,586 74,649 74,723 74,796 101,859 155,911 209,963 273,989 346,989 419,989 480,963 531,910 582,859 608,796 608,723 608,648 583,586 532,535 482,483 420,457 346,457 Z"/>
  </g>
  <g id="bullet-char-template-8211" transform="scale(0.00048828125,-0.00048828125)">
   <path d="M -4,459 L 1135,459 1135,606 -4,606 -4,459 Z"/>
  </g>
  <g id="bullet-char-template-61548" transform="scale(0.00048828125,-0.00048828125)">
   <path d="M 173,740 C 173,903 231,1043 346,1159 462,1274 601,1332 765,1332 928,1332 1067,1274 1183,1159 1299,1043 1357,903 1357,740 1357,577 1299,437 1183,322 1067,206 928,148 765,148 601,148 462,206 346,322 231,437 173,577 173,740 Z"/>
  </g>
 </defs>
 <g>
  <g id="id2" class="Master_Slide">
   <g id="bg-id2" class="Background"/>
   <g id="bo-id2" class="BackgroundObjects"/>
  </g>
 </g>
 <g class="SlideGroup">
  <g>
   <g id="container-id1">
    <g id="id1" class="Slide" clip-path="url(#presentation_clip_path)">
     <g class="Page">
      <g class="Group">
       <g class="com.sun.star.drawing.CustomShape">
        <g id="id3">
         <rect class="BoundingBox" stroke="none" fill="none" x="4432" y="4201" width="3168" height="1003"/>
         <path fill="rgb(230,230,230)" stroke="none" d="M 6016,5202 L 4433,5202 4433,4202 7598,4202 7598,5202 6016,5202 Z"/>
         <path fill="none" stroke="rgb(52,101,164)" d="M 6016,5202 L 4433,5202 4433,4202 7598,4202 7598,5202 6016,5202 Z"/>
         <text class="SVGTextShape"><tspan class="TextParagraph" font-family="Liberation Sans, sans-serif" font-size="635px" font-weight="400"><tspan class="TextPosition" x="5489" y="4923"><tspan fill="rgb(0,0,0)" stroke="none" style="white-space: pre">Nils</tspan></tspan></tspan></text>
        </g>
       </g>
       <g class="com.sun.star.drawing.CustomShape">
        <g id="id4">
         <rect class="BoundingBox" stroke="none" fill="none" x="10710" y="4201" width="4578" height="1003"/>
         <path fill="rgb(230,230,230)" stroke="none" d="M 12999,5202 L 10711,5202 10711,4202 15286,4202 15286,5202 12999,5202 Z"/>
         <path fill="none" stroke="rgb(52,101,164)" d="M 12999,5202 L 10711,5202 10711,4202 15286,4202 15286,5202 12999,5202 Z"/>
         <text class="SVGTextShape"><tspan class="TextParagraph" font-family="Liberation Sans, sans-serif" font-size="635px" font-weight="400"><tspan class="TextPosition" x="12048" y="4923"><tspan fill="rgb(0,0,0)" stroke="none" style="white-space: pre">Finans</tspan></tspan></tspan></text>
        </g>
       </g>
       <g class="com.sun.star.drawing.CustomShape">
        <g id="id5">
         <rect class="BoundingBox" stroke="none" fill="none" x="4432" y="3201" width="3168" height="1003"/>
         <path fill="rgb(230,230,230)" stroke="none" d="M 6016,4202 L 4433,4202 4433,3202 7598,3202 7598,4202 6016,4202 Z"/>
         <path fill="none" stroke="rgb(52,101,164)" d="M 6016,4202 L 4433,4202 4433,3202 7598,3202 7598,4202 6016,4202 Z"/>
         <text class="SVGTextShape"><tspan class="TextParagraph" font-family="Liberation Sans, sans-serif" font-size="635px" font-weight="400"><tspan class="TextPosition" x="5470" y="3923"><tspan fill="rgb(0,0,0)" stroke="none" style="white-space: pre">Pål </tspan></tspan></tspan></text>
        </g>
       </g>
       <g class="com.sun.star.drawing.CustomShape">
        <g id="id6">
         <rect class="BoundingBox" stroke="none" fill="none" x="10710" y="3201" width="4578" height="1003"/>
         <path fill="rgb(230,230,230)" stroke="none" d="M 12999,4202 L 10711,4202 10711,3202 15286,3202 15286,4202 12999,4202 Z"/>
         <path fill="none" stroke="rgb(52,101,164)" d="M 12999,4202 L 10711,4202 10711,3202 15286,3202 15286,4202 12999,4202 Z"/>
         <text class="SVGTextShape"><tspan class="TextParagraph" font-family="Liberation Sans, sans-serif" font-size="635px" font-weight="400"><tspan class="TextPosition" x="12366" y="3923"><tspan fill="rgb(0,0,0)" stroke="none" style="white-space: pre">Salg</tspan></tspan></tspan></text>
        </g>
       </g>
       <g class="com.sun.star.drawing.CustomShape">
        <g id="id7">
         <rect class="BoundingBox" stroke="none" fill="none" x="4432" y="6201" width="3168" height="1003"/>
         <path fill="rgb(230,230,230)" stroke="none" d="M 6016,7202 L 4433,7202 4433,6202 7598,6202 7598,7202 6016,7202 Z"/>
         <path fill="none" stroke="rgb(52,101,164)" d="M 6016,7202 L 4433,7202 4433,6202 7598,6202 7598,7202 6016,7202 Z"/>
         <text class="SVGTextShape"><tspan class="TextParagraph" font-family="Liberation Sans, sans-serif" font-size="635px" font-weight="400"><tspan class="TextPosition" x="5222" y="6923"><tspan fill="rgb(0,0,0)" stroke="none" style="white-space: pre">Mette</tspan></tspan></tspan></text>
        </g>
       </g>
       <g class="com.sun.star.drawing.CustomShape">
        <g id="id8">
         <rect class="BoundingBox" stroke="none" fill="none" x="10710" y="6201" width="4578" height="1003"/>
         <path fill="rgb(230,230,230)" stroke="none" d="M 12999,7202 L 10711,7202 10711,6202 15286,6202 15286,7202 12999,7202 Z"/>
         <path fill="none" stroke="rgb(52,101,164)" d="M 12999,7202 L 10711,7202 10711,6202 15286,6202 15286,7202 12999,7202 Z"/>
         <text class="SVGTextShape"><tspan class="TextParagraph" font-family="Liberation Sans, sans-serif" font-size="635px" font-weight="400"><tspan class="TextPosition" x="11233" y="6923"><tspan fill="rgb(0,0,0)" stroke="none" style="white-space: pre">Frakt &amp; retur</tspan></tspan></tspan></text>
        </g>
       </g>
       <g class="com.sun.star.drawing.CustomShape">
        <g id="id9">
         <rect class="BoundingBox" stroke="none" fill="none" x="4432" y="5201" width="3168" height="1003"/>
         <path fill="rgb(230,230,230)" stroke="none" d="M 6016,6202 L 4433,6202 4433,5202 7598,5202 7598,6202 6016,6202 Z"/>
         <path fill="none" stroke="rgb(52,101,164)" d="M 6016,6202 L 4433,6202 4433,5202 7598,5202 7598,6202 6016,6202 Z"/>
         <text class="SVGTextShape"><tspan class="TextParagraph" font-family="Liberation Sans, sans-serif" font-size="635px" font-weight="400"><tspan class="TextPosition" x="5628" y="5923"><tspan fill="rgb(0,0,0)" stroke="none" style="white-space: pre">Ari</tspan></tspan></tspan></text>
        </g>
       </g>
       <g class="com.sun.star.drawing.CustomShape">
        <g id="id10">
         <rect class="BoundingBox" stroke="none" fill="none" x="10710" y="5201" width="4578" height="1003"/>
         <path fill="rgb(230,230,230)" stroke="none" d="M 12999,6202 L 10711,6202 10711,5202 15286,5202 15286,6202 12999,6202 Z"/>
         <path fill="none" stroke="rgb(52,101,164)" d="M 12999,6202 L 10711,6202 10711,5202 15286,5202 15286,6202 12999,6202 Z"/>
         <text class="SVGTextShape"><tspan class="TextParagraph" font-family="Liberation Sans, sans-serif" font-size="635px" font-weight="400"><tspan class="TextPosition" x="12366" y="5923"><tspan fill="rgb(0,0,0)" stroke="none" style="white-space: pre">Salg</tspan></tspan></tspan></text>
        </g>
       </g>
       <g class="com.sun.star.drawing.CustomShape">
        <g id="id11">
         <rect class="BoundingBox" stroke="none" fill="none" x="1145" y="3201" width="3291" height="1003"/>
         <path fill="rgb(230,230,230)" stroke="none" d="M 2790,4202 L 1146,4202 1146,3202 4434,3202 4434,4202 2790,4202 Z"/>
         <path fill="none" stroke="rgb(52,101,164)" d="M 2790,4202 L 1146,4202 1146,3202 4434,3202 4434,4202 2790,4202 Z"/>
         <text class="SVGTextShape"><tspan class="TextParagraph" font-family="Liberation Sans, sans-serif" font-size="635px" font-weight="400"><tspan class="TextPosition" x="2615" y="3923"><tspan fill="rgb(0,0,0)" stroke="none" style="white-space: pre">1</tspan></tspan></tspan></text>
        </g>
       </g>
       <g class="com.sun.star.drawing.CustomShape">
        <g id="id12">
         <rect class="BoundingBox" stroke="none" fill="none" x="1145" y="4201" width="3291" height="1003"/>
         <path fill="rgb(230,230,230)" stroke="none" d="M 2790,5202 L 1146,5202 1146,4202 4434,4202 4434,5202 2790,5202 Z"/>
         <path fill="none" stroke="rgb(52,101,164)" d="M 2790,5202 L 1146,5202 1146,4202 4434,4202 4434,5202 2790,5202 Z"/>
         <text class="SVGTextShape"><tspan class="TextParagraph" font-family="Liberation Sans, sans-serif" font-size="635px" font-weight="400"><tspan class="TextPosition" x="2615" y="4923"><tspan fill="rgb(0,0,0)" stroke="none" style="white-space: pre">2</tspan></tspan></tspan></text>
        </g>
       </g>
       <g class="com.sun.star.drawing.CustomShape">
        <g id="id13">
         <rect class="BoundingBox" stroke="none" fill="none" x="1145" y="5201" width="3291" height="1003"/>
         <path fill="rgb(230,230,230)" stroke="none" d="M 2790,6202 L 1146,6202 1146,5202 4434,5202 4434,6202 2790,6202 Z"/>
         <path fill="none" stroke="rgb(52,101,164)" d="M 2790,6202 L 1146,6202 1146,5202 4434,5202 4434,6202 2790,6202 Z"/>
         <text class="SVGTextShape"><tspan class="TextParagraph" font-family="Liberation Sans, sans-serif" font-size="635px" font-weight="400"><tspan class="TextPosition" x="2615" y="5923"><tspan fill="rgb(0,0,0)" stroke="none" style="white-space: pre">3</tspan></tspan></tspan></text>
        </g>
       </g>
       <g class="com.sun.star.drawing.CustomShape">
        <g id="id14">
         <rect class="BoundingBox" stroke="none" fill="none" x="1145" y="6201" width="3291" height="1003"/>
         <path fill="rgb(230,230,230)" stroke="none" d="M 2790,7202 L 1146,7202 1146,6202 4434,6202 4434,7202 2790,7202 Z"/>
         <path fill="none" stroke="rgb(52,101,164)" d="M 2790,7202 L 1146,7202 1146,6202 4434,6202 4434,7202 2790,7202 Z"/>
         <text class="SVGTextShape"><tspan class="TextParagraph" font-family="Liberation Sans, sans-serif" font-size="635px" font-weight="400"><tspan class="TextPosition" x="2615" y="6923"><tspan fill="rgb(0,0,0)" stroke="none" style="white-space: pre">4</tspan></tspan></tspan></text>
        </g>
       </g>
       <g class="com.sun.star.drawing.CustomShape">
        <g id="id15">
         <rect class="BoundingBox" stroke="none" fill="none" x="1144" y="1201" width="14144" height="1003"/>
         <path fill="rgb(179,179,179)" stroke="none" d="M 8216,2202 L 1145,2202 1145,1202 15286,1202 15286,2202 8216,2202 Z"/>
         <path fill="none" stroke="rgb(52,101,164)" d="M 8216,2202 L 1145,2202 1145,1202 15286,1202 15286,2202 8216,2202 Z"/>
         <text class="SVGTextShape"><tspan class="TextParagraph" font-family="Liberation Sans, sans-serif" font-size="635px" font-weight="400"><tspan class="TextPosition" x="7176" y="1923"><tspan fill="rgb(0,0,0)" stroke="none" style="white-space: pre">ansatte</tspan></tspan></tspan></text>
        </g>
       </g>
       <g class="com.sun.star.drawing.CustomShape">
        <g id="id16">
         <rect class="BoundingBox" stroke="none" fill="none" x="1607" y="6602" width="2310" height="501"/>
        </g>
       </g>
       <g class="com.sun.star.drawing.CustomShape">
        <g id="id17">
         <rect class="BoundingBox" stroke="none" fill="none" x="4432" y="2201" width="3168" height="1003"/>
         <path fill="rgb(204,204,204)" stroke="none" d="M 6016,3202 L 4433,3202 4433,2202 7598,2202 7598,3202 6016,3202 Z"/>
         <path fill="none" stroke="rgb(52,101,164)" d="M 6016,3202 L 4433,3202 4433,2202 7598,2202 7598,3202 6016,3202 Z"/>
         <text class="SVGTextShape"><tspan class="TextParagraph" font-family="Liberation Sans, sans-serif" font-size="635px" font-weight="400"><tspan class="TextPosition" x="4960" y="2923"><tspan fill="rgb(0,0,0)" stroke="none" style="white-space: pre">fornavn</tspan></tspan></tspan></text>
        </g>
       </g>
       <g class="com.sun.star.drawing.CustomShape">
        <g id="id18">
         <rect class="BoundingBox" stroke="none" fill="none" x="10710" y="2201" width="4578" height="1003"/>
         <path fill="rgb(204,204,204)" stroke="none" d="M 12999,3202 L 10711,3202 10711,2202 15286,2202 15286,3202 12999,3202 Z"/>
         <path fill="none" stroke="rgb(52,101,164)" d="M 12999,3202 L 10711,3202 10711,2202 15286,2202 15286,3202 12999,3202 Z"/>
         <text class="SVGTextShape"><tspan class="TextParagraph" font-family="Liberation Sans, sans-serif" font-size="635px" font-weight="400"><tspan class="TextPosition" x="11822" y="2923"><tspan fill="rgb(0,0,0)" stroke="none" style="white-space: pre">avdeling</tspan></tspan></tspan></text>
        </g>
       </g>
       <g class="com.sun.star.drawing.CustomShape">
        <g id="id19">
         <rect class="BoundingBox" stroke="none" fill="none" x="1145" y="2201" width="3291" height="1003"/>
         <path fill="rgb(204,204,204)" stroke="none" d="M 2790,3202 L 1146,3202 1146,2202 4434,2202 4434,3202 2790,3202 Z"/>
         <path fill="none" stroke="rgb(52,101,164)" d="M 2790,3202 L 1146,3202 1146,2202 4434,2202 4434,3202 2790,3202 Z"/>
         <text class="SVGTextShape"><tspan class="TextParagraph" font-family="Liberation Sans, sans-serif" font-size="635px" font-weight="400" text-decoration="underline"><tspan class="TextPosition" x="1592" y="2923"><tspan fill="rgb(0,0,0)" stroke="none" style="white-space: pre">ansattNr</tspan></tspan></tspan></text>
        </g>
       </g>
       <g class="com.sun.star.drawing.CustomShape">
        <g id="id20">
         <rect class="BoundingBox" stroke="none" fill="none" x="7546" y="4201" width="3169" height="1003"/>
         <path fill="rgb(230,230,230)" stroke="none" d="M 9130,5202 L 7547,5202 7547,4202 10713,4202 10713,5202 9130,5202 Z"/>
         <path fill="none" stroke="rgb(52,101,164)" d="M 9130,5202 L 7547,5202 7547,4202 10713,4202 10713,5202 9130,5202 Z"/>
         <text class="SVGTextShape"><tspan class="TextParagraph" font-family="Liberation Sans, sans-serif" font-size="635px" font-weight="400"><tspan class="TextPosition" x="8252" y="4923"><tspan fill="rgb(0,0,0)" stroke="none" style="white-space: pre">Nilsen</tspan></tspan></tspan></text>
        </g>
       </g>
       <g class="com.sun.star.drawing.CustomShape">
        <g id="id21">
         <rect class="BoundingBox" stroke="none" fill="none" x="7546" y="3201" width="3169" height="1003"/>
         <path fill="rgb(230,230,230)" stroke="none" d="M 9130,4202 L 7547,4202 7547,3202 10713,3202 10713,4202 9130,4202 Z"/>
         <path fill="none" stroke="rgb(52,101,164)" d="M 9130,4202 L 7547,4202 7547,3202 10713,3202 10713,4202 9130,4202 Z"/>
         <text class="SVGTextShape"><tspan class="TextParagraph" font-family="Liberation Sans, sans-serif" font-size="635px" font-weight="400"><tspan class="TextPosition" x="7951" y="3923"><tspan fill="rgb(0,0,0)" stroke="none" style="white-space: pre">Solberg </tspan></tspan></tspan></text>
        </g>
       </g>
       <g class="com.sun.star.drawing.CustomShape">
        <g id="id22">
         <rect class="BoundingBox" stroke="none" fill="none" x="7546" y="6201" width="3169" height="1003"/>
         <path fill="rgb(230,230,230)" stroke="none" d="M 9130,7202 L 7547,7202 7547,6202 10713,6202 10713,7202 9130,7202 Z"/>
         <path fill="none" stroke="rgb(52,101,164)" d="M 9130,7202 L 7547,7202 7547,6202 10713,6202 10713,7202 9130,7202 Z"/>
         <text class="SVGTextShape"><tspan class="TextParagraph" font-family="Liberation Sans, sans-serif" font-size="635px" font-weight="400"><tspan class="TextPosition" x="7915" y="6923"><tspan fill="rgb(0,0,0)" stroke="none" style="white-space: pre">Maritsen</tspan></tspan></tspan></text>
        </g>
       </g>
       <g class="com.sun.star.drawing.CustomShape">
        <g id="id23">
         <rect class="BoundingBox" stroke="none" fill="none" x="7546" y="5201" width="3169" height="1003"/>
         <path fill="rgb(230,230,230)" stroke="none" d="M 9130,6202 L 7547,6202 7547,5202 10713,5202 10713,6202 9130,6202 Z"/>
         <path fill="none" stroke="rgb(52,101,164)" d="M 9130,6202 L 7547,6202 7547,5202 10713,5202 10713,6202 9130,6202 Z"/>
         <text class="SVGTextShape"><tspan class="TextParagraph" font-family="Liberation Sans, sans-serif" font-size="635px" font-weight="400"><tspan class="TextPosition" x="8040" y="5923"><tspan fill="rgb(0,0,0)" stroke="none" style="white-space: pre">Hansen</tspan></tspan></tspan></text>
        </g>
       </g>
       <g class="com.sun.star.drawing.CustomShape">
        <g id="id24">
         <rect class="BoundingBox" stroke="none" fill="none" x="7546" y="2201" width="3169" height="1003"/>
         <path fill="rgb(204,204,204)" stroke="none" d="M 9130,3202 L 7547,3202 7547,2202 10713,2202 10713,3202 9130,3202 Z"/>
         <path fill="none" stroke="rgb(52,101,164)" d="M 9130,3202 L 7547,3202 7547,2202 10713,2202 10713,3202 9130,3202 Z"/>
         <text class="SVGTextShape"><tspan class="TextParagraph" font-family="Liberation Sans, sans-serif" font-size="635px" font-weight="400"><tspan class="TextPosition" x="7809" y="2923"><tspan fill="rgb(0,0,0)" stroke="none" style="white-space: pre">etternavn</tspan></tspan></tspan></text>
        </g>
       </g>
      </g>
      <g class="Group">
       <g class="com.sun.star.drawing.CustomShape">
        <g id="id25">
         <rect class="BoundingBox" stroke="none" fill="none" x="17019" y="4301" width="3790" height="1003"/>
         <path fill="rgb(230,230,230)" stroke="none" d="M 18914,5302 L 17020,5302 17020,4302 20807,4302 20807,5302 18914,5302 Z"/>
         <path fill="none" stroke="rgb(52,101,164)" d="M 18914,5302 L 17020,5302 17020,4302 20807,4302 20807,5302 18914,5302 Z"/>
         <text class="SVGTextShape"><tspan class="TextParagraph" font-family="Liberation Sans, sans-serif" font-size="635px" font-weight="400"><tspan class="TextPosition" x="18016" y="5023"><tspan fill="rgb(0,0,0)" stroke="none" style="white-space: pre">Admin</tspan></tspan></tspan></text>
        </g>
       </g>
       <g class="com.sun.star.drawing.CustomShape">
        <g id="id26">
         <rect class="BoundingBox" stroke="none" fill="none" x="17019" y="3301" width="3790" height="1003"/>
         <path fill="rgb(230,230,230)" stroke="none" d="M 18914,4302 L 17020,4302 17020,3302 20807,3302 20807,4302 18914,4302 Z"/>
         <path fill="none" stroke="rgb(52,101,164)" d="M 18914,4302 L 17020,4302 17020,3302 20807,3302 20807,4302 18914,4302 Z"/>
         <text class="SVGTextShape"><tspan class="TextParagraph" font-family="Liberation Sans, sans-serif" font-size="635px" font-weight="400"><tspan class="TextPosition" x="18281" y="4023"><tspan fill="rgb(0,0,0)" stroke="none" style="white-space: pre">Salg</tspan></tspan></tspan></text>
        </g>
       </g>
       <g class="com.sun.star.drawing.CustomShape">
        <g id="id27">
         <rect class="BoundingBox" stroke="none" fill="none" x="17020" y="1301" width="6857" height="1003"/>
         <path fill="rgb(179,179,179)" stroke="none" d="M 20448,2302 L 17021,2302 17021,1302 23875,1302 23875,2302 20448,2302 Z"/>
         <path fill="none" stroke="rgb(52,101,164)" d="M 20448,2302 L 17021,2302 17021,1302 23875,1302 23875,2302 20448,2302 Z"/>
         <text class="SVGTextShape"><tspan class="TextParagraph" font-family="Liberation Sans, sans-serif" font-size="635px" font-weight="400"><tspan class="TextPosition" x="19271" y="2023"><tspan fill="rgb(0,0,0)" stroke="none" style="white-space: pre">avdeling</tspan></tspan></tspan></text>
        </g>
       </g>
       <g class="com.sun.star.drawing.CustomShape">
        <g id="id28">
         <rect class="BoundingBox" stroke="none" fill="none" x="17019" y="2301" width="3790" height="1003"/>
         <path fill="rgb(204,204,204)" stroke="none" d="M 18914,3302 L 17020,3302 17020,2302 20807,2302 20807,3302 18914,3302 Z"/>
         <path fill="none" stroke="rgb(52,101,164)" d="M 18914,3302 L 17020,3302 17020,2302 20807,2302 20807,3302 18914,3302 Z"/>
         <text class="SVGTextShape"><tspan class="TextParagraph" font-family="Liberation Sans, sans-serif" font-size="635px" font-weight="400" text-decoration="underline"><tspan class="TextPosition" x="17737" y="3023"><tspan fill="rgb(0,0,0)" stroke="none" style="white-space: pre">avdeling</tspan></tspan></tspan></text>
        </g>
       </g>
       <g class="com.sun.star.drawing.CustomShape">
        <g id="id29">
         <rect class="BoundingBox" stroke="none" fill="none" x="20815" y="4301" width="3054" height="1003"/>
         <path fill="rgb(230,230,230)" stroke="none" d="M 22342,5302 L 20816,5302 20816,4302 23867,4302 23867,5302 22342,5302 Z"/>
         <path fill="none" stroke="rgb(52,101,164)" d="M 22342,5302 L 20816,5302 20816,4302 23867,4302 23867,5302 22342,5302 Z"/>
         <text class="SVGTextShape"><tspan class="TextParagraph" font-family="Liberation Sans, sans-serif" font-size="635px" font-weight="400"><tspan class="TextPosition" x="21885" y="5023"><tspan fill="rgb(0,0,0)" stroke="none" style="white-space: pre">Pål</tspan></tspan></tspan></text>
        </g>
       </g>
       <g class="com.sun.star.drawing.CustomShape">
        <g id="id30">
         <rect class="BoundingBox" stroke="none" fill="none" x="20815" y="3301" width="3054" height="1003"/>
         <path fill="rgb(230,230,230)" stroke="none" d="M 22342,4302 L 20816,4302 20816,3302 23867,3302 23867,4302 22342,4302 Z"/>
         <path fill="none" stroke="rgb(52,101,164)" d="M 22342,4302 L 20816,4302 20816,3302 23867,3302 23867,4302 22342,4302 Z"/>
         <text class="SVGTextShape"><tspan class="TextParagraph" font-family="Liberation Sans, sans-serif" font-size="635px" font-weight="400"><tspan class="TextPosition" x="21849" y="4023"><tspan fill="rgb(0,0,0)" stroke="none" style="white-space: pre">Liv </tspan></tspan></tspan></text>
        </g>
       </g>
       <g class="com.sun.star.drawing.CustomShape">
        <g id="id31">
         <rect class="BoundingBox" stroke="none" fill="none" x="20815" y="2301" width="3054" height="1003"/>
         <path fill="rgb(204,204,204)" stroke="none" d="M 22342,3302 L 20816,3302 20816,2302 23867,2302 23867,3302 22342,3302 Z"/>
         <path fill="none" stroke="rgb(52,101,164)" d="M 22342,3302 L 20816,3302 20816,2302 23867,2302 23867,3302 22342,3302 Z"/>
         <text class="SVGTextShape"><tspan class="TextParagraph" font-family="Liberation Sans, sans-serif" font-size="635px" font-weight="400"><tspan class="TextPosition" x="21639" y="3023"><tspan fill="rgb(0,0,0)" stroke="none" style="white-space: pre">leder</tspan></tspan></tspan></text>
        </g>
       </g>
       <g class="com.sun.star.drawing.CustomShape">
        <g id="id32">
         <rect class="BoundingBox" stroke="none" fill="none" x="17020" y="5301" width="3790" height="1003"/>
         <path fill="rgb(230,230,230)" stroke="none" d="M 18915,6302 L 17021,6302 17021,5302 20808,5302 20808,6302 18915,6302 Z"/>
         <path fill="none" stroke="rgb(52,101,164)" d="M 18915,6302 L 17021,6302 17021,5302 20808,5302 20808,6302 18915,6302 Z"/>
         <text class="SVGTextShape"><tspan class="TextParagraph" font-family="Liberation Sans, sans-serif" font-size="635px" font-weight="400"><tspan class="TextPosition" x="17964" y="6023"><tspan fill="rgb(0,0,0)" stroke="none" style="white-space: pre">Finans</tspan></tspan></tspan></text>
        </g>
       </g>
       <g class="com.sun.star.drawing.CustomShape">
        <g id="id33">
         <rect class="BoundingBox" stroke="none" fill="none" x="20816" y="5301" width="3054" height="1003"/>
         <path fill="rgb(230,230,230)" stroke="none" d="M 22343,6302 L 20817,6302 20817,5302 23868,5302 23868,6302 22343,6302 Z"/>
         <path fill="none" stroke="rgb(52,101,164)" d="M 22343,6302 L 20817,6302 20817,5302 23868,5302 23868,6302 22343,6302 Z"/>
         <text class="SVGTextShape"><tspan class="TextParagraph" font-family="Liberation Sans, sans-serif" font-size="635px" font-weight="400"><tspan class="TextPosition" x="21462" y="6023"><tspan fill="rgb(0,0,0)" stroke="none" style="white-space: pre">Georg</tspan></tspan></tspan></text>
        </g>
       </g>
      </g>
      <g class="TextShape">
       <g id="id34">
        <rect class="BoundingBox" stroke="none" fill="none" x="13148" y="7194" width="3236" height="3723"/>
        <text class="SVGTextShape"><tspan class="TextParagraph" font-family="Liberation Sans, sans-serif" font-size="3104px" font-weight="400"><tspan class="TextPosition" x="13398" y="10130"><tspan fill="rgb(0,0,0)" stroke="none" style="white-space: pre">⟖</tspan></tspan></tspan></text>
       </g>
      </g>
      <g class="com.sun.star.drawing.ConnectorShape">
       <g id="id35">
        <rect class="BoundingBox" stroke="none" fill="none" x="8166" y="7152" width="4983" height="2129"/>
        <path fill="none" stroke="rgb(128,0,0)" stroke-width="100" stroke-linejoin="round" d="M 8216,7202 L 8216,9055 12503,9055"/>
        <path fill="rgb(128,0,0)" stroke="none" d="M 13148,9055 L 12473,8830 12473,9280 13148,9055 Z"/>
       </g>
      </g>
      <g class="com.sun.star.drawing.ConnectorShape">
       <g id="id36">
        <rect class="BoundingBox" stroke="none" fill="none" x="16383" y="6252" width="4116" height="3029"/>
        <path fill="none" stroke="rgb(128,0,0)" stroke-width="100" stroke-linejoin="round" d="M 20448,6302 L 20448,9055 17028,9055"/>
        <path fill="rgb(128,0,0)" stroke="none" d="M 16383,9055 L 17058,9280 17058,8830 16383,9055 Z"/>
       </g>
      </g>
      <g class="com.sun.star.drawing.ConnectorShape">
       <g id="id37">
        <rect class="BoundingBox" stroke="none" fill="none" x="14540" y="10866" width="452" height="1386"/>
        <path fill="none" stroke="rgb(128,0,0)" stroke-width="100" stroke-linejoin="round" d="M 14765,10916 L 14765,11583 14764,11583 14764,11606"/>
        <path fill="rgb(128,0,0)" stroke="none" d="M 14764,12251 L 14990,11576 14540,11576 14764,12251 Z"/>
       </g>
      </g>
      <g class="com.sun.star.drawing.CustomShape">
       <g id="id38">
        <rect class="BoundingBox" stroke="none" fill="none" x="22777" y="17207" width="1922" height="1092"/>
        <path fill="rgb(255,255,255)" stroke="none" d="M 23738,18298 L 22777,18298 22777,17207 24698,17207 24698,18298 23738,18298 Z"/>
       </g>
      </g>
      <g class="com.sun.star.drawing.CustomShape">
       <g id="id39">
        <rect class="BoundingBox" stroke="none" fill="none" x="22977" y="18407" width="1922" height="1092"/>
        <path fill="rgb(255,255,255)" stroke="none" d="M 23938,19498 L 22977,19498 22977,18407 24898,18407 24898,19498 23938,19498 Z"/>
       </g>
      </g>
      <g class="com.sun.star.drawing.CustomShape">
       <g id="id40">
        <rect class="BoundingBox" stroke="none" fill="none" x="8022" y="15250" width="3054" height="1003"/>
        <path fill="rgb(230,230,230)" stroke="none" d="M 9549,16251 L 8023,16251 8023,15251 11074,15251 11074,16251 9549,16251 Z"/>
        <path fill="none" stroke="rgb(52,101,164)" d="M 9549,16251 L 8023,16251 8023,15251 11074,15251 11074,16251 9549,16251 Z"/>
        <text class="SVGTextShape"><tspan class="TextParagraph" font-family="Liberation Sans, sans-serif" font-size="635px" font-weight="400"><tspan class="TextPosition" x="9022" y="15972"><tspan fill="rgb(0,0,0)" stroke="none" style="white-space: pre">Nils</tspan></tspan></tspan></text>
       </g>
      </g>
      <g class="com.sun.star.drawing.CustomShape">
       <g id="id41">
        <rect class="BoundingBox" stroke="none" fill="none" x="17873" y="15250" width="3790" height="1003"/>
        <path fill="rgb(230,230,230)" stroke="none" d="M 19768,16251 L 17874,16251 17874,15251 21661,15251 21661,16251 19768,16251 Z"/>
        <path fill="none" stroke="rgb(52,101,164)" d="M 19768,16251 L 17874,16251 17874,15251 21661,15251 21661,16251 19768,16251 Z"/>
        <text class="SVGTextShape"><tspan class="TextParagraph" font-family="Liberation Sans, sans-serif" font-size="635px" font-weight="400"><tspan class="TextPosition" x="18817" y="15972"><tspan fill="rgb(0,0,0)" stroke="none" style="white-space: pre">Finans</tspan></tspan></tspan></text>
       </g>
      </g>
      <g class="com.sun.star.drawing.CustomShape">
       <g id="id42">
        <rect class="BoundingBox" stroke="none" fill="none" x="8022" y="14250" width="3054" height="1003"/>
        <path fill="rgb(230,230,230)" stroke="none" d="M 9549,15251 L 8023,15251 8023,14251 11074,14251 11074,15251 9549,15251 Z"/>
        <path fill="none" stroke="rgb(52,101,164)" d="M 9549,15251 L 8023,15251 8023,14251 11074,14251 11074,15251 9549,15251 Z"/>
        <text class="SVGTextShape"><tspan class="TextParagraph" font-family="Liberation Sans, sans-serif" font-size="635px" font-weight="400"><tspan class="TextPosition" x="9003" y="14972"><tspan fill="rgb(0,0,0)" stroke="none" style="white-space: pre">Pål </tspan></tspan></tspan></text>
       </g>
      </g>
      <g class="com.sun.star.drawing.CustomShape">
       <g id="id43">
        <rect class="BoundingBox" stroke="none" fill="none" x="17873" y="14250" width="3790" height="1003"/>
        <path fill="rgb(230,230,230)" stroke="none" d="M 19768,15251 L 17874,15251 17874,14251 21661,14251 21661,15251 19768,15251 Z"/>
        <path fill="none" stroke="rgb(52,101,164)" d="M 19768,15251 L 17874,15251 17874,14251 21661,14251 21661,15251 19768,15251 Z"/>
        <text class="SVGTextShape"><tspan class="TextParagraph" font-family="Liberation Sans, sans-serif" font-size="635px" font-weight="400"><tspan class="TextPosition" x="19135" y="14972"><tspan fill="rgb(0,0,0)" stroke="none" style="white-space: pre">Salg</tspan></tspan></tspan></text>
       </g>
      </g>
      <g class="com.sun.star.drawing.CustomShape">
       <g id="id44">
        <rect class="BoundingBox" stroke="none" fill="none" x="8022" y="16250" width="3054" height="1003"/>
        <path fill="rgb(230,230,230)" stroke="none" d="M 9549,17251 L 8023,17251 8023,16251 11074,16251 11074,17251 9549,17251 Z"/>
        <path fill="none" stroke="rgb(52,101,164)" d="M 9549,17251 L 8023,17251 8023,16251 11074,16251 11074,17251 9549,17251 Z"/>
        <text class="SVGTextShape"><tspan class="TextParagraph" font-family="Liberation Sans, sans-serif" font-size="635px" font-weight="400"><tspan class="TextPosition" x="9161" y="16972"><tspan fill="rgb(0,0,0)" stroke="none" style="white-space: pre">Ari</tspan></tspan></tspan></text>
       </g>
      </g>
      <g class="com.sun.star.drawing.CustomShape">
       <g id="id45">
        <rect class="BoundingBox" stroke="none" fill="none" x="17873" y="16250" width="3790" height="1003"/>
        <path fill="rgb(230,230,230)" stroke="none" d="M 19768,17251 L 17874,17251 17874,16251 21661,16251 21661,17251 19768,17251 Z"/>
        <path fill="none" stroke="rgb(52,101,164)" d="M 19768,17251 L 17874,17251 17874,16251 21661,16251 21661,17251 19768,17251 Z"/>
        <text class="SVGTextShape"><tspan class="TextParagraph" font-family="Liberation Sans, sans-serif" font-size="635px" font-weight="400"><tspan class="TextPosition" x="19135" y="16972"><tspan fill="rgb(0,0,0)" stroke="none" style="white-space: pre">Salg</tspan></tspan></tspan></text>
       </g>
      </g>
      <g class="com.sun.star.drawing.CustomShape">
       <g id="id46">
        <rect class="BoundingBox" stroke="none" fill="none" x="4853" y="14250" width="3172" height="1003"/>
        <path fill="rgb(230,230,230)" stroke="none" d="M 6439,15251 L 4854,15251 4854,14251 8023,14251 8023,15251 6439,15251 Z"/>
        <path fill="none" stroke="rgb(52,101,164)" d="M 6439,15251 L 4854,15251 4854,14251 8023,14251 8023,15251 6439,15251 Z"/>
        <text class="SVGTextShape"><tspan class="TextParagraph" font-family="Liberation Sans, sans-serif" font-size="635px" font-weight="400"><tspan class="TextPosition" x="6263" y="14972"><tspan fill="rgb(0,0,0)" stroke="none" style="white-space: pre">1</tspan></tspan></tspan></text>
       </g>
      </g>
      <g class="com.sun.star.drawing.CustomShape">
       <g id="id47">
        <rect class="BoundingBox" stroke="none" fill="none" x="4853" y="15250" width="3172" height="1003"/>
        <path fill="rgb(230,230,230)" stroke="none" d="M 6439,16251 L 4854,16251 4854,15251 8023,15251 8023,16251 6439,16251 Z"/>
        <path fill="none" stroke="rgb(52,101,164)" d="M 6439,16251 L 4854,16251 4854,15251 8023,15251 8023,16251 6439,16251 Z"/>
        <text class="SVGTextShape"><tspan class="TextParagraph" font-family="Liberation Sans, sans-serif" font-size="635px" font-weight="400"><tspan class="TextPosition" x="6263" y="15972"><tspan fill="rgb(0,0,0)" stroke="none" style="white-space: pre">2</tspan></tspan></tspan></text>
       </g>
      </g>
      <g class="com.sun.star.drawing.CustomShape">
       <g id="id48">
        <rect class="BoundingBox" stroke="none" fill="none" x="4853" y="16250" width="3172" height="1003"/>
        <path fill="rgb(230,230,230)" stroke="none" d="M 6439,17251 L 4854,17251 4854,16251 8023,16251 8023,17251 6439,17251 Z"/>
        <path fill="none" stroke="rgb(52,101,164)" d="M 6439,17251 L 4854,17251 4854,16251 8023,16251 8023,17251 6439,17251 Z"/>
        <text class="SVGTextShape"><tspan class="TextParagraph" font-family="Liberation Sans, sans-serif" font-size="635px" font-weight="400"><tspan class="TextPosition" x="6263" y="16972"><tspan fill="rgb(0,0,0)" stroke="none" style="white-space: pre">3</tspan></tspan></tspan></text>
       </g>
      </g>
      <g class="com.sun.star.drawing.CustomShape">
       <g id="id49">
        <rect class="BoundingBox" stroke="none" fill="none" x="4854" y="12250" width="19821" height="1003"/>
        <path fill="rgb(179,179,179)" stroke="none" d="M 14764,13251 L 4855,13251 4855,12251 24673,12251 24673,13251 14764,13251 Z"/>
        <path fill="none" stroke="rgb(52,101,164)" d="M 14764,13251 L 4855,13251 4855,12251 24673,12251 24673,13251 14764,13251 Z"/>
        <text class="SVGTextShape"><tspan class="TextParagraph" font-family="Liberation Sans, sans-serif" font-size="635px" font-weight="400"><tspan class="TextPosition" x="12131" y="12972"><tspan fill="rgb(0,0,0)" stroke="none" style="white-space: pre">ansatte ⟖ avdeling</tspan></tspan></tspan></text>
       </g>
      </g>
      <g class="com.sun.star.drawing.CustomShape">
       <g id="id50">
        <rect class="BoundingBox" stroke="none" fill="none" x="8022" y="13250" width="3054" height="1003"/>
        <path fill="rgb(204,204,204)" stroke="none" d="M 9549,14251 L 8023,14251 8023,13251 11074,13251 11074,14251 9549,14251 Z"/>
        <path fill="none" stroke="rgb(52,101,164)" d="M 9549,14251 L 8023,14251 8023,13251 11074,13251 11074,14251 9549,14251 Z"/>
        <text class="SVGTextShape"><tspan class="TextParagraph" font-family="Liberation Sans, sans-serif" font-size="635px" font-weight="400"><tspan class="TextPosition" x="8493" y="13972"><tspan fill="rgb(0,0,0)" stroke="none" style="white-space: pre">fornavn</tspan></tspan></tspan></text>
       </g>
      </g>
      <g class="com.sun.star.drawing.CustomShape">
       <g id="id51">
        <rect class="BoundingBox" stroke="none" fill="none" x="17873" y="13250" width="3790" height="1003"/>
        <path fill="rgb(204,204,204)" stroke="none" d="M 19768,14251 L 17874,14251 17874,13251 21661,13251 21661,14251 19768,14251 Z"/>
        <path fill="none" stroke="rgb(52,101,164)" d="M 19768,14251 L 17874,14251 17874,13251 21661,13251 21661,14251 19768,14251 Z"/>
        <text class="SVGTextShape"><tspan class="TextParagraph" font-family="Liberation Sans, sans-serif" font-size="635px" font-weight="400"><tspan class="TextPosition" x="18591" y="13972"><tspan fill="rgb(0,0,0)" stroke="none" style="white-space: pre">avdeling</tspan></tspan></tspan></text>
       </g>
      </g>
      <g class="com.sun.star.drawing.CustomShape">
       <g id="id52">
        <rect class="BoundingBox" stroke="none" fill="none" x="4853" y="13250" width="3172" height="1003"/>
        <path fill="rgb(204,204,204)" stroke="none" d="M 6439,14251 L 4854,14251 4854,13251 8023,13251 8023,14251 6439,14251 Z"/>
        <path fill="none" stroke="rgb(52,101,164)" d="M 6439,14251 L 4854,14251 4854,13251 8023,13251 8023,14251 6439,14251 Z"/>
        <text class="SVGTextShape"><tspan class="TextParagraph" font-family="Liberation Sans, sans-serif" font-size="635px" font-weight="400"><tspan class="TextPosition" x="5241" y="13972"><tspan fill="rgb(0,0,0)" stroke="none" style="white-space: pre">ansattNr</tspan></tspan></tspan></text>
       </g>
      </g>
      <g class="com.sun.star.drawing.CustomShape">
       <g id="id53">
        <rect class="BoundingBox" stroke="none" fill="none" x="10807" y="15250" width="3495" height="1003"/>
        <path fill="rgb(230,230,230)" stroke="none" d="M 12554,16251 L 10808,16251 10808,15251 14300,15251 14300,16251 12554,16251 Z"/>
        <path fill="none" stroke="rgb(52,101,164)" d="M 12554,16251 L 10808,16251 10808,15251 14300,15251 14300,16251 12554,16251 Z"/>
        <text class="SVGTextShape"><tspan class="TextParagraph" font-family="Liberation Sans, sans-serif" font-size="635px" font-weight="400"><tspan class="TextPosition" x="11676" y="15972"><tspan fill="rgb(0,0,0)" stroke="none" style="white-space: pre">Nilsen</tspan></tspan></tspan></text>
       </g>
      </g>
      <g class="com.sun.star.drawing.CustomShape">
       <g id="id54">
        <rect class="BoundingBox" stroke="none" fill="none" x="10807" y="14250" width="3495" height="1003"/>
        <path fill="rgb(230,230,230)" stroke="none" d="M 12554,15251 L 10808,15251 10808,14251 14300,14251 14300,15251 12554,15251 Z"/>
        <path fill="none" stroke="rgb(52,101,164)" d="M 12554,15251 L 10808,15251 10808,14251 14300,14251 14300,15251 12554,15251 Z"/>
        <text class="SVGTextShape"><tspan class="TextParagraph" font-family="Liberation Sans, sans-serif" font-size="635px" font-weight="400"><tspan class="TextPosition" x="11375" y="14972"><tspan fill="rgb(0,0,0)" stroke="none" style="white-space: pre">Solberg </tspan></tspan></tspan></text>
       </g>
      </g>
      <g class="com.sun.star.drawing.CustomShape">
       <g id="id55">
        <rect class="BoundingBox" stroke="none" fill="none" x="10807" y="16250" width="3495" height="1003"/>
        <path fill="rgb(230,230,230)" stroke="none" d="M 12554,17251 L 10808,17251 10808,16251 14300,16251 14300,17251 12554,17251 Z"/>
        <path fill="none" stroke="rgb(52,101,164)" d="M 12554,17251 L 10808,17251 10808,16251 14300,16251 14300,17251 12554,17251 Z"/>
        <text class="SVGTextShape"><tspan class="TextParagraph" font-family="Liberation Sans, sans-serif" font-size="635px" font-weight="400"><tspan class="TextPosition" x="11464" y="16972"><tspan fill="rgb(0,0,0)" stroke="none" style="white-space: pre">Hansen</tspan></tspan></tspan></text>
       </g>
      </g>
      <g class="com.sun.star.drawing.CustomShape">
       <g id="id56">
        <rect class="BoundingBox" stroke="none" fill="none" x="10807" y="13250" width="3495" height="1003"/>
        <path fill="rgb(204,204,204)" stroke="none" d="M 12554,14251 L 10808,14251 10808,13251 14300,13251 14300,14251 12554,14251 Z"/>
        <path fill="none" stroke="rgb(52,101,164)" d="M 12554,14251 L 10808,14251 10808,13251 14300,13251 14300,14251 12554,14251 Z"/>
        <text class="SVGTextShape"><tspan class="TextParagraph" font-family="Liberation Sans, sans-serif" font-size="635px" font-weight="400"><tspan class="TextPosition" x="11233" y="13972"><tspan fill="rgb(0,0,0)" stroke="none" style="white-space: pre">etternavn</tspan></tspan></tspan></text>
       </g>
      </g>
      <g class="com.sun.star.drawing.CustomShape">
       <g id="id57">
        <rect class="BoundingBox" stroke="none" fill="none" x="21620" y="15250" width="3054" height="1003"/>
        <path fill="rgb(230,230,230)" stroke="none" d="M 23147,16251 L 21621,16251 21621,15251 24672,15251 24672,16251 23147,16251 Z"/>
        <path fill="none" stroke="rgb(52,101,164)" d="M 23147,16251 L 21621,16251 21621,15251 24672,15251 24672,16251 23147,16251 Z"/>
        <text class="SVGTextShape"><tspan class="TextParagraph" font-family="Liberation Sans, sans-serif" font-size="635px" font-weight="400"><tspan class="TextPosition" x="22266" y="15972"><tspan fill="rgb(0,0,0)" stroke="none" style="white-space: pre">Georg</tspan></tspan></tspan></text>
       </g>
      </g>
      <g class="com.sun.star.drawing.CustomShape">
       <g id="id58">
        <rect class="BoundingBox" stroke="none" fill="none" x="21620" y="14250" width="3054" height="1003"/>
        <path fill="rgb(230,230,230)" stroke="none" d="M 23147,15251 L 21621,15251 21621,14251 24672,14251 24672,15251 23147,15251 Z"/>
        <path fill="none" stroke="rgb(52,101,164)" d="M 23147,15251 L 21621,15251 21621,14251 24672,14251 24672,15251 23147,15251 Z"/>
        <text class="SVGTextShape"><tspan class="TextParagraph" font-family="Liberation Sans, sans-serif" font-size="635px" font-weight="400"><tspan class="TextPosition" x="22654" y="14972"><tspan fill="rgb(0,0,0)" stroke="none" style="white-space: pre">Liv </tspan></tspan></tspan></text>
       </g>
      </g>
      <g class="com.sun.star.drawing.CustomShape">
       <g id="id59">
        <rect class="BoundingBox" stroke="none" fill="none" x="21620" y="13250" width="3054" height="1003"/>
        <path fill="rgb(204,204,204)" stroke="none" d="M 23147,14251 L 21621,14251 21621,13251 24672,13251 24672,14251 23147,14251 Z"/>
        <path fill="none" stroke="rgb(52,101,164)" d="M 23147,14251 L 21621,14251 21621,13251 24672,13251 24672,14251 23147,14251 Z"/>
        <text class="SVGTextShape"><tspan class="TextParagraph" font-family="Liberation Sans, sans-serif" font-size="635px" font-weight="400"><tspan class="TextPosition" x="22444" y="13972"><tspan fill="rgb(0,0,0)" stroke="none" style="white-space: pre">leder</tspan></tspan></tspan></text>
       </g>
      </g>
      <g class="com.sun.star.drawing.CustomShape">
       <g id="id60">
        <rect class="BoundingBox" stroke="none" fill="none" x="21620" y="16250" width="3054" height="1003"/>
        <path fill="rgb(230,230,230)" stroke="none" d="M 23147,17251 L 21621,17251 21621,16251 24672,16251 24672,17251 23147,17251 Z"/>
        <path fill="none" stroke="rgb(52,101,164)" d="M 23147,17251 L 21621,17251 21621,16251 24672,16251 24672,17251 23147,17251 Z"/>
        <text class="SVGTextShape"><tspan class="TextParagraph" font-family="Liberation Sans, sans-serif" font-size="635px" font-weight="400"><tspan class="TextPosition" x="22654" y="16972"><tspan fill="rgb(0,0,0)" stroke="none" style="white-space: pre">Liv </tspan></tspan></tspan></text>
       </g>
      </g>
      <g class="com.sun.star.drawing.CustomShape">
       <g id="id61">
        <rect class="BoundingBox" stroke="none" fill="none" x="14073" y="15250" width="3790" height="1003"/>
        <path fill="rgb(230,230,230)" stroke="none" d="M 15968,16251 L 14074,16251 14074,15251 17861,15251 17861,16251 15968,16251 Z"/>
        <path fill="none" stroke="rgb(52,101,164)" d="M 15968,16251 L 14074,16251 14074,15251 17861,15251 17861,16251 15968,16251 Z"/>
        <text class="SVGTextShape"><tspan class="TextParagraph" font-family="Liberation Sans, sans-serif" font-size="635px" font-weight="400"><tspan class="TextPosition" x="15017" y="15972"><tspan fill="rgb(0,0,0)" stroke="none" style="white-space: pre">Finans</tspan></tspan></tspan></text>
       </g>
      </g>
      <g class="com.sun.star.drawing.CustomShape">
       <g id="id62">
        <rect class="BoundingBox" stroke="none" fill="none" x="14073" y="14250" width="3790" height="1003"/>
        <path fill="rgb(230,230,230)" stroke="none" d="M 15968,15251 L 14074,15251 14074,14251 17861,14251 17861,15251 15968,15251 Z"/>
        <path fill="none" stroke="rgb(52,101,164)" d="M 15968,15251 L 14074,15251 14074,14251 17861,14251 17861,15251 15968,15251 Z"/>
        <text class="SVGTextShape"><tspan class="TextParagraph" font-family="Liberation Sans, sans-serif" font-size="635px" font-weight="400"><tspan class="TextPosition" x="15335" y="14972"><tspan fill="rgb(0,0,0)" stroke="none" style="white-space: pre">Salg</tspan></tspan></tspan></text>
       </g>
      </g>
      <g class="com.sun.star.drawing.CustomShape">
       <g id="id63">
        <rect class="BoundingBox" stroke="none" fill="none" x="14073" y="16250" width="3790" height="1003"/>
        <path fill="rgb(230,230,230)" stroke="none" d="M 15968,17251 L 14074,17251 14074,16251 17861,16251 17861,17251 15968,17251 Z"/>
        <path fill="none" stroke="rgb(52,101,164)" d="M 15968,17251 L 14074,17251 14074,16251 17861,16251 17861,17251 15968,17251 Z"/>
        <text class="SVGTextShape"><tspan class="TextParagraph" font-family="Liberation Sans, sans-serif" font-size="635px" font-weight="400"><tspan class="TextPosition" x="15335" y="16972"><tspan fill="rgb(0,0,0)" stroke="none" style="white-space: pre">Salg</tspan></tspan></tspan></text>
       </g>
      </g>
      <g class="com.sun.star.drawing.CustomShape">
       <g id="id64">
        <rect class="BoundingBox" stroke="none" fill="none" x="14073" y="13250" width="3790" height="1003"/>
        <path fill="rgb(204,204,204)" stroke="none" d="M 15968,14251 L 14074,14251 14074,13251 17861,13251 17861,14251 15968,14251 Z"/>
        <path fill="none" stroke="rgb(52,101,164)" d="M 15968,14251 L 14074,14251 14074,13251 17861,13251 17861,14251 15968,14251 Z"/>
        <text class="SVGTextShape"><tspan class="TextParagraph" font-family="Liberation Sans, sans-serif" font-size="635px" font-weight="400"><tspan class="TextPosition" x="14791" y="13972"><tspan fill="rgb(0,0,0)" stroke="none" style="white-space: pre">avdeling</tspan></tspan></tspan></text>
       </g>
      </g>
      <g class="com.sun.star.drawing.CustomShape">
       <g id="id65">
        <rect class="BoundingBox" stroke="none" fill="none" x="8021" y="17250" width="3054" height="1003"/>
        <path fill="rgb(230,230,230)" stroke="none" d="M 9548,18251 L 8022,18251 8022,17251 11073,17251 11073,18251 9548,18251 Z"/>
        <path fill="none" stroke="rgb(52,101,164)" d="M 9548,18251 L 8022,18251 8022,17251 11073,17251 11073,18251 9548,18251 Z"/>
        <text class="SVGTextShape"><tspan class="TextParagraph" font-family="Liberation Sans, sans-serif" font-size="635px" font-style="italic" font-weight="400"><tspan class="TextPosition" x="8739" y="17972"><tspan fill="rgb(0,0,0)" stroke="none" style="white-space: pre">NULL</tspan></tspan></tspan></text>
       </g>
      </g>
      <g class="com.sun.star.drawing.CustomShape">
       <g id="id66">
        <rect class="BoundingBox" stroke="none" fill="none" x="17872" y="17250" width="3790" height="1003"/>
        <path fill="rgb(230,230,230)" stroke="none" d="M 19767,18251 L 17873,18251 17873,17251 21660,17251 21660,18251 19767,18251 Z"/>
        <path fill="none" stroke="rgb(52,101,164)" d="M 19767,18251 L 17873,18251 17873,17251 21660,17251 21660,18251 19767,18251 Z"/>
        <text class="SVGTextShape"><tspan class="TextParagraph" font-family="Liberation Sans, sans-serif" font-size="635px" font-weight="400"><tspan class="TextPosition" x="18869" y="17972"><tspan fill="rgb(0,0,0)" stroke="none" style="white-space: pre">Admin</tspan></tspan></tspan></text>
       </g>
      </g>
      <g class="com.sun.star.drawing.CustomShape">
       <g id="id67">
        <rect class="BoundingBox" stroke="none" fill="none" x="4852" y="17250" width="3172" height="1003"/>
        <path fill="rgb(230,230,230)" stroke="none" d="M 6438,18251 L 4853,18251 4853,17251 8022,17251 8022,18251 6438,18251 Z"/>
        <path fill="none" stroke="rgb(52,101,164)" d="M 6438,18251 L 4853,18251 4853,17251 8022,17251 8022,18251 6438,18251 Z"/>
        <text class="SVGTextShape"><tspan class="TextParagraph" font-family="Liberation Sans, sans-serif" font-size="635px" font-style="italic" font-weight="400"><tspan class="TextPosition" x="5629" y="17972"><tspan fill="rgb(0,0,0)" stroke="none" style="white-space: pre">NULL</tspan></tspan></tspan></text>
       </g>
      </g>
      <g class="com.sun.star.drawing.CustomShape">
       <g id="id68">
        <rect class="BoundingBox" stroke="none" fill="none" x="10806" y="17250" width="3495" height="1003"/>
        <path fill="rgb(230,230,230)" stroke="none" d="M 12553,18251 L 10807,18251 10807,17251 14299,17251 14299,18251 12553,18251 Z"/>
        <path fill="none" stroke="rgb(52,101,164)" d="M 12553,18251 L 10807,18251 10807,17251 14299,17251 14299,18251 12553,18251 Z"/>
        <text class="SVGTextShape"><tspan class="TextParagraph" font-family="Liberation Sans, sans-serif" font-size="635px" font-style="italic" font-weight="400"><tspan class="TextPosition" x="11745" y="17972"><tspan fill="rgb(0,0,0)" stroke="none" style="white-space: pre">NULL</tspan></tspan></tspan></text>
       </g>
      </g>
      <g class="com.sun.star.drawing.CustomShape">
       <g id="id69">
        <rect class="BoundingBox" stroke="none" fill="none" x="21619" y="17250" width="3054" height="1003"/>
        <path fill="rgb(230,230,230)" stroke="none" d="M 23146,18251 L 21620,18251 21620,17251 24671,17251 24671,18251 23146,18251 Z"/>
        <path fill="none" stroke="rgb(52,101,164)" d="M 23146,18251 L 21620,18251 21620,17251 24671,17251 24671,18251 23146,18251 Z"/>
        <text class="SVGTextShape"><tspan class="TextParagraph" font-family="Liberation Sans, sans-serif" font-size="635px" font-weight="400"><tspan class="TextPosition" x="22689" y="17972"><tspan fill="rgb(0,0,0)" stroke="none" style="white-space: pre">Pål</tspan></tspan></tspan></text>
       </g>
      </g>
      <g class="com.sun.star.drawing.CustomShape">
       <g id="id70">
        <rect class="BoundingBox" stroke="none" fill="none" x="14072" y="17250" width="3790" height="1003"/>
        <path fill="rgb(230,230,230)" stroke="none" d="M 15967,18251 L 14073,18251 14073,17251 17860,17251 17860,18251 15967,18251 Z"/>
        <path fill="none" stroke="rgb(52,101,164)" d="M 15967,18251 L 14073,18251 14073,17251 17860,17251 17860,18251 15967,18251 Z"/>
        <text class="SVGTextShape"><tspan class="TextParagraph" font-family="Liberation Sans, sans-serif" font-size="635px" font-style="italic" font-weight="400"><tspan class="TextPosition" x="15158" y="17972"><tspan fill="rgb(0,0,0)" stroke="none" style="white-space: pre">NULL</tspan></tspan></tspan></text>
       </g>
      </g>
     </g>
    </g>
   </g>
  </g>
 </g>
</svg>