<?xml version="1.0" encoding="UTF-8"?>
<!DOCTYPE svg PUBLIC "-//W3C//DTD SVG 1.1//EN" "http://www.w3.org/Graphics/SVG/1.1/DTD/svg11.dtd">
<svg version="1.2" width="287.02mm" height="114.3mm" viewBox="0 0 28702 11430" preserveAspectRatio="xMidYMid" fill-rule="evenodd" stroke-width="28.222" stroke-linejoin="round" xmlns="http://www.w3.org/2000/svg" xmlns:ooo="http://xml.openoffice.org/svg/export" xmlns:xlink="http://www.w3.org/1999/xlink" xmlns:presentation="http://sun.com/xmlns/staroffice/presentation" xmlns:smil="http://www.w3.org/2001/SMIL20/" xmlns:anim="urn:oasis:names:tc:opendocument:xmlns:animation:1.0" xml:space="preserve">
 <defs class="ClipPathGroup">
  <clipPath id="presentation_clip_path" clipPathUnits="userSpaceOnUse">
   <rect x="0" y="0" width="28702" height="11430"/>
  </clipPath>
  <clipPath id="presentation_clip_path_shrink" clipPathUnits="userSpaceOnUse">
   <rect x="28" y="11" width="28645" height="11408"/>
  </clipPath>
 </defs>
 <defs>
  <font id="EmbeddedFont_1" horiz-adv-x="2048">
   <font-face font-family="Liberation Sans embedded" units-per-em="2048" font-weight="normal" font-style="normal" ascent="1852" descent="423"/>
   <missing-glyph horiz-adv-x="2048" d="M 0,0 L 2047,0 2047,2047 0,2047 0,0 Z"/>
   <glyph unicode="ø" horiz-adv-x="1192" d="M 1112,542 C 1112,353 1070,212 987,119 904,26 783,-20 624,-20 494,-20 390,13 311,78 L 211,-38 44,-38 228,176 C 173,268 145,390 145,542 145,915 307,1102 630,1102 764,1102 869,1072 946,1011 L 1037,1116 1204,1116 1031,915 C 1085,826 1112,702 1112,542 Z M 923,542 C 923,628 915,702 900,763 L 417,201 C 462,142 531,113 622,113 730,113 807,148 854,217 900,286 923,395 923,542 Z M 334,542 C 334,455 342,384 358,327 L 840,888 C 795,942 726,969 633,969 528,969 452,935 405,866 358,797 334,689 334,542 Z"/>
   <glyph unicode="Å" horiz-adv-x="1377" d="M 1167,0 L 1006,412 364,412 202,0 4,0 579,1409 796,1409 1362,0 1167,0 Z M 685,1265 L 676,1237 C 659,1182 635,1111 602,1024 L 422,561 949,561 768,1026 C 749,1072 731,1124 712,1182 L 685,1265 Z M 928,1546 C 928,1479 904,1422 857,1375 810,1328 753,1304 686,1304 619,1304 562,1328 515,1375 468,1422 444,1479 444,1546 444,1613 468,1670 515,1717 562,1764 619,1787 686,1787 752,1787 809,1764 857,1717 904,1670 928,1613 928,1546 Z M 820,1546 C 820,1583 807,1615 781,1641 755,1667 723,1680 686,1680 648,1680 616,1667 590,1641 564,1615 551,1583 551,1546 551,1509 564,1477 589,1450 614,1423 647,1409 686,1409 725,1409 757,1423 782,1450 807,1477 820,1509 820,1546 Z"/>
   <glyph unicode="z" horiz-adv-x="848" d="M 83,0 L 83,137 688,943 117,943 117,1082 901,1082 901,945 295,139 922,139 922,0 83,0 Z"/>
   <glyph unicode="y" horiz-adv-x="1033" d="M 191,-425 C 142,-425 100,-421 67,-414 L 67,-279 C 92,-283 120,-285 151,-285 263,-285 352,-203 417,-38 L 434,5 5,1082 197,1082 425,484 C 428,475 432,464 437,451 442,438 457,394 482,320 507,246 521,205 523,196 L 593,393 830,1082 1020,1082 604,0 C 559,-115 518,-201 479,-258 440,-314 398,-356 351,-384 304,-411 250,-425 191,-425 Z"/>
   <glyph unicode="v" horiz-adv-x="1033" d="M 613,0 L 400,0 7,1082 199,1082 437,378 C 446,351 469,272 506,141 L 541,258 580,376 826,1082 1017,1082 613,0 Z"/>
   <glyph unicode="u" horiz-adv-x="874" d="M 314,1082 L 314,396 C 314,325 321,269 335,230 349,191 371,162 402,145 433,128 478,119 537,119 624,119 692,149 742,208 792,267 817,350 817,455 L 817,1082 997,1082 997,231 C 997,105 999,28 1003,0 L 833,0 C 832,3 832,12 831,27 830,42 830,59 829,78 828,97 826,132 825,185 L 822,185 C 781,110 733,58 679,27 624,-4 557,-20 476,-20 357,-20 271,10 216,69 161,128 133,225 133,361 L 133,1082 314,1082 Z"/>
   <glyph unicode="t" horiz-adv-x="531" d="M 554,8 C 495,-8 434,-16 372,-16 228,-16 156,66 156,229 L 156,951 31,951 31,1082 163,1082 216,1324 336,1324 336,1082 536,1082 536,951 336,951 336,268 C 336,216 345,180 362,159 379,138 408,127 450,127 474,127 509,132 554,141 L 554,8 Z"/>
   <glyph unicode="s" horiz-adv-x="901" d="M 950,299 C 950,197 912,118 835,63 758,8 650,-20 511,-20 376,-20 273,2 200,47 127,91 79,160 57,254 L 216,285 C 231,227 263,185 311,158 359,131 426,117 511,117 602,117 669,131 712,159 754,187 775,229 775,285 775,328 760,362 731,389 702,416 654,438 589,455 L 460,489 C 357,516 283,542 240,568 196,593 162,624 137,661 112,698 100,743 100,796 100,895 135,970 206,1022 276,1073 378,1099 513,1099 632,1099 727,1078 798,1036 868,994 912,927 931,834 L 769,814 C 759,862 732,899 689,925 645,950 586,963 513,963 432,963 372,951 333,926 294,901 275,864 275,814 275,783 283,758 299,738 315,718 339,701 370,687 401,673 467,654 568,629 663,605 732,583 774,563 816,542 849,520 874,495 898,470 917,442 930,410 943,377 950,340 950,299 Z"/>
   <glyph unicode="r" horiz-adv-x="530" d="M 142,0 L 142,830 C 142,906 140,990 136,1082 L 306,1082 C 311,959 314,886 314,861 L 318,861 C 347,954 380,1017 417,1051 454,1085 507,1102 575,1102 599,1102 623,1099 648,1092 L 648,927 C 624,934 592,937 552,937 477,937 420,905 381,841 342,776 322,684 322,564 L 322,0 142,0 Z"/>
   <glyph unicode="o" horiz-adv-x="980" d="M 1053,542 C 1053,353 1011,212 928,119 845,26 724,-20 565,-20 407,-20 288,28 207,125 126,221 86,360 86,542 86,915 248,1102 571,1102 736,1102 858,1057 936,966 1014,875 1053,733 1053,542 Z M 864,542 C 864,691 842,800 798,868 753,935 679,969 574,969 469,969 393,935 346,866 299,797 275,689 275,542 275,399 298,292 345,221 391,149 464,113 563,113 671,113 748,148 795,217 841,286 864,395 864,542 Z"/>
   <glyph unicode="n" horiz-adv-x="874" d="M 825,0 L 825,686 C 825,757 818,813 804,852 790,891 768,920 737,937 706,954 661,963 602,963 515,963 447,933 397,874 347,815 322,732 322,627 L 322,0 142,0 142,851 C 142,977 140,1054 136,1082 L 306,1082 C 307,1079 307,1070 308,1055 309,1040 310,1024 311,1005 312,986 313,950 314,897 L 317,897 C 358,972 406,1025 461,1056 515,1087 582,1102 663,1102 782,1102 869,1073 924,1014 979,955 1006,857 1006,721 L 1006,0 825,0 Z"/>
   <glyph unicode="m" horiz-adv-x="1457" d="M 768,0 L 768,686 C 768,791 754,863 725,903 696,943 645,963 570,963 493,963 433,934 388,875 343,816 321,734 321,627 L 321,0 142,0 142,851 C 142,977 140,1054 136,1082 L 306,1082 C 307,1079 307,1070 308,1055 309,1040 310,1024 311,1005 312,986 313,950 314,897 L 317,897 C 356,974 400,1027 450,1057 500,1087 561,1102 633,1102 715,1102 780,1086 828,1053 875,1020 908,968 927,897 L 930,897 C 967,970 1013,1022 1066,1054 1119,1086 1183,1102 1258,1102 1367,1102 1447,1072 1497,1013 1546,954 1571,856 1571,721 L 1571,0 1393,0 1393,686 C 1393,791 1379,863 1350,903 1321,943 1270,963 1195,963 1116,963 1055,934 1012,876 968,817 946,734 946,627 L 946,0 768,0 Z"/>
   <glyph unicode="l" horiz-adv-x="187" d="M 138,0 L 138,1484 318,1484 318,0 138,0 Z"/>
   <glyph unicode="k" horiz-adv-x="901" d="M 816,0 L 450,494 318,385 318,0 138,0 138,1484 318,1484 318,557 793,1082 1004,1082 565,617 1027,0 816,0 Z"/>
   <glyph unicode="i" horiz-adv-x="187" d="M 137,1312 L 137,1484 317,1484 317,1312 137,1312 Z M 137,0 L 137,1082 317,1082 317,0 137,0 Z"/>
   <glyph unicode="h" horiz-adv-x="874" d="M 317,897 C 356,968 402,1020 457,1053 511,1086 580,1102 663,1102 780,1102 867,1073 923,1015 978,956 1006,858 1006,721 L 1006,0 825,0 825,686 C 825,762 818,819 804,856 790,893 767,920 735,937 703,954 659,963 602,963 517,963 450,934 399,875 348,816 322,737 322,638 L 322,0 142,0 142,1484 322,1484 322,1098 C 322,1057 321,1015 319,972 316,929 315,904 314,897 L 317,897 Z"/>
   <glyph unicode="g" horiz-adv-x="927" d="M 548,-425 C 430,-425 336,-402 266,-356 196,-309 151,-243 131,-158 L 312,-132 C 324,-182 351,-220 392,-248 433,-274 486,-288 553,-288 732,-288 822,-183 822,27 L 822,201 820,201 C 786,132 739,80 680,45 621,10 551,-8 472,-8 339,-8 242,36 180,124 117,212 86,350 86,539 86,730 120,872 187,963 254,1054 355,1099 492,1099 569,1099 635,1082 692,1047 748,1012 791,962 822,897 L 824,897 C 824,917 825,952 828,1001 831,1050 833,1077 836,1082 L 1007,1082 C 1003,1046 1001,971 1001,858 L 1001,31 C 1001,-273 850,-425 548,-425 Z M 822,541 C 822,629 810,705 786,769 762,832 728,881 685,915 641,948 591,965 536,965 444,965 377,932 335,865 293,798 272,690 272,541 272,393 292,287 331,222 370,157 438,125 533,125 590,125 640,142 684,175 728,208 762,256 786,319 810,381 822,455 822,541 Z"/>
   <glyph unicode="f" horiz-adv-x="557" d="M 361,951 L 361,0 181,0 181,951 29,951 29,1082 181,1082 181,1204 C 181,1303 203,1374 246,1417 289,1460 356,1482 445,1482 495,1482 537,1478 572,1470 L 572,1333 C 542,1338 515,1341 492,1341 446,1341 413,1329 392,1306 371,1283 361,1240 361,1179 L 361,1082 572,1082 572,951 361,951 Z"/>
   <glyph unicode="e" horiz-adv-x="980" d="M 276,503 C 276,379 302,283 353,216 404,149 479,115 578,115 656,115 719,131 766,162 813,193 844,233 861,281 L 1019,236 C 954,65 807,-20 578,-20 418,-20 296,28 213,123 129,218 87,360 87,548 87,727 129,864 213,959 296,1054 416,1102 571,1102 889,1102 1048,910 1048,527 L 1048,503 276,503 Z M 862,641 C 852,755 823,838 775,891 727,943 658,969 568,969 481,969 412,940 361,882 310,823 282,743 278,641 L 862,641 Z"/>
   <glyph unicode="d" horiz-adv-x="927" d="M 821,174 C 788,105 744,55 689,25 634,-5 565,-20 484,-20 347,-20 247,26 183,118 118,210 86,349 86,536 86,913 219,1102 484,1102 566,1102 634,1087 689,1057 744,1027 788,979 821,914 L 823,914 821,1035 821,1484 1001,1484 1001,223 C 1001,110 1003,36 1007,0 L 835,0 C 833,11 831,35 829,74 826,113 825,146 825,174 L 821,174 Z M 275,542 C 275,391 295,282 335,217 375,152 440,119 530,119 632,119 706,154 752,225 798,296 821,405 821,554 821,697 798,802 752,869 706,936 633,969 532,969 441,969 376,936 336,869 295,802 275,693 275,542 Z"/>
   <glyph unicode="c" horiz-adv-x="901" d="M 275,546 C 275,402 298,295 343,226 388,157 457,122 548,122 612,122 666,139 709,174 752,209 778,262 788,334 L 970,322 C 956,218 912,135 837,73 762,11 668,-20 553,-20 402,-20 286,28 207,124 127,219 87,359 87,542 87,724 127,863 207,959 287,1054 402,1102 551,1102 662,1102 754,1073 827,1016 900,959 945,880 964,779 L 779,765 C 770,825 746,873 708,908 670,943 616,961 546,961 451,961 382,929 339,866 296,803 275,696 275,546 Z"/>
   <glyph unicode="b" horiz-adv-x="953" d="M 1053,546 C 1053,169 920,-20 655,-20 573,-20 505,-5 451,25 396,54 352,102 318,168 L 316,168 C 316,147 315,116 312,74 309,31 307,7 306,0 L 132,0 C 136,36 138,110 138,223 L 138,1484 318,1484 318,1061 C 318,1018 317,967 314,908 L 318,908 C 351,977 396,1027 451,1057 506,1087 574,1102 655,1102 792,1102 892,1056 957,964 1021,872 1053,733 1053,546 Z M 864,540 C 864,691 844,800 804,865 764,930 699,963 609,963 508,963 434,928 388,859 341,790 318,680 318,529 318,387 341,282 386,215 431,147 505,113 607,113 698,113 763,147 804,214 844,281 864,389 864,540 Z"/>
   <glyph unicode="a" horiz-adv-x="1060" d="M 414,-20 C 305,-20 224,9 169,66 114,123 87,202 87,302 87,414 124,500 198,560 271,620 390,652 554,656 L 797,660 797,719 C 797,807 778,870 741,908 704,946 645,965 565,965 484,965 426,951 389,924 352,897 330,853 323,793 L 135,810 C 166,1005 310,1102 569,1102 705,1102 807,1071 876,1009 945,946 979,856 979,738 L 979,272 C 979,219 986,179 1000,152 1014,125 1041,111 1080,111 1097,111 1117,113 1139,118 L 1139,6 C 1094,-5 1047,-10 1000,-10 933,-10 885,8 855,43 824,78 807,132 803,207 L 797,207 C 751,124 698,66 637,32 576,-3 501,-20 414,-20 Z M 455,115 C 521,115 580,130 631,160 682,190 723,231 753,284 782,336 797,390 797,445 L 797,534 600,530 C 515,529 451,520 408,504 364,488 330,463 307,430 284,397 272,353 272,299 272,240 288,195 320,163 351,131 396,115 455,115 Z"/>
   <glyph unicode="U" horiz-adv-x="1192" d="M 731,-20 C 616,-20 515,1 429,43 343,85 276,146 229,226 182,306 158,401 158,512 L 158,1409 349,1409 349,528 C 349,399 382,302 447,235 512,168 607,135 730,135 857,135 955,170 1026,239 1096,308 1131,408 1131,541 L 1131,1409 1321,1409 1321,530 C 1321,416 1297,318 1249,235 1200,152 1132,89 1044,46 955,2 851,-20 731,-20 Z"/>
   <glyph unicode="T" horiz-adv-x="1192" d="M 720,1253 L 720,0 530,0 530,1253 46,1253 46,1409 1204,1409 1204,1253 720,1253 Z"/>
   <glyph unicode="S" horiz-adv-x="1192" d="M 1272,389 C 1272,259 1221,158 1120,87 1018,16 875,-20 690,-20 347,-20 148,99 93,338 L 278,375 C 299,290 345,228 414,189 483,149 578,129 697,129 820,129 916,150 983,193 1050,235 1083,297 1083,379 1083,425 1073,462 1052,491 1031,520 1001,543 963,562 925,581 880,596 827,609 774,622 716,635 652,650 541,675 456,699 399,724 341,749 295,776 262,807 229,837 203,872 186,913 168,954 159,1000 159,1053 159,1174 205,1267 298,1332 390,1397 522,1430 694,1430 854,1430 976,1406 1061,1357 1146,1308 1205,1224 1239,1106 L 1051,1073 C 1030,1148 991,1202 933,1236 875,1269 795,1286 692,1286 579,1286 493,1267 434,1230 375,1193 345,1137 345,1063 345,1020 357,984 380,956 403,927 436,903 479,884 522,864 609,840 738,811 781,801 825,791 868,781 911,770 952,758 991,744 1030,729 1067,712 1102,693 1136,674 1166,650 1191,622 1216,594 1236,561 1251,523 1265,485 1272,440 1272,389 Z"/>
   <glyph unicode="R" horiz-adv-x="1244" d="M 1164,0 L 798,585 359,585 359,0 168,0 168,1409 831,1409 C 990,1409 1112,1374 1199,1303 1285,1232 1328,1133 1328,1006 1328,901 1298,813 1237,742 1176,671 1091,626 984,607 L 1384,0 1164,0 Z M 1136,1004 C 1136,1086 1108,1149 1053,1192 997,1235 917,1256 812,1256 L 359,1256 359,736 820,736 C 921,736 999,760 1054,807 1109,854 1136,919 1136,1004 Z"/>
   <glyph unicode="P" horiz-adv-x="1112" d="M 1258,985 C 1258,852 1215,746 1128,667 1041,588 922,549 773,549 L 359,549 359,0 168,0 168,1409 761,1409 C 919,1409 1041,1372 1128,1298 1215,1224 1258,1120 1258,985 Z M 1066,983 C 1066,1165 957,1256 738,1256 L 359,1256 359,700 746,700 C 959,700 1066,794 1066,983 Z"/>
   <glyph unicode="O" horiz-adv-x="1430" d="M 1495,711 C 1495,564 1467,435 1411,324 1354,213 1273,128 1168,69 1063,10 938,-20 795,-20 650,-20 526,9 421,68 316,127 235,212 180,323 125,434 97,563 97,711 97,936 159,1113 282,1240 405,1367 577,1430 797,1430 940,1430 1065,1402 1170,1345 1275,1288 1356,1205 1412,1096 1467,987 1495,859 1495,711 Z M 1300,711 C 1300,886 1256,1024 1169,1124 1081,1224 957,1274 797,1274 636,1274 511,1225 423,1126 335,1027 291,889 291,711 291,534 336,394 425,291 514,187 637,135 795,135 958,135 1083,185 1170,286 1257,386 1300,528 1300,711 Z"/>
   <glyph unicode="M" horiz-adv-x="1377" d="M 1366,0 L 1366,940 C 1366,1044 1369,1144 1375,1240 1342,1121 1313,1027 1287,960 L 923,0 789,0 420,960 364,1130 331,1240 334,1129 338,940 338,0 168,0 168,1409 419,1409 794,432 C 807,393 820,351 833,306 845,261 853,228 857,208 862,235 874,275 891,330 908,384 919,418 925,432 L 1293,1409 1538,1409 1538,0 1366,0 Z"/>
   <glyph unicode="L" horiz-adv-x="927" d="M 168,0 L 168,1409 359,1409 359,156 1071,156 1071,0 168,0 Z"/>
   <glyph unicode="K" horiz-adv-x="1191" d="M 1106,0 L 543,680 359,540 359,0 168,0 168,1409 359,1409 359,703 1038,1409 1263,1409 663,797 1343,0 1106,0 Z"/>
   <glyph unicode="I" horiz-adv-x="213" d="M 189,0 L 189,1409 380,1409 380,0 189,0 Z"/>
   <glyph unicode="H" horiz-adv-x="1165" d="M 1121,0 L 1121,653 359,653 359,0 168,0 168,1409 359,1409 359,813 1121,813 1121,1409 1312,1409 1312,0 1121,0 Z"/>
   <glyph unicode="G" horiz-adv-x="1377" d="M 103,711 C 103,940 164,1117 287,1242 410,1367 582,1430 804,1430 960,1430 1087,1404 1184,1351 1281,1298 1356,1214 1409,1098 L 1227,1044 C 1187,1124 1132,1182 1062,1219 991,1256 904,1274 799,1274 636,1274 512,1225 426,1127 340,1028 297,890 297,711 297,533 343,393 434,290 525,187 652,135 813,135 905,135 991,149 1071,177 1150,205 1215,243 1264,291 L 1264,545 843,545 843,705 1440,705 1440,219 C 1365,143 1274,84 1166,43 1057,1 940,-20 813,-20 666,-20 539,9 432,68 325,127 244,211 188,322 131,432 103,562 103,711 Z"/>
   <glyph unicode="F" horiz-adv-x="1006" d="M 359,1253 L 359,729 1145,729 1145,571 359,571 359,0 168,0 168,1409 1169,1409 1169,1253 359,1253 Z"/>
   <glyph unicode="E" horiz-adv-x="1138" d="M 168,0 L 168,1409 1237,1409 1237,1253 359,1253 359,801 1177,801 1177,647 359,647 359,156 1278,156 1278,0 168,0 Z"/>
   <glyph unicode="D" horiz-adv-x="1218" d="M 1381,719 C 1381,574 1353,447 1296,338 1239,229 1159,145 1055,87 951,29 831,0 695,0 L 168,0 168,1409 634,1409 C 873,1409 1057,1349 1187,1230 1316,1110 1381,940 1381,719 Z M 1189,719 C 1189,894 1141,1027 1046,1119 950,1210 811,1256 630,1256 L 359,1256 359,153 673,153 C 776,153 867,176 946,221 1024,266 1084,332 1126,417 1168,502 1189,603 1189,719 Z"/>
   <glyph unicode="C" horiz-adv-x="1324" d="M 792,1274 C 636,1274 515,1224 428,1124 341,1023 298,886 298,711 298,538 343,400 434,295 524,190 646,137 800,137 997,137 1146,235 1245,430 L 1401,352 C 1343,231 1262,138 1157,75 1052,12 930,-20 791,-20 649,-20 526,10 423,69 319,128 240,212 186,322 131,431 104,561 104,711 104,936 165,1112 286,1239 407,1366 575,1430 790,1430 940,1430 1065,1401 1166,1342 1267,1283 1341,1196 1388,1081 L 1207,1021 C 1174,1103 1122,1166 1050,1209 977,1252 891,1274 792,1274 Z"/>
   <glyph unicode="B" horiz-adv-x="1112" d="M 1258,397 C 1258,272 1212,174 1121,105 1030,35 903,0 740,0 L 168,0 168,1409 680,1409 C 1011,1409 1176,1295 1176,1067 1176,984 1153,914 1106,857 1059,800 993,762 908,743 1020,730 1106,692 1167,631 1228,569 1258,491 1258,397 Z M 984,1044 C 984,1120 958,1174 906,1207 854,1240 779,1256 680,1256 L 359,1256 359,810 680,810 C 782,810 858,829 909,868 959,906 984,965 984,1044 Z M 1065,412 C 1065,578 948,661 715,661 L 359,661 359,153 730,153 C 847,153 932,175 985,218 1038,261 1065,326 1065,412 Z"/>
   <glyph unicode="A" horiz-adv-x="1377" d="M 1167,0 L 1006,412 364,412 202,0 4,0 579,1409 796,1409 1362,0 1167,0 Z M 685,1265 L 676,1237 C 659,1182 635,1111 602,1024 L 422,561 949,561 768,1026 C 749,1072 731,1124 712,1182 L 685,1265 Z"/>
   <glyph unicode="9" horiz-adv-x="980" d="M 1042,733 C 1042,491 998,305 910,175 821,45 695,-20 532,-20 422,-20 334,3 268,50 201,96 154,171 125,274 L 297,301 C 333,184 412,125 535,125 638,125 718,173 775,269 832,365 861,502 864,680 837,620 792,572 727,536 662,499 591,481 514,481 387,481 286,524 210,611 134,698 96,813 96,956 96,1103 137,1219 220,1304 303,1388 418,1430 565,1430 722,1430 840,1372 921,1256 1002,1140 1042,966 1042,733 Z M 846,907 C 846,1020 820,1112 768,1181 716,1250 646,1284 559,1284 472,1284 404,1255 354,1196 304,1137 279,1057 279,956 279,853 304,772 354,713 404,653 472,623 557,623 609,623 657,635 702,659 747,682 782,716 808,759 833,802 846,852 846,907 Z"/>
   <glyph unicode="8" horiz-adv-x="980" d="M 1050,393 C 1050,263 1009,162 926,89 843,16 725,-20 570,-20 419,-20 302,16 217,87 132,158 89,260 89,391 89,483 115,560 168,623 221,686 288,724 370,737 L 370,741 C 293,759 233,798 189,858 144,918 122,988 122,1069 122,1176 162,1263 243,1330 323,1397 431,1430 566,1430 705,1430 814,1397 895,1332 975,1267 1015,1178 1015,1067 1015,986 993,916 948,856 903,796 842,758 765,743 L 765,739 C 855,724 925,686 975,625 1025,563 1050,486 1050,393 Z M 828,1057 C 828,1216 741,1296 566,1296 481,1296 417,1276 373,1236 328,1196 306,1136 306,1057 306,976 329,915 375,873 420,830 485,809 568,809 653,809 717,829 762,868 806,907 828,970 828,1057 Z M 863,410 C 863,497 837,563 785,608 733,652 660,674 566,674 475,674 403,650 352,603 301,555 275,489 275,406 275,212 374,115 572,115 670,115 743,139 791,186 839,233 863,307 863,410 Z"/>
   <glyph unicode="7" horiz-adv-x="954" d="M 1036,1263 C 892,1043 790,871 731,746 672,621 627,498 598,377 568,256 553,130 553,0 L 365,0 C 365,180 403,370 480,569 556,768 683,997 862,1256 L 105,1256 105,1409 1036,1409 1036,1263 Z"/>
   <glyph unicode="6" horiz-adv-x="980" d="M 1049,461 C 1049,312 1009,195 928,109 847,23 736,-20 594,-20 435,-20 314,39 230,157 146,275 104,447 104,672 104,916 148,1103 235,1234 322,1365 447,1430 608,1430 821,1430 955,1334 1010,1143 L 838,1112 C 803,1227 725,1284 606,1284 503,1284 424,1236 368,1141 311,1045 283,906 283,725 316,786 362,832 421,864 480,895 548,911 625,911 755,911 858,870 935,789 1011,708 1049,598 1049,461 Z M 866,453 C 866,555 841,634 791,689 741,744 671,772 582,772 498,772 430,748 379,699 327,650 301,582 301,496 301,387 328,298 382,229 435,160 504,125 588,125 675,125 743,154 792,213 841,271 866,351 866,453 Z"/>
   <glyph unicode="5" horiz-adv-x="980" d="M 1053,459 C 1053,310 1009,193 921,108 832,23 710,-20 553,-20 422,-20 316,9 235,66 154,123 103,206 82,315 L 264,336 C 302,197 400,127 557,127 654,127 729,156 784,215 839,273 866,353 866,455 866,544 839,615 784,670 729,725 654,752 561,752 512,752 467,744 425,729 383,714 341,688 299,651 L 123,651 170,1409 971,1409 971,1256 334,1256 307,809 C 385,869 482,899 598,899 737,899 847,858 930,777 1012,696 1053,590 1053,459 Z"/>
   <glyph unicode="4" horiz-adv-x="1060" d="M 881,319 L 881,0 711,0 711,319 47,319 47,459 692,1409 881,1409 881,461 1079,461 1079,319 881,319 Z M 711,1206 C 710,1202 700,1184 683,1153 666,1122 653,1100 644,1087 L 283,555 229,481 213,461 711,461 711,1206 Z"/>
   <glyph unicode="3" horiz-adv-x="1006" d="M 1049,389 C 1049,259 1008,158 925,87 842,16 724,-20 571,-20 428,-20 315,12 230,77 145,141 94,236 78,362 L 264,379 C 288,212 390,129 571,129 662,129 733,151 785,196 836,241 862,307 862,395 862,472 833,532 774,575 715,618 629,639 518,639 L 416,639 416,795 514,795 C 613,795 689,817 744,860 798,903 825,962 825,1038 825,1113 803,1173 759,1217 714,1260 648,1282 561,1282 482,1282 418,1262 369,1221 320,1180 291,1123 283,1049 L 102,1063 C 115,1178 163,1268 246,1333 328,1398 434,1430 563,1430 704,1430 814,1397 893,1332 971,1266 1010,1174 1010,1057 1010,967 985,894 935,838 884,781 811,743 715,723 L 715,719 C 820,708 902,672 961,613 1020,554 1049,479 1049,389 Z"/>
   <glyph unicode="2" horiz-adv-x="954" d="M 103,0 L 103,127 C 137,205 179,274 228,334 277,393 328,447 382,496 436,544 490,589 543,630 596,671 643,713 686,754 729,795 763,839 790,884 816,929 829,981 829,1038 829,1115 806,1175 761,1218 716,1261 653,1282 572,1282 495,1282 432,1261 383,1220 333,1178 304,1119 295,1044 L 111,1061 C 124,1174 172,1263 255,1330 337,1397 443,1430 572,1430 714,1430 823,1397 900,1330 976,1263 1014,1167 1014,1044 1014,989 1002,935 977,881 952,827 914,773 865,719 816,665 721,581 582,468 505,405 444,349 399,299 354,248 321,200 301,153 L 1036,153 1036,0 103,0 Z"/>
   <glyph unicode="1" horiz-adv-x="927" d="M 156,0 L 156,153 515,153 515,1237 197,1010 197,1180 530,1409 696,1409 696,153 1039,153 1039,0 156,0 Z"/>
   <glyph unicode="0" horiz-adv-x="980" d="M 1059,705 C 1059,470 1018,290 935,166 852,42 729,-20 567,-20 405,-20 283,42 202,165 121,288 80,468 80,705 80,947 120,1128 199,1249 278,1370 402,1430 573,1430 739,1430 862,1369 941,1247 1020,1125 1059,944 1059,705 Z M 876,705 C 876,908 853,1056 806,1147 759,1238 681,1284 573,1284 462,1284 383,1239 335,1149 286,1059 262,911 262,705 262,505 287,359 336,266 385,173 462,127 569,127 675,127 753,174 802,269 851,364 876,509 876,705 Z"/>
   <glyph unicode=" " horiz-adv-x="556"/>
  </font>
 </defs>
 <defs>
  <font id="EmbeddedFont_2" horiz-adv-x="2048">
   <font-face font-family="Liberation Sans embedded" units-per-em="2048" font-weight="bold" font-style="italic" ascent="1852" descent="423"/>
   <missing-glyph horiz-adv-x="2048" d="M 0,0 L 2047,0 2047,2047 0,2047 0,0 Z"/>
   <glyph unicode="u" horiz-adv-x="1139" d="M 512,1082 L 394,487 C 377,405 368,350 368,322 368,236 419,193 520,193 587,193 650,220 707,274 764,328 800,395 815,476 L 933,1082 1215,1082 1049,231 C 1038,178 1026,101 1011,0 L 743,0 C 743,6 746,34 753,84 759,134 764,168 767,185 L 764,185 C 713,114 658,62 598,30 537,-3 468,-19 391,-19 290,-19 213,5 162,54 111,103 85,173 85,265 85,282 87,309 92,346 97,383 101,410 106,429 L 233,1082 512,1082 Z"/>
   <glyph unicode="n" horiz-adv-x="1139" d="M 738,0 L 856,595 C 873,678 882,733 882,760 882,846 831,889 730,889 663,889 600,862 543,807 486,752 450,685 435,606 L 317,0 35,0 201,851 C 212,904 224,981 239,1082 L 507,1082 C 507,1076 504,1048 498,998 491,948 486,914 483,897 L 486,897 C 536,966 591,1018 652,1051 712,1084 781,1101 859,1101 960,1101 1037,1077 1088,1028 1139,979 1165,909 1165,817 1165,800 1163,774 1158,738 1153,701 1149,673 1144,653 L 1017,0 738,0 Z"/>
   <glyph unicode="m" horiz-adv-x="1721" d="M 1322,892 C 1261,892 1209,866 1164,815 1119,764 1088,694 1071,607 L 952,0 673,0 796,635 C 807,696 813,741 813,771 813,852 771,892 687,892 628,892 576,867 531,817 485,766 453,695 435,604 L 317,0 35,0 201,851 C 214,914 227,991 240,1082 L 512,1082 C 512,1075 509,1049 502,1005 495,960 489,924 484,897 L 487,897 C 538,974 589,1028 639,1057 688,1086 747,1101 815,1101 898,1101 963,1081 1011,1042 1059,1002 1088,944 1097,869 1150,952 1205,1012 1260,1048 1315,1083 1378,1101 1451,1101 1543,1101 1614,1077 1663,1028 1712,979 1736,909 1736,817 1736,774 1729,720 1715,653 L 1587,0 1308,0 1430,627 C 1442,687 1448,733 1448,766 L 1448,771 C 1446,852 1404,892 1322,892 Z"/>
   <glyph unicode="l" horiz-adv-x="584" d="M 35,0 L 323,1484 604,1484 315,0 35,0 Z"/>
   <glyph unicode="i" horiz-adv-x="584" d="M 282,1277 L 323,1484 604,1484 563,1277 282,1277 Z M 35,0 L 245,1082 526,1082 315,0 35,0 Z"/>
   <glyph unicode="e" horiz-adv-x="1033" d="M 358,476 C 353,451 351,421 351,387 351,316 367,262 398,225 429,187 474,168 535,168 633,168 704,224 748,337 L 993,263 C 943,157 881,83 807,42 733,1 636,-20 516,-20 374,-20 263,19 183,96 103,173 63,280 63,418 63,556 87,677 135,781 183,884 251,964 340,1019 428,1074 530,1102 646,1102 785,1102 893,1066 969,995 1044,923 1082,822 1082,691 1082,625 1074,553 1058,476 L 358,476 Z M 822,663 L 825,719 C 825,790 809,842 776,875 743,908 699,924 646,924 582,924 528,902 485,858 441,813 410,748 391,663 L 822,663 Z"/>
   <glyph unicode="d" horiz-adv-x="1244" d="M 749,160 C 702,98 651,52 596,23 541,-6 473,-21 392,-21 289,-21 208,13 148,81 88,149 58,240 58,354 58,481 79,606 122,728 165,850 225,943 302,1007 379,1070 471,1102 580,1102 751,1102 855,1036 894,904 L 899,904 C 900,917 903,937 907,964 911,991 917,1025 925,1066 L 1009,1484 1286,1484 1048,231 C 1035,156 1025,79 1019,0 L 738,0 C 738,42 743,95 753,160 L 749,160 Z M 515,172 C 569,172 615,184 654,207 693,230 726,265 753,313 780,360 802,420 818,492 834,564 842,627 842,681 842,761 826,819 795,856 764,892 717,910 654,910 586,910 531,887 488,841 445,795 412,728 389,639 366,550 355,468 355,393 355,246 408,172 515,172 Z"/>
   <glyph unicode="K" horiz-adv-x="1589" d="M 995,0 L 640,640 429,517 328,0 36,0 309,1409 604,1409 474,770 1234,1409 1603,1409 856,793 1321,0 995,0 Z"/>
   <glyph unicode="I" horiz-adv-x="584" d="M 36,0 L 309,1409 604,1409 330,0 36,0 Z"/>
   <glyph unicode="F" horiz-adv-x="1271" d="M 560,1181 L 475,745 1143,745 1099,517 431,517 330,0 36,0 309,1409 1295,1409 1251,1181 560,1181 Z"/>
   <glyph unicode="D" horiz-adv-x="1404" d="M 734,1409 C 956,1409 1126,1357 1244,1254 1362,1151 1421,1002 1421,807 1421,650 1388,511 1322,390 1256,269 1160,174 1035,105 910,35 769,0 614,0 L 36,0 310,1409 734,1409 Z M 375,228 L 605,228 C 712,228 806,251 889,297 971,342 1034,408 1079,494 1123,580 1145,680 1145,794 1145,920 1110,1016 1040,1082 969,1148 868,1181 736,1181 L 560,1181 375,228 Z"/>
   <glyph unicode=" " horiz-adv-x="556"/>
  </font>
 </defs>
 <defs class="TextShapeIndex">
  <g ooo:slide="id1" ooo:id-list="id3 id4 id5 id6 id7 id8 id9 id10 id11 id12 id13 id14 id15 id16 id17 id18 id19 id20 id21 id22 id23 id24 id25 id26 id27 id28 id29 id30 id31 id32 id33 id34 id35 id36 id37 id38 id39 id40 id41 id42 id43 id44 id45 id46 id47 id48 id49 id50 id51 id52 id53 id54 id55 id56 id57 id58 id59 id60 id61 id62 id63 id64 id65 id66 id67 id68 id69 id70 id71 id72 id73 id74 id75 id76 id77 id78 id79 id80 id81"/>
 </defs>
 <defs class="EmbeddedBulletChars">
  <g id="bullet-char-template-57356" transform="scale(0.00048828125,-0.00048828125)">
   <path d="M 580,1141 L 1163,571 580,0 -4,571 580,1141 Z"/>
  </g>
  <g id="bullet-char-template-57354" transform="scale(0.00048828125,-0.00048828125)">
   <path d="M 8,1128 L 1137,1128 1137,0 8,0 8,1128 Z"/>
  </g>
  <g id="bullet-char-template-10146" transform="scale(0.00048828125,-0.00048828125)">
   <path d="M 174,0 L 602,739 174,1481 1456,739 174,0 Z M 1358,739 L 309,1346 659,739 1358,739 Z"/>
  </g>
  <g id="bullet-char-template-10132" transform="scale(0.00048828125,-0.00048828125)">
   <path d="M 2015,739 L 1276,0 717,0 1260,543 174,543 174,936 1260,936 717,1481 1274,1481 2015,739 Z"/>
  </g>
  <g id="bullet-char-template-10007" transform="scale(0.00048828125,-0.00048828125)">
   <path d="M 0,-2 C -7,14 -16,27 -25,37 L 356,567 C 262,823 215,952 215,954 215,979 228,992 255,992 264,992 276,990 289,987 310,991 331,999 354,1012 L 381,999 492,748 772,1049 836,1024 860,1049 C 881,1039 901,1025 922,1006 886,937 835,863 770,784 769,783 710,716 594,584 L 774,223 C 774,196 753,168 711,139 L 727,119 C 717,90 699,76 672,76 641,76 570,178 457,381 L 164,-76 C 142,-110 111,-127 72,-127 30,-127 9,-110 8,-76 1,-67 -2,-52 -2,-32 -2,-23 -1,-13 0,-2 Z"/>
  </g>
  <g id="bullet-char-template-10004" transform="scale(0.00048828125,-0.00048828125)">
   <path d="M 285,-33 C 182,-33 111,30 74,156 52,228 41,333 41,471 41,549 55,616 82,672 116,743 169,778 240,778 293,778 328,747 346,684 L 369,508 C 377,444 397,411 428,410 L 1163,1116 C 1174,1127 1196,1133 1229,1133 1271,1133 1292,1118 1292,1087 L 1292,965 C 1292,929 1282,901 1262,881 L 442,47 C 390,-6 338,-33 285,-33 Z"/>
  </g>
  <g id="bullet-char-template-9679" transform="scale(0.00048828125,-0.00048828125)">
   <path d="M 813,0 C 632,0 489,54 383,161 276,268 223,411 223,592 223,773 276,916 383,1023 489,1130 632,1184 813,1184 992,1184 1136,1130 1245,1023 1353,916 1407,772 1407,592 1407,412 1353,268 1245,161 1136,54 992,0 813,0 Z"/>
  </g>
  <g id="bullet-char-template-8226" transform="scale(0.00048828125,-0.00048828125)">
   <path d="M 346,457 C 273,457 209,483 155,535 101,586 74,649 74,723 74,796 101,859 155,911 209,963 273,989 346,989 419,989 480,963 531,910 582,859 608,796 608,723 608,648 583,586 532,535 482,483 420,457 346,457 Z"/>
  </g>
  <g id="bullet-char-template-8211" transform="scale(0.00048828125,-0.00048828125)">
   <path d="M -4,459 L 1135,459 1135,606 -4,606 -4,459 Z"/>
  </g>
  <g id="bullet-char-template-61548" transform="scale(0.00048828125,-0.00048828125)">
   <path d="M 173,740 C 173,903 231,1043 346,1159 462,1274 601,1332 765,1332 928,1332 1067,1274 1183,1159 1299,1043 1357,903 1357,740 1357,577 1299,437 1183,322 1067,206 928,148 765,148 601,148 462,206 346,322 231,437 173,577 173,740 Z"/>
  </g>
 </defs>
 <g>
  <g id="id2" class="Master_Slide">
   <g id="bg-id2" class="Background"/>
   <g id="bo-id2" class="BackgroundObjects"/>
  </g>
 </g>
 <g class="SlideGroup">
  <g>
   <g id="container-id1">
    <g id="id1" class="Slide" clip-path="url(#presentation_clip_path)">
     <g class="Page">
      <g class="TextShape">
       <g id="id3">
        <rect class="BoundingBox" stroke="none" fill="none" x="1516" y="6617" width="1360" height="1003"/>
        <path fill="rgb(230,230,255)" stroke="none" d="M 2196,7618 L 1517,7618 1517,6618 2874,6618 2874,7618 2196,7618 Z"/>
        <path fill="none" stroke="rgb(0,0,0)" d="M 2196,7618 L 1517,7618 1517,6618 2874,6618 2874,7618 2196,7618 Z"/>
        <text class="SVGTextShape"><tspan class="TextParagraph" font-family="Liberation Sans, sans-serif" font-size="564px" font-weight="400"><tspan class="TextPosition" x="2039" y="7251"><tspan fill="rgb(0,0,0)" stroke="none" style="white-space: pre">2</tspan></tspan></tspan></text>
       </g>
      </g>
      <g class="TextShape">
       <g id="id4">
        <rect class="BoundingBox" stroke="none" fill="none" x="5426" y="6617" width="2918" height="1003"/>
        <path fill="rgb(230,230,255)" stroke="none" d="M 6885,7618 L 5427,7618 5427,6618 8342,6618 8342,7618 6885,7618 Z"/>
        <path fill="none" stroke="rgb(0,0,0)" d="M 6885,7618 L 5427,7618 5427,6618 8342,6618 8342,7618 6885,7618 Z"/>
        <text class="SVGTextShape"><tspan class="TextParagraph" font-family="Liberation Sans, sans-serif" font-size="564px" font-weight="400"><tspan class="TextPosition" x="5913" y="7251"><tspan fill="rgb(0,0,0)" stroke="none" style="white-space: pre">Hansen</tspan></tspan></tspan></text>
       </g>
      </g>
      <g class="TextShape">
       <g id="id5">
        <rect class="BoundingBox" stroke="none" fill="none" x="2811" y="6617" width="2617" height="1003"/>
        <path fill="rgb(230,230,255)" stroke="none" d="M 4119,7618 L 2812,7618 2812,6618 5426,6618 5426,7618 4119,7618 Z"/>
        <path fill="none" stroke="rgb(0,0,0)" d="M 4119,7618 L 2812,7618 2812,6618 5426,6618 5426,7618 4119,7618 Z"/>
        <text class="SVGTextShape"><tspan class="TextParagraph" font-family="Liberation Sans, sans-serif" font-size="564px" font-weight="400"><tspan class="TextPosition" x="3101" y="7251"><tspan fill="rgb(0,0,0)" stroke="none" style="white-space: pre">Thomas</tspan></tspan></tspan></text>
       </g>
      </g>
      <g class="TextShape">
       <g id="id6">
        <rect class="BoundingBox" stroke="none" fill="none" x="8287" y="6617" width="4658" height="1003"/>
        <path fill="rgb(230,230,255)" stroke="none" d="M 10616,7618 L 8288,7618 8288,6618 12943,6618 12943,7618 10616,7618 Z"/>
        <path fill="none" stroke="rgb(0,0,0)" d="M 10616,7618 L 8288,7618 8288,6618 12943,6618 12943,7618 10616,7618 Z"/>
        <text class="SVGTextShape"><tspan class="TextParagraph" font-family="Liberation Sans, sans-serif" font-size="564px" font-weight="400"><tspan class="TextPosition" x="9282" y="7251"><tspan fill="rgb(0,0,0)" stroke="none" style="white-space: pre">Bakken 8b</tspan></tspan></tspan></text>
       </g>
      </g>
      <g class="TextShape">
       <g id="id7">
        <rect class="BoundingBox" stroke="none" fill="none" x="12755" y="6617" width="2433" height="1003"/>
        <path fill="rgb(230,230,255)" stroke="none" d="M 13971,7618 L 12756,7618 12756,6618 15186,6618 15186,7618 13971,7618 Z"/>
        <path fill="none" stroke="rgb(0,0,0)" d="M 13971,7618 L 12756,7618 12756,6618 15186,6618 15186,7618 13971,7618 Z"/>
        <text class="SVGTextShape"><tspan class="TextParagraph" font-family="Liberation Sans, sans-serif" font-size="564px" font-weight="400"><tspan class="TextPosition" x="13345" y="7251"><tspan fill="rgb(0,0,0)" stroke="none" style="white-space: pre">1406</tspan></tspan></tspan></text>
       </g>
      </g>
      <g class="TextShape">
       <g id="id8">
        <rect class="BoundingBox" stroke="none" fill="none" x="14999" y="6617" width="2450" height="1003"/>
        <path fill="rgb(230,230,255)" stroke="none" d="M 16224,7618 L 15000,7618 15000,6618 17447,6618 17447,7618 16224,7618 Z"/>
        <path fill="none" stroke="rgb(0,0,0)" d="M 16224,7618 L 15000,7618 15000,6618 17447,6618 17447,7618 16224,7618 Z"/>
        <text class="SVGTextShape"><tspan class="TextParagraph" font-family="Liberation Sans, sans-serif" font-size="564px" font-weight="400"><tspan class="TextPosition" x="15830" y="7251"><tspan fill="rgb(0,0,0)" stroke="none" style="white-space: pre">Ski</tspan></tspan></tspan></text>
       </g>
      </g>
      <g class="TextShape">
       <g id="id9">
        <rect class="BoundingBox" stroke="none" fill="none" x="17418" y="6617" width="1492" height="1003"/>
        <path fill="rgb(230,230,255)" stroke="none" d="M 18164,7618 L 17419,7618 17419,6618 18908,6618 18908,7618 18164,7618 Z"/>
        <path fill="none" stroke="rgb(0,0,0)" d="M 18164,7618 L 17419,7618 17419,6618 18908,6618 18908,7618 18164,7618 Z"/>
        <text class="SVGTextShape"><tspan class="TextParagraph" font-family="Liberation Sans, sans-serif" font-size="564px" font-weight="400"><tspan class="TextPosition" x="18007" y="7251"><tspan fill="rgb(0,0,0)" stroke="none" style="white-space: pre">3</tspan></tspan></tspan></text>
       </g>
      </g>
      <g class="TextShape">
       <g id="id10">
        <rect class="BoundingBox" stroke="none" fill="none" x="18899" y="6617" width="2903" height="1000"/>
        <path fill="rgb(230,230,255)" stroke="none" d="M 20350,7615 L 18900,7615 18900,6618 21800,6618 21800,7615 20350,7615 Z"/>
        <path fill="none" stroke="rgb(0,0,0)" d="M 20350,7615 L 18900,7615 18900,6618 21800,6618 21800,7615 20350,7615 Z"/>
        <text class="SVGTextShape"><tspan class="TextParagraph" font-family="Liberation Sans, sans-serif" font-size="318px" font-weight="400"><tspan class="TextPosition" x="20031" y="7031"><tspan fill="rgb(0,0,0)" stroke="none" style="white-space: pre">The </tspan></tspan></tspan><tspan class="TextParagraph" font-family="Liberation Sans, sans-serif" font-size="318px" font-weight="400"><tspan class="TextPosition" x="19641" y="7387"><tspan fill="rgb(0,0,0)" stroke="none" style="white-space: pre">Godfather</tspan></tspan></tspan></text>
       </g>
      </g>
      <g class="TextShape">
       <g id="id11">
        <rect class="BoundingBox" stroke="none" fill="none" x="21599" y="6618" width="1403" height="1002"/>
        <path fill="rgb(230,230,255)" stroke="none" d="M 22300,7618 L 21600,7618 21600,6619 23000,6619 23000,7618 22300,7618 Z"/>
        <path fill="none" stroke="rgb(0,0,0)" d="M 22300,7618 L 21600,7618 21600,6619 23000,6619 23000,7618 22300,7618 Z"/>
        <text class="SVGTextShape"><tspan class="TextParagraph" font-family="Liberation Sans, sans-serif" font-size="318px" font-weight="400"><tspan class="TextPosition" x="21945" y="7032"><tspan fill="rgb(0,0,0)" stroke="none" style="white-space: pre">1972</tspan></tspan></tspan></text>
       </g>
      </g>
      <g class="TextShape">
       <g id="id12">
        <rect class="BoundingBox" stroke="none" fill="none" x="22999" y="6618" width="1112" height="1002"/>
        <path fill="rgb(230,230,255)" stroke="none" d="M 23555,7618 L 23000,7618 23000,6619 24109,6619 24109,7618 23555,7618 Z"/>
        <path fill="none" stroke="rgb(0,0,0)" d="M 23555,7618 L 23000,7618 23000,6619 24109,6619 24109,7618 23555,7618 Z"/>
        <text class="SVGTextShape"><tspan class="TextParagraph" font-family="Liberation Sans, sans-serif" font-size="318px" font-weight="400"><tspan class="TextPosition" x="23288" y="7032"><tspan fill="rgb(0,0,0)" stroke="none" style="white-space: pre">175</tspan></tspan></tspan></text>
       </g>
      </g>
      <g class="TextShape">
       <g id="id13">
        <rect class="BoundingBox" stroke="none" fill="none" x="1516" y="7948" width="1360" height="1002"/>
        <path fill="rgb(230,230,255)" stroke="none" d="M 2196,8948 L 1517,8948 1517,7949 2874,7949 2874,8948 2196,8948 Z"/>
        <path fill="none" stroke="rgb(0,0,0)" d="M 2196,8948 L 1517,8948 1517,7949 2874,7949 2874,8948 2196,8948 Z"/>
        <text class="SVGTextShape"><tspan class="TextParagraph" font-family="Liberation Sans, sans-serif" font-size="564px" font-weight="400"><tspan class="TextPosition" x="2039" y="8582"><tspan fill="rgb(0,0,0)" stroke="none" style="white-space: pre">3</tspan></tspan></tspan></text>
       </g>
      </g>
      <g class="TextShape">
       <g id="id14">
        <rect class="BoundingBox" stroke="none" fill="none" x="5426" y="7948" width="2918" height="1002"/>
        <path fill="rgb(230,230,255)" stroke="none" d="M 6885,8948 L 5427,8948 5427,7949 8342,7949 8342,8948 6885,8948 Z"/>
        <path fill="none" stroke="rgb(0,0,0)" d="M 6885,8948 L 5427,8948 5427,7949 8342,7949 8342,8948 6885,8948 Z"/>
        <text class="SVGTextShape"><tspan class="TextParagraph" font-family="Liberation Sans, sans-serif" font-size="564px" font-weight="400"><tspan class="TextPosition" x="6070" y="8582"><tspan fill="rgb(0,0,0)" stroke="none" style="white-space: pre">Rørvik</tspan></tspan></tspan></text>
       </g>
      </g>
      <g class="TextShape">
       <g id="id15">
        <rect class="BoundingBox" stroke="none" fill="none" x="2812" y="7948" width="2617" height="1002"/>
        <path fill="rgb(230,230,255)" stroke="none" d="M 4120,8948 L 2813,8948 2813,7949 5427,7949 5427,8948 4120,8948 Z"/>
        <path fill="none" stroke="rgb(0,0,0)" d="M 4120,8948 L 2813,8948 2813,7949 5427,7949 5427,8948 4120,8948 Z"/>
        <text class="SVGTextShape"><tspan class="TextParagraph" font-family="Liberation Sans, sans-serif" font-size="564px" font-weight="400"><tspan class="TextPosition" x="3805" y="8582"><tspan fill="rgb(0,0,0)" stroke="none" style="white-space: pre">Eli</tspan></tspan></tspan></text>
       </g>
      </g>
      <g class="TextShape">
       <g id="id16">
        <rect class="BoundingBox" stroke="none" fill="none" x="8287" y="7948" width="4658" height="1002"/>
        <path fill="rgb(230,230,255)" stroke="none" d="M 10616,8948 L 8288,8948 8288,7949 12943,7949 12943,8948 10616,8948 Z"/>
        <path fill="none" stroke="rgb(0,0,0)" d="M 10616,8948 L 8288,8948 8288,7949 12943,7949 12943,8948 10616,8948 Z"/>
        <text class="SVGTextShape"><tspan class="TextParagraph" font-family="Liberation Sans, sans-serif" font-size="564px" font-weight="400"><tspan class="TextPosition" x="8611" y="8582"><tspan fill="rgb(0,0,0)" stroke="none" style="white-space: pre">Saturnringen 47</tspan></tspan></tspan></text>
       </g>
      </g>
      <g class="TextShape">
       <g id="id17">
        <rect class="BoundingBox" stroke="none" fill="none" x="12755" y="7948" width="2433" height="1002"/>
        <path fill="rgb(230,230,255)" stroke="none" d="M 13971,8948 L 12756,8948 12756,7949 15186,7949 15186,8948 13971,8948 Z"/>
        <path fill="none" stroke="rgb(0,0,0)" d="M 13971,8948 L 12756,8948 12756,7949 15186,7949 15186,8948 13971,8948 Z"/>
        <text class="SVGTextShape"><tspan class="TextParagraph" font-family="Liberation Sans, sans-serif" font-size="564px" font-weight="400"><tspan class="TextPosition" x="13345" y="8582"><tspan fill="rgb(0,0,0)" stroke="none" style="white-space: pre">1808</tspan></tspan></tspan></text>
       </g>
      </g>
      <g class="TextShape">
       <g id="id18">
        <rect class="BoundingBox" stroke="none" fill="none" x="14999" y="7948" width="2450" height="1002"/>
        <path fill="rgb(230,230,255)" stroke="none" d="M 16224,8948 L 15000,8948 15000,7949 17447,7949 17447,8948 16224,8948 Z"/>
        <path fill="none" stroke="rgb(0,0,0)" d="M 16224,8948 L 15000,8948 15000,7949 17447,7949 17447,8948 16224,8948 Z"/>
        <text class="SVGTextShape"><tspan class="TextParagraph" font-family="Liberation Sans, sans-serif" font-size="564px" font-weight="400"><tspan class="TextPosition" x="15453" y="8582"><tspan fill="rgb(0,0,0)" stroke="none" style="white-space: pre">Askim</tspan></tspan></tspan></text>
       </g>
      </g>
      <g class="TextShape">
       <g id="id19">
        <rect class="BoundingBox" stroke="none" fill="none" x="17418" y="7949" width="1492" height="1001"/>
        <path fill="rgb(230,230,255)" stroke="none" d="M 18164,8948 L 17419,8948 17419,7950 18908,7950 18908,8948 18164,8948 Z"/>
        <path fill="none" stroke="rgb(0,0,0)" d="M 18164,8948 L 17419,8948 17419,7950 18908,7950 18908,8948 18164,8948 Z"/>
        <text class="SVGTextShape"><tspan class="TextParagraph" font-family="Liberation Sans, sans-serif" font-size="564px" font-weight="400"><tspan class="TextPosition" x="18007" y="8583"><tspan fill="rgb(0,0,0)" stroke="none" style="white-space: pre">2</tspan></tspan></tspan></text>
       </g>
      </g>
      <g class="TextShape">
       <g id="id20">
        <rect class="BoundingBox" stroke="none" fill="none" x="18899" y="7952" width="2902" height="998"/>
        <path fill="rgb(230,230,255)" stroke="none" d="M 20350,8948 L 18900,8948 18900,7953 21799,7953 21799,8948 20350,8948 Z"/>
        <path fill="none" stroke="rgb(0,0,0)" d="M 20350,8948 L 18900,8948 18900,7953 21799,7953 21799,8948 20350,8948 Z"/>
        <text class="SVGTextShape"><tspan class="TextParagraph" font-family="Liberation Sans, sans-serif" font-size="318px" font-weight="400"><tspan class="TextPosition" x="19780" y="8366"><tspan fill="rgb(0,0,0)" stroke="none" style="white-space: pre"> </tspan><tspan fill="rgb(0,0,0)" stroke="none" style="white-space: pre">Psycho</tspan></tspan></tspan></text>
       </g>
      </g>
      <g class="TextShape">
       <g id="id21">
        <rect class="BoundingBox" stroke="none" fill="none" x="21598" y="7950" width="1403" height="1000"/>
        <path fill="rgb(230,230,255)" stroke="none" d="M 22299,8948 L 21599,8948 21599,7951 22999,7951 22999,8948 22299,8948 Z"/>
        <path fill="none" stroke="rgb(0,0,0)" d="M 22299,8948 L 21599,8948 21599,7951 22999,7951 22999,8948 22299,8948 Z"/>
        <text class="SVGTextShape"><tspan class="TextParagraph" font-family="Liberation Sans, sans-serif" font-size="318px" font-weight="400"><tspan class="TextPosition" x="21899" y="8364"><tspan fill="rgb(0,0,0)" stroke="none" style="white-space: pre"> </tspan><tspan fill="rgb(0,0,0)" stroke="none" style="white-space: pre">1960</tspan></tspan></tspan></text>
       </g>
      </g>
      <g class="TextShape">
       <g id="id22">
        <rect class="BoundingBox" stroke="none" fill="none" x="22998" y="7947" width="1113" height="1003"/>
        <path fill="rgb(230,230,255)" stroke="none" d="M 23554,8948 L 22999,8948 22999,7948 24109,7948 24109,8948 23554,8948 Z"/>
        <path fill="none" stroke="rgb(0,0,0)" d="M 23554,8948 L 22999,8948 22999,7948 24109,7948 24109,8948 23554,8948 Z"/>
        <text class="SVGTextShape"><tspan class="TextParagraph" font-family="Liberation Sans, sans-serif" font-size="318px" font-weight="400"><tspan class="TextPosition" x="23288" y="8361"><tspan fill="rgb(0,0,0)" stroke="none" style="white-space: pre">104</tspan></tspan></tspan></text>
       </g>
      </g>
      <g class="TextShape">
       <g id="id23">
        <rect class="BoundingBox" stroke="none" fill="none" x="1516" y="9252" width="1360" height="1003"/>
        <path fill="rgb(230,230,255)" stroke="none" d="M 2196,10253 L 1517,10253 1517,9253 2874,9253 2874,10253 2196,10253 Z"/>
        <path fill="none" stroke="rgb(0,0,0)" d="M 2196,10253 L 1517,10253 1517,9253 2874,9253 2874,10253 2196,10253 Z"/>
        <text class="SVGTextShape"><tspan class="TextParagraph" font-family="Liberation Sans, sans-serif" font-size="564px" font-weight="400"><tspan class="TextPosition" x="2039" y="9886"><tspan fill="rgb(0,0,0)" stroke="none" style="white-space: pre">4</tspan></tspan></tspan></text>
       </g>
      </g>
      <g class="TextShape">
       <g id="id24">
        <rect class="BoundingBox" stroke="none" fill="none" x="5426" y="9252" width="2918" height="1003"/>
        <path fill="rgb(230,230,255)" stroke="none" d="M 6885,10253 L 5427,10253 5427,9253 8342,9253 8342,10253 6885,10253 Z"/>
        <path fill="none" stroke="rgb(0,0,0)" d="M 6885,10253 L 5427,10253 5427,9253 8342,9253 8342,10253 6885,10253 Z"/>
        <text class="SVGTextShape"><tspan class="TextParagraph" font-family="Liberation Sans, sans-serif" font-size="564px" font-weight="400"><tspan class="TextPosition" x="5678" y="9886"><tspan fill="rgb(0,0,0)" stroke="none" style="white-space: pre">Andersen</tspan></tspan></tspan></text>
       </g>
      </g>
      <g class="TextShape">
       <g id="id25">
        <rect class="BoundingBox" stroke="none" fill="none" x="2812" y="9252" width="2618" height="1003"/>
        <path fill="rgb(230,230,255)" stroke="none" d="M 4121,10253 L 2813,10253 2813,9253 5428,9253 5428,10253 4121,10253 Z"/>
        <path fill="none" stroke="rgb(0,0,0)" d="M 4121,10253 L 2813,10253 2813,9253 5428,9253 5428,10253 4121,10253 Z"/>
        <text class="SVGTextShape"><tspan class="TextParagraph" font-family="Liberation Sans, sans-serif" font-size="564px" font-weight="400"><tspan class="TextPosition" x="3418" y="9886"><tspan fill="rgb(0,0,0)" stroke="none" style="white-space: pre">Børre</tspan></tspan></tspan></text>
       </g>
      </g>
      <g class="TextShape">
       <g id="id26">
        <rect class="BoundingBox" stroke="none" fill="none" x="8287" y="9252" width="4658" height="1003"/>
        <path fill="rgb(230,230,255)" stroke="none" d="M 10616,10253 L 8288,10253 8288,9253 12943,9253 12943,10253 10616,10253 Z"/>
        <path fill="none" stroke="rgb(0,0,0)" d="M 10616,10253 L 8288,10253 8288,9253 12943,9253 12943,10253 10616,10253 Z"/>
        <text class="SVGTextShape"><tspan class="TextParagraph" font-family="Liberation Sans, sans-serif" font-size="564px" font-weight="400"><tspan class="TextPosition" x="9032" y="9886"><tspan fill="rgb(0,0,0)" stroke="none" style="white-space: pre">Bekkefaret 5</tspan></tspan></tspan></text>
       </g>
      </g>
      <g class="TextShape">
       <g id="id27">
        <rect class="BoundingBox" stroke="none" fill="none" x="12755" y="9252" width="2433" height="1003"/>
        <path fill="rgb(230,230,255)" stroke="none" d="M 13971,10253 L 12756,10253 12756,9253 15186,9253 15186,10253 13971,10253 Z"/>
        <path fill="none" stroke="rgb(0,0,0)" d="M 13971,10253 L 12756,10253 12756,9253 15186,9253 15186,10253 13971,10253 Z"/>
        <text class="SVGTextShape"><tspan class="TextParagraph" font-family="Liberation Sans, sans-serif" font-size="564px" font-weight="400"><tspan class="TextPosition" x="13345" y="9886"><tspan fill="rgb(0,0,0)" stroke="none" style="white-space: pre">0348</tspan></tspan></tspan></text>
       </g>
      </g>
      <g class="TextShape">
       <g id="id28">
        <rect class="BoundingBox" stroke="none" fill="none" x="14999" y="9252" width="2450" height="1003"/>
        <path fill="rgb(230,230,255)" stroke="none" d="M 16224,10253 L 15000,10253 15000,9253 17447,9253 17447,10253 16224,10253 Z"/>
        <path fill="none" stroke="rgb(0,0,0)" d="M 16224,10253 L 15000,10253 15000,9253 17447,9253 17447,10253 16224,10253 Z"/>
        <text class="SVGTextShape"><tspan class="TextParagraph" font-family="Liberation Sans, sans-serif" font-size="564px" font-weight="400"><tspan class="TextPosition" x="15644" y="9886"><tspan fill="rgb(0,0,0)" stroke="none" style="white-space: pre">Oslo</tspan></tspan></tspan></text>
       </g>
      </g>
      <g class="TextShape">
       <g id="id29">
        <rect class="BoundingBox" stroke="none" fill="none" x="17418" y="9252" width="1492" height="1003"/>
        <path fill="rgb(230,230,255)" stroke="none" d="M 18164,10253 L 17419,10253 17419,9253 18908,9253 18908,10253 18164,10253 Z"/>
        <path fill="none" stroke="rgb(0,0,0)" d="M 18164,10253 L 17419,10253 17419,9253 18908,9253 18908,10253 18164,10253 Z"/>
        <text class="SVGTextShape"><tspan class="TextParagraph" font-family="Liberation Sans, sans-serif" font-size="564px" font-weight="400"><tspan class="TextPosition" x="18007" y="9886"><tspan fill="rgb(0,0,0)" stroke="none" style="white-space: pre">4</tspan></tspan></tspan></text>
       </g>
      </g>
      <g class="TextShape">
       <g id="id30">
        <rect class="BoundingBox" stroke="none" fill="none" x="18899" y="9252" width="2903" height="1000"/>
        <path fill="rgb(230,230,255)" stroke="none" d="M 20350,10250 L 18900,10250 18900,9253 21800,9253 21800,10250 20350,10250 Z"/>
        <path fill="none" stroke="rgb(0,0,0)" d="M 20350,10250 L 18900,10250 18900,9253 21800,9253 21800,10250 20350,10250 Z"/>
        <text class="SVGTextShape"><tspan class="TextParagraph" font-family="Liberation Sans, sans-serif" font-size="318px" font-weight="400"><tspan class="TextPosition" x="19781" y="9666"><tspan fill="rgb(0,0,0)" stroke="none" style="white-space: pre"> </tspan><tspan fill="rgb(0,0,0)" stroke="none" style="white-space: pre">Psycho</tspan></tspan></tspan></text>
       </g>
      </g>
      <g class="TextShape">
       <g id="id31">
        <rect class="BoundingBox" stroke="none" fill="none" x="21599" y="9253" width="1403" height="1002"/>
        <path fill="rgb(230,230,255)" stroke="none" d="M 22300,10253 L 21600,10253 21600,9254 23000,9254 23000,10253 22300,10253 Z"/>
        <path fill="none" stroke="rgb(0,0,0)" d="M 22300,10253 L 21600,10253 21600,9254 23000,9254 23000,10253 22300,10253 Z"/>
        <text class="SVGTextShape"><tspan class="TextParagraph" font-family="Liberation Sans, sans-serif" font-size="318px" font-weight="400"><tspan class="TextPosition" x="21945" y="9667"><tspan fill="rgb(0,0,0)" stroke="none" style="white-space: pre">1998</tspan></tspan></tspan></text>
       </g>
      </g>
      <g class="TextShape">
       <g id="id32">
        <rect class="BoundingBox" stroke="none" fill="none" x="22999" y="9253" width="1112" height="1002"/>
        <path fill="rgb(230,230,255)" stroke="none" d="M 23555,10253 L 23000,10253 23000,9254 24109,9254 24109,10253 23555,10253 Z"/>
        <path fill="none" stroke="rgb(0,0,0)" d="M 23555,10253 L 23000,10253 23000,9254 24109,9254 24109,10253 23555,10253 Z"/>
        <text class="SVGTextShape"><tspan class="TextParagraph" font-family="Liberation Sans, sans-serif" font-size="318px" font-weight="400"><tspan class="TextPosition" x="23288" y="9667"><tspan fill="rgb(0,0,0)" stroke="none" style="white-space: pre">109</tspan></tspan></tspan></text>
       </g>
      </g>
      <g class="TextShape">
       <g id="id33">
        <rect class="BoundingBox" stroke="none" fill="none" x="5401" y="2627" width="3082" height="1051"/>
        <path fill="rgb(204,204,204)" stroke="none" d="M 6942,3651 L 5427,3651 5427,2653 8456,2653 8456,3651 6942,3651 Z"/>
        <path fill="none" stroke="rgb(117,117,117)" stroke-width="51" stroke-linejoin="round" d="M 6942,3651 L 5427,3651 5427,2653 8456,2653 8456,3651 6942,3651 Z"/>
        <text class="SVGTextShape"><tspan class="TextParagraph" font-family="Liberation Sans, sans-serif" font-size="564px" font-weight="400"><tspan class="TextPosition" x="5735" y="3312"><tspan fill="rgb(0,0,0)" stroke="none" style="white-space: pre">Etternavn</tspan></tspan></tspan></text>
       </g>
      </g>
      <g class="TextShape">
       <g id="id34">
        <rect class="BoundingBox" stroke="none" fill="none" x="2806" y="2627" width="2721" height="1051"/>
        <path fill="rgb(204,204,204)" stroke="none" d="M 4166,3651 L 2832,3651 2832,2653 5500,2653 5500,3651 4166,3651 Z"/>
        <path fill="none" stroke="rgb(117,117,117)" stroke-width="51" stroke-linejoin="round" d="M 4166,3651 L 2832,3651 2832,2653 5500,2653 5500,3651 4166,3651 Z"/>
        <text class="SVGTextShape"><tspan class="TextParagraph" font-family="Liberation Sans, sans-serif" font-size="564px" font-weight="400"><tspan class="TextPosition" x="3133" y="3312"><tspan fill="rgb(0,0,0)" stroke="none" style="white-space: pre">Fornavn</tspan></tspan></tspan></text>
       </g>
      </g>
      <g class="TextShape">
       <g id="id35">
        <rect class="BoundingBox" stroke="none" fill="none" x="8262" y="2627" width="4713" height="1051"/>
        <path fill="rgb(204,204,204)" stroke="none" d="M 10618,3651 L 8288,3651 8288,2653 12948,2653 12948,3651 10618,3651 Z"/>
        <path fill="none" stroke="rgb(117,117,117)" stroke-width="51" stroke-linejoin="round" d="M 10618,3651 L 8288,3651 8288,2653 12948,2653 12948,3651 10618,3651 Z"/>
        <text class="SVGTextShape"><tspan class="TextParagraph" font-family="Liberation Sans, sans-serif" font-size="564px" font-weight="400"><tspan class="TextPosition" x="9583" y="3312"><tspan fill="rgb(0,0,0)" stroke="none" style="white-space: pre">Adresse</tspan></tspan></tspan></text>
       </g>
      </g>
      <g class="TextShape">
       <g id="id36">
        <rect class="BoundingBox" stroke="none" fill="none" x="12730" y="2627" width="2483" height="1051"/>
        <path fill="rgb(204,204,204)" stroke="none" d="M 13971,3651 L 12756,3651 12756,2653 15186,2653 15186,3651 13971,3651 Z"/>
        <path fill="none" stroke="rgb(117,117,117)" stroke-width="51" stroke-linejoin="round" d="M 13971,3651 L 12756,3651 12756,2653 15186,2653 15186,3651 13971,3651 Z"/>
        <text class="SVGTextShape"><tspan class="TextParagraph" font-family="Liberation Sans, sans-serif" font-size="564px" font-weight="400"><tspan class="TextPosition" x="13156" y="3312"><tspan fill="rgb(0,0,0)" stroke="none" style="white-space: pre">Postnr</tspan></tspan></tspan></text>
       </g>
      </g>
      <g class="TextShape">
       <g id="id37">
        <rect class="BoundingBox" stroke="none" fill="none" x="14974" y="2627" width="2503" height="1051"/>
        <path fill="rgb(204,204,204)" stroke="none" d="M 16225,3651 L 15000,3651 15000,2653 17450,2653 17450,3651 16225,3651 Z"/>
        <path fill="none" stroke="rgb(117,117,117)" stroke-width="51" stroke-linejoin="round" d="M 16225,3651 L 15000,3651 15000,2653 17450,2653 17450,3651 16225,3651 Z"/>
        <text class="SVGTextShape"><tspan class="TextParagraph" font-family="Liberation Sans, sans-serif" font-size="564px" font-weight="400"><tspan class="TextPosition" x="15645" y="3312"><tspan fill="rgb(0,0,0)" stroke="none" style="white-space: pre">Sted</tspan></tspan></tspan></text>
       </g>
      </g>
      <g class="TextShape">
       <g id="id38">
        <rect class="BoundingBox" stroke="none" fill="none" x="17393" y="2627" width="1530" height="1051"/>
        <path fill="rgb(204,204,204)" stroke="none" d="M 18158,3651 L 17419,3651 17419,2653 18896,2653 18896,3651 18158,3651 Z"/>
        <path fill="none" stroke="rgb(117,117,117)" stroke-width="51" stroke-linejoin="round" d="M 18158,3651 L 17419,3651 17419,2653 18896,2653 18896,3651 18158,3651 Z"/>
        <text class="SVGTextShape"><tspan class="TextParagraph" font-family="Liberation Sans, sans-serif" font-size="370px" font-style="italic" font-weight="700" text-decoration="underline"><tspan class="TextPosition" x="17781" y="3138"><tspan fill="rgb(230,81,0)" stroke="none" style="white-space: pre">Film </tspan></tspan><tspan class="TextPosition" x="17974" y="3549"><tspan fill="rgb(230,81,0)" stroke="none" style="white-space: pre">ID</tspan></tspan></tspan></text>
       </g>
      </g>
      <g class="TextShape">
       <g id="id39">
        <rect class="BoundingBox" stroke="none" fill="none" x="18874" y="2627" width="2953" height="1048"/>
        <path fill="rgb(204,204,204)" stroke="none" d="M 20350,3648 L 18900,3648 18900,2653 21800,2653 21800,3648 20350,3648 Z"/>
        <path fill="none" stroke="rgb(117,117,117)" stroke-width="51" stroke-linejoin="round" d="M 20350,3648 L 18900,3648 18900,2653 21800,2653 21800,3648 20350,3648 Z"/>
        <text class="SVGTextShape"><tspan class="TextParagraph" font-family="Liberation Sans, sans-serif" font-size="564px" font-weight="400"><tspan class="TextPosition" x="19749" y="3312"><tspan fill="rgb(0,0,0)" stroke="none" style="white-space: pre">Tittel</tspan></tspan></tspan></text>
       </g>
      </g>
      <g class="TextShape">
       <g id="id40">
        <rect class="BoundingBox" stroke="none" fill="none" x="21574" y="2627" width="1453" height="1051"/>
        <path fill="rgb(204,204,204)" stroke="none" d="M 22300,3651 L 21600,3651 21600,2653 23000,2653 23000,3651 22300,3651 Z"/>
        <path fill="none" stroke="rgb(117,117,117)" stroke-width="51" stroke-linejoin="round" d="M 22300,3651 L 21600,3651 21600,2653 23000,2653 23000,3651 22300,3651 Z"/>
        <text class="SVGTextShape"><tspan class="TextParagraph" font-family="Liberation Sans, sans-serif" font-size="459px" font-weight="400"><tspan class="TextPosition" x="22072" y="3219"><tspan fill="rgb(0,0,0)" stroke="none" style="white-space: pre">År</tspan></tspan></tspan></text>
       </g>
      </g>
      <g class="TextShape">
       <g id="id41">
        <rect class="BoundingBox" stroke="none" fill="none" x="22974" y="2627" width="1162" height="1051"/>
        <path fill="rgb(204,204,204)" stroke="none" d="M 23555,3651 L 23000,3651 23000,2653 24109,2653 24109,3651 23555,3651 Z"/>
        <path fill="none" stroke="rgb(117,117,117)" stroke-width="51" stroke-linejoin="round" d="M 23555,3651 L 23000,3651 23000,2653 24109,2653 24109,3651 23555,3651 Z"/>
        <text class="SVGTextShape"><tspan class="TextParagraph" font-family="Liberation Sans, sans-serif" font-size="318px" font-weight="400"><tspan class="TextPosition" x="23288" y="3092"><tspan fill="rgb(0,0,0)" stroke="none" style="white-space: pre">Len</tspan></tspan><tspan class="TextPosition" x="23288" y="3448"><tspan fill="rgb(0,0,0)" stroke="none" style="white-space: pre">gde</tspan></tspan></tspan></text>
       </g>
      </g>
      <g class="TextShape">
       <g id="id42">
        <rect class="BoundingBox" stroke="none" fill="none" x="23951" y="2627" width="3273" height="1053"/>
        <path fill="rgb(204,204,204)" stroke="none" d="M 25587,3653 L 23977,3653 23977,2653 27197,2653 27197,3653 25587,3653 Z"/>
        <path fill="none" stroke="rgb(117,117,117)" stroke-width="51" stroke-linejoin="round" d="M 25587,3653 L 23977,3653 23977,2653 27197,2653 27197,3653 25587,3653 Z"/>
        <text class="SVGTextShape"><tspan class="TextParagraph" font-family="Liberation Sans, sans-serif" font-size="459px" font-weight="400"><tspan class="TextPosition" x="24546" y="3219"><tspan fill="rgb(0,0,0)" stroke="none" style="white-space: pre">Produsent</tspan></tspan></tspan></text>
       </g>
      </g>
      <g class="TextShape">
       <g id="id43">
        <rect class="BoundingBox" stroke="none" fill="none" x="1491" y="2627" width="1413" height="1053"/>
        <path fill="rgb(204,204,204)" stroke="none" d="M 2197,3653 L 1517,3653 1517,2653 2877,2653 2877,3653 2197,3653 Z"/>
        <path fill="none" stroke="rgb(117,117,117)" stroke-width="51" stroke-linejoin="round" d="M 2197,3653 L 1517,3653 1517,2653 2877,2653 2877,3653 2197,3653 Z"/>
        <text class="SVGTextShape"><tspan class="TextParagraph" font-family="Liberation Sans, sans-serif" font-size="353px" font-style="italic" font-weight="700" text-decoration="underline"><tspan class="TextPosition" x="1649" y="3122"><tspan fill="rgb(230,81,0)" stroke="none" style="white-space: pre">Kunde</tspan><tspan font-style="normal" font-weight="400" fill="rgb(230,81,0)" stroke="none" style="white-space: pre"> </tspan></tspan><tspan class="TextPosition" x="2022" y="3516"><tspan font-style="normal" font-weight="400" fill="rgb(230,81,0)" stroke="none" style="white-space: pre">ID</tspan></tspan></tspan></text>
       </g>
      </g>
      <g class="TextShape">
       <g id="id44">
        <rect class="BoundingBox" stroke="none" fill="none" x="23976" y="6618" width="3223" height="1002"/>
        <path fill="rgb(230,230,255)" stroke="none" d="M 25587,7618 L 23977,7618 23977,6619 27197,6619 27197,7618 25587,7618 Z"/>
        <path fill="none" stroke="rgb(0,0,0)" d="M 25587,7618 L 23977,7618 23977,6619 27197,6619 27197,7618 25587,7618 Z"/>
        <text class="SVGTextShape"><tspan class="TextParagraph" font-family="Liberation Sans, sans-serif" font-size="318px" font-weight="400"><tspan class="TextPosition" x="24808" y="7032"><tspan fill="rgb(0,0,0)" stroke="none" style="white-space: pre">Paramount</tspan></tspan></tspan></text>
       </g>
      </g>
      <g class="TextShape">
       <g id="id45">
        <rect class="BoundingBox" stroke="none" fill="none" x="23976" y="7949" width="3223" height="1001"/>
        <path fill="rgb(230,230,255)" stroke="none" d="M 25587,8948 L 23977,8948 23977,7950 27197,7950 27197,8948 25587,8948 Z"/>
        <path fill="none" stroke="rgb(0,0,0)" d="M 25587,8948 L 23977,8948 23977,7950 27197,7950 27197,8948 25587,8948 Z"/>
        <text class="SVGTextShape"><tspan class="TextParagraph" font-family="Liberation Sans, sans-serif" font-size="318px" font-weight="400"><tspan class="TextPosition" x="24298" y="8363"><tspan fill="rgb(0,0,0)" stroke="none" style="white-space: pre">Universal Pictures</tspan></tspan></tspan></text>
       </g>
      </g>
      <g class="TextShape">
       <g id="id46">
        <rect class="BoundingBox" stroke="none" fill="none" x="23976" y="9253" width="3223" height="1002"/>
        <path fill="rgb(230,230,255)" stroke="none" d="M 25587,10253 L 23977,10253 23977,9254 27197,9254 27197,10253 25587,10253 Z"/>
        <path fill="none" stroke="rgb(0,0,0)" d="M 25587,10253 L 23977,10253 23977,9254 27197,9254 27197,10253 25587,10253 Z"/>
        <text class="SVGTextShape"><tspan class="TextParagraph" font-family="Liberation Sans, sans-serif" font-size="318px" font-weight="400"><tspan class="TextPosition" x="24298" y="9667"><tspan fill="rgb(0,0,0)" stroke="none" style="white-space: pre">Universal Pictures</tspan></tspan></tspan></text>
       </g>
      </g>
      <g class="Group">
       <g class="TextShape">
        <g id="id47">
         <rect class="BoundingBox" stroke="none" fill="none" x="1516" y="3985" width="1360" height="1003"/>
         <path fill="rgb(230,230,255)" stroke="none" d="M 2196,4986 L 1517,4986 1517,3986 2874,3986 2874,4986 2196,4986 Z"/>
         <path fill="none" stroke="rgb(0,0,0)" d="M 2196,4986 L 1517,4986 1517,3986 2874,3986 2874,4986 2196,4986 Z"/>
         <text class="SVGTextShape"><tspan class="TextParagraph" font-family="Liberation Sans, sans-serif" font-size="564px" font-weight="400"><tspan class="TextPosition" x="2039" y="4619"><tspan fill="rgb(0,0,0)" stroke="none" style="white-space: pre">1</tspan></tspan></tspan></text>
        </g>
       </g>
       <g class="TextShape">
        <g id="id48">
         <rect class="BoundingBox" stroke="none" fill="none" x="5426" y="3985" width="2918" height="1003"/>
         <path fill="rgb(230,230,255)" stroke="none" d="M 6885,4986 L 5427,4986 5427,3986 8342,3986 8342,4986 6885,4986 Z"/>
         <path fill="none" stroke="rgb(0,0,0)" d="M 6885,4986 L 5427,4986 5427,3986 8342,3986 8342,4986 6885,4986 Z"/>
         <text class="SVGTextShape"><tspan class="TextParagraph" font-family="Liberation Sans, sans-serif" font-size="564px" font-weight="400"><tspan class="TextPosition" x="6508" y="4619"><tspan fill="rgb(0,0,0)" stroke="none" style="white-space: pre">Lie</tspan></tspan></tspan></text>
        </g>
       </g>
       <g class="TextShape">
        <g id="id49">
         <rect class="BoundingBox" stroke="none" fill="none" x="2810" y="3985" width="2618" height="1003"/>
         <path fill="rgb(230,230,255)" stroke="none" d="M 4119,4986 L 2811,4986 2811,3986 5426,3986 5426,4986 4119,4986 Z"/>
         <path fill="none" stroke="rgb(0,0,0)" d="M 4119,4986 L 2811,4986 2811,3986 5426,3986 5426,4986 4119,4986 Z"/>
         <text class="SVGTextShape"><tspan class="TextParagraph" font-family="Liberation Sans, sans-serif" font-size="564px" font-weight="400"><tspan class="TextPosition" x="3414" y="4619"><tspan fill="rgb(0,0,0)" stroke="none" style="white-space: pre">Mona</tspan></tspan></tspan></text>
        </g>
       </g>
       <g class="TextShape">
        <g id="id50">
         <rect class="BoundingBox" stroke="none" fill="none" x="8287" y="3985" width="4658" height="1003"/>
         <path fill="rgb(230,230,255)" stroke="none" d="M 10616,4986 L 8288,4986 8288,3986 12943,3986 12943,4986 10616,4986 Z"/>
         <path fill="none" stroke="rgb(0,0,0)" d="M 10616,4986 L 8288,4986 8288,3986 12943,3986 12943,4986 10616,4986 Z"/>
         <text class="SVGTextShape"><tspan class="TextParagraph" font-family="Liberation Sans, sans-serif" font-size="564px" font-weight="400"><tspan class="TextPosition" x="9316" y="4619"><tspan fill="rgb(0,0,0)" stroke="none" style="white-space: pre">Storgata 4</tspan></tspan></tspan></text>
        </g>
       </g>
       <g class="TextShape">
        <g id="id51">
         <rect class="BoundingBox" stroke="none" fill="none" x="12755" y="3985" width="2433" height="1003"/>
         <path fill="rgb(230,230,255)" stroke="none" d="M 13971,4986 L 12756,4986 12756,3986 15186,3986 15186,4986 13971,4986 Z"/>
         <path fill="none" stroke="rgb(0,0,0)" d="M 13971,4986 L 12756,4986 12756,3986 15186,3986 15186,4986 13971,4986 Z"/>
         <text class="SVGTextShape"><tspan class="TextParagraph" font-family="Liberation Sans, sans-serif" font-size="564px" font-weight="400"><tspan class="TextPosition" x="13345" y="4619"><tspan fill="rgb(0,0,0)" stroke="none" style="white-space: pre">0182</tspan></tspan></tspan></text>
        </g>
       </g>
       <g class="TextShape">
        <g id="id52">
         <rect class="BoundingBox" stroke="none" fill="none" x="14999" y="3985" width="2450" height="1003"/>
         <path fill="rgb(230,230,255)" stroke="none" d="M 16224,4986 L 15000,4986 15000,3986 17447,3986 17447,4986 16224,4986 Z"/>
         <path fill="none" stroke="rgb(0,0,0)" d="M 16224,4986 L 15000,4986 15000,3986 17447,3986 17447,4986 16224,4986 Z"/>
         <text class="SVGTextShape"><tspan class="TextParagraph" font-family="Liberation Sans, sans-serif" font-size="564px" font-weight="400"><tspan class="TextPosition" x="15644" y="4619"><tspan fill="rgb(0,0,0)" stroke="none" style="white-space: pre">Oslo</tspan></tspan></tspan></text>
        </g>
       </g>
       <g class="TextShape">
        <g id="id53">
         <rect class="BoundingBox" stroke="none" fill="none" x="17418" y="3985" width="1492" height="1003"/>
         <path fill="rgb(230,230,255)" stroke="none" d="M 18164,4986 L 17419,4986 17419,3986 18908,3986 18908,4986 18164,4986 Z"/>
         <path fill="none" stroke="rgb(0,0,0)" d="M 18164,4986 L 17419,4986 17419,3986 18908,3986 18908,4986 18164,4986 Z"/>
         <text class="SVGTextShape"><tspan class="TextParagraph" font-family="Liberation Sans, sans-serif" font-size="564px" font-weight="400"><tspan class="TextPosition" x="18007" y="4619"><tspan fill="rgb(0,0,0)" stroke="none" style="white-space: pre">1</tspan></tspan></tspan></text>
        </g>
       </g>
       <g class="TextShape">
        <g id="id54">
         <rect class="BoundingBox" stroke="none" fill="none" x="18899" y="3988" width="2903" height="1000"/>
         <path fill="rgb(230,230,255)" stroke="none" d="M 20350,4986 L 18900,4986 18900,3989 21800,3989 21800,4986 20350,4986 Z"/>
         <path fill="none" stroke="rgb(0,0,0)" d="M 20350,4986 L 18900,4986 18900,3989 21800,3989 21800,4986 20350,4986 Z"/>
         <text class="SVGTextShape"><tspan class="TextParagraph" font-family="Liberation Sans, sans-serif" font-size="318px" font-weight="400"><tspan class="TextPosition" x="19444" y="4402"><tspan fill="rgb(0,0,0)" stroke="none" style="white-space: pre">Citizen Kane</tspan></tspan></tspan></text>
        </g>
       </g>
       <g class="TextShape">
        <g id="id55">
         <rect class="BoundingBox" stroke="none" fill="none" x="21599" y="3986" width="1403" height="1002"/>
         <path fill="rgb(230,230,255)" stroke="none" d="M 22300,4986 L 21600,4986 21600,3987 23000,3987 23000,4986 22300,4986 Z"/>
         <path fill="none" stroke="rgb(0,0,0)" d="M 22300,4986 L 21600,4986 21600,3987 23000,3987 23000,4986 22300,4986 Z"/>
         <text class="SVGTextShape"><tspan class="TextParagraph" font-family="Liberation Sans, sans-serif" font-size="318px" font-weight="400"><tspan class="TextPosition" x="21900" y="4400"><tspan fill="rgb(0,0,0)" stroke="none" style="white-space: pre"> </tspan><tspan fill="rgb(0,0,0)" stroke="none" style="white-space: pre">1941</tspan></tspan></tspan></text>
        </g>
       </g>
       <g class="TextShape">
        <g id="id56">
         <rect class="BoundingBox" stroke="none" fill="none" x="22999" y="3985" width="1112" height="1003"/>
         <path fill="rgb(230,230,255)" stroke="none" d="M 23555,4986 L 23000,4986 23000,3986 24109,3986 24109,4986 23555,4986 Z"/>
         <path fill="none" stroke="rgb(0,0,0)" d="M 23555,4986 L 23000,4986 23000,3986 24109,3986 24109,4986 23555,4986 Z"/>
         <text class="SVGTextShape"><tspan class="TextParagraph" font-family="Liberation Sans, sans-serif" font-size="318px" font-weight="400"><tspan class="TextPosition" x="23301" y="4399"><tspan fill="rgb(0,0,0)" stroke="none" style="white-space: pre">115</tspan></tspan></tspan></text>
        </g>
       </g>
       <g class="TextShape">
        <g id="id57">
         <rect class="BoundingBox" stroke="none" fill="none" x="23976" y="3986" width="3223" height="1002"/>
         <path fill="rgb(230,230,255)" stroke="none" d="M 25587,4986 L 23977,4986 23977,3987 27197,3987 27197,4986 25587,4986 Z"/>
         <path fill="none" stroke="rgb(0,0,0)" d="M 25587,4986 L 23977,4986 23977,3987 27197,3987 27197,4986 25587,4986 Z"/>
         <text class="SVGTextShape"><tspan class="TextParagraph" font-family="Liberation Sans, sans-serif" font-size="318px" font-weight="400"><tspan class="TextPosition" x="24298" y="4400"><tspan fill="rgb(0,0,0)" stroke="none" style="white-space: pre">Universal Pictures</tspan></tspan></tspan></text>
        </g>
       </g>
      </g>
      <g class="Group">
       <g class="TextShape">
        <g id="id58">
         <rect class="BoundingBox" stroke="none" fill="none" x="1516" y="5317" width="1360" height="1003"/>
         <path fill="rgb(230,230,255)" stroke="none" d="M 2196,6318 L 1517,6318 1517,5318 2874,5318 2874,6318 2196,6318 Z"/>
         <path fill="none" stroke="rgb(0,0,0)" d="M 2196,6318 L 1517,6318 1517,5318 2874,5318 2874,6318 2196,6318 Z"/>
         <text class="SVGTextShape"><tspan class="TextParagraph" font-family="Liberation Sans, sans-serif" font-size="564px" font-weight="400"><tspan class="TextPosition" x="2039" y="5951"><tspan fill="rgb(0,0,0)" stroke="none" style="white-space: pre">1</tspan></tspan></tspan></text>
        </g>
       </g>
       <g class="TextShape">
        <g id="id59">
         <rect class="BoundingBox" stroke="none" fill="none" x="5426" y="5317" width="2918" height="1003"/>
         <path fill="rgb(230,230,255)" stroke="none" d="M 6885,6318 L 5427,6318 5427,5318 8342,5318 8342,6318 6885,6318 Z"/>
         <path fill="none" stroke="rgb(0,0,0)" d="M 6885,6318 L 5427,6318 5427,5318 8342,5318 8342,6318 6885,6318 Z"/>
         <text class="SVGTextShape"><tspan class="TextParagraph" font-family="Liberation Sans, sans-serif" font-size="564px" font-weight="400"><tspan class="TextPosition" x="6508" y="5951"><tspan fill="rgb(0,0,0)" stroke="none" style="white-space: pre">Lie</tspan></tspan></tspan></text>
        </g>
       </g>
       <g class="TextShape">
        <g id="id60">
         <rect class="BoundingBox" stroke="none" fill="none" x="2810" y="5317" width="2618" height="1003"/>
         <path fill="rgb(230,230,255)" stroke="none" d="M 4119,6318 L 2811,6318 2811,5318 5426,5318 5426,6318 4119,6318 Z"/>
         <path fill="none" stroke="rgb(0,0,0)" d="M 4119,6318 L 2811,6318 2811,5318 5426,5318 5426,6318 4119,6318 Z"/>
         <text class="SVGTextShape"><tspan class="TextParagraph" font-family="Liberation Sans, sans-serif" font-size="564px" font-weight="400"><tspan class="TextPosition" x="3414" y="5951"><tspan fill="rgb(0,0,0)" stroke="none" style="white-space: pre">Mona</tspan></tspan></tspan></text>
        </g>
       </g>
       <g class="TextShape">
        <g id="id61">
         <rect class="BoundingBox" stroke="none" fill="none" x="8287" y="5317" width="4658" height="1003"/>
         <path fill="rgb(230,230,255)" stroke="none" d="M 10616,6318 L 8288,6318 8288,5318 12943,5318 12943,6318 10616,6318 Z"/>
         <path fill="none" stroke="rgb(0,0,0)" d="M 10616,6318 L 8288,6318 8288,5318 12943,5318 12943,6318 10616,6318 Z"/>
         <text class="SVGTextShape"><tspan class="TextParagraph" font-family="Liberation Sans, sans-serif" font-size="564px" font-weight="400"><tspan class="TextPosition" x="9316" y="5951"><tspan fill="rgb(0,0,0)" stroke="none" style="white-space: pre">Storgata 4</tspan></tspan></tspan></text>
        </g>
       </g>
       <g class="TextShape">
        <g id="id62">
         <rect class="BoundingBox" stroke="none" fill="none" x="12755" y="5317" width="2433" height="1003"/>
         <path fill="rgb(230,230,255)" stroke="none" d="M 13971,6318 L 12756,6318 12756,5318 15186,5318 15186,6318 13971,6318 Z"/>
         <path fill="none" stroke="rgb(0,0,0)" d="M 13971,6318 L 12756,6318 12756,5318 15186,5318 15186,6318 13971,6318 Z"/>
         <text class="SVGTextShape"><tspan class="TextParagraph" font-family="Liberation Sans, sans-serif" font-size="564px" font-weight="400"><tspan class="TextPosition" x="13345" y="5951"><tspan fill="rgb(0,0,0)" stroke="none" style="white-space: pre">0182</tspan></tspan></tspan></text>
        </g>
       </g>
       <g class="TextShape">
        <g id="id63">
         <rect class="BoundingBox" stroke="none" fill="none" x="14999" y="5317" width="2450" height="1003"/>
         <path fill="rgb(230,230,255)" stroke="none" d="M 16224,6318 L 15000,6318 15000,5318 17447,5318 17447,6318 16224,6318 Z"/>
         <path fill="none" stroke="rgb(0,0,0)" d="M 16224,6318 L 15000,6318 15000,5318 17447,5318 17447,6318 16224,6318 Z"/>
         <text class="SVGTextShape"><tspan class="TextParagraph" font-family="Liberation Sans, sans-serif" font-size="564px" font-weight="400"><tspan class="TextPosition" x="15644" y="5951"><tspan fill="rgb(0,0,0)" stroke="none" style="white-space: pre">Oslo</tspan></tspan></tspan></text>
        </g>
       </g>
       <g class="TextShape">
        <g id="id64">
         <rect class="BoundingBox" stroke="none" fill="none" x="17418" y="5317" width="1492" height="1003"/>
         <path fill="rgb(230,230,255)" stroke="none" d="M 18164,6318 L 17419,6318 17419,5318 18908,5318 18908,6318 18164,6318 Z"/>
         <path fill="none" stroke="rgb(0,0,0)" d="M 18164,6318 L 17419,6318 17419,5318 18908,5318 18908,6318 18164,6318 Z"/>
         <text class="SVGTextShape"><tspan class="TextParagraph" font-family="Liberation Sans, sans-serif" font-size="564px" font-weight="400"><tspan class="TextPosition" x="18007" y="5951"><tspan fill="rgb(0,0,0)" stroke="none" style="white-space: pre">2</tspan></tspan></tspan></text>
        </g>
       </g>
       <g class="TextShape">
        <g id="id65">
         <rect class="BoundingBox" stroke="none" fill="none" x="18899" y="5320" width="2903" height="1000"/>
         <path fill="rgb(230,230,255)" stroke="none" d="M 20350,6318 L 18900,6318 18900,5321 21800,5321 21800,6318 20350,6318 Z"/>
         <path fill="none" stroke="rgb(0,0,0)" d="M 20350,6318 L 18900,6318 18900,5321 21800,5321 21800,6318 20350,6318 Z"/>
         <text class="SVGTextShape"><tspan class="TextParagraph" font-family="Liberation Sans, sans-serif" font-size="318px" font-weight="400"><tspan class="TextPosition" x="19825" y="5734"><tspan fill="rgb(0,0,0)" stroke="none" style="white-space: pre">Psycho</tspan></tspan></tspan></text>
        </g>
       </g>
       <g class="TextShape">
        <g id="id66">
         <rect class="BoundingBox" stroke="none" fill="none" x="21599" y="5318" width="1403" height="1002"/>
         <path fill="rgb(230,230,255)" stroke="none" d="M 22300,6318 L 21600,6318 21600,5319 23000,5319 23000,6318 22300,6318 Z"/>
         <path fill="none" stroke="rgb(0,0,0)" d="M 22300,6318 L 21600,6318 21600,5319 23000,5319 23000,6318 22300,6318 Z"/>
         <text class="SVGTextShape"><tspan class="TextParagraph" font-family="Liberation Sans, sans-serif" font-size="318px" font-weight="400"><tspan class="TextPosition" x="21900" y="5732"><tspan fill="rgb(0,0,0)" stroke="none" style="white-space: pre"> </tspan><tspan fill="rgb(0,0,0)" stroke="none" style="white-space: pre">1960</tspan></tspan></tspan></text>
        </g>
       </g>
       <g class="TextShape">
        <g id="id67">
         <rect class="BoundingBox" stroke="none" fill="none" x="22999" y="5317" width="1112" height="1003"/>
         <path fill="rgb(230,230,255)" stroke="none" d="M 23555,6318 L 23000,6318 23000,5318 24109,5318 24109,6318 23555,6318 Z"/>
         <path fill="none" stroke="rgb(0,0,0)" d="M 23555,6318 L 23000,6318 23000,5318 24109,5318 24109,6318 23555,6318 Z"/>
         <text class="SVGTextShape"><tspan class="TextParagraph" font-family="Liberation Sans, sans-serif" font-size="318px" font-weight="400"><tspan class="TextPosition" x="23288" y="5731"><tspan fill="rgb(0,0,0)" stroke="none" style="white-space: pre">104</tspan></tspan></tspan></text>
        </g>
       </g>
       <g class="TextShape">
        <g id="id68">
         <rect class="BoundingBox" stroke="none" fill="none" x="23976" y="5318" width="3223" height="1002"/>
         <path fill="rgb(230,230,255)" stroke="none" d="M 25587,6318 L 23977,6318 23977,5319 27197,5319 27197,6318 25587,6318 Z"/>
         <path fill="none" stroke="rgb(0,0,0)" d="M 25587,6318 L 23977,6318 23977,5319 27197,5319 27197,6318 25587,6318 Z"/>
         <text class="SVGTextShape"><tspan class="TextParagraph" font-family="Liberation Sans, sans-serif" font-size="318px" font-weight="400"><tspan class="TextPosition" x="24298" y="5732"><tspan fill="rgb(0,0,0)" stroke="none" style="white-space: pre">Universal Pictures</tspan></tspan></tspan></text>
        </g>
       </g>
      </g>
      <g class="com.sun.star.drawing.LineShape">
       <g id="id69">
        <rect class="BoundingBox" stroke="none" fill="none" x="2169" y="1118" width="14122" height="163"/>
        <path fill="none" stroke="rgb(0,48,130)" stroke-width="100" stroke-linejoin="round" d="M 2219,1169 L 16240,1230"/>
       </g>
      </g>
      <g class="com.sun.star.drawing.LineShape">
       <g id="id70">
        <rect class="BoundingBox" stroke="none" fill="none" x="2050" y="1062" width="354" height="1663"/>
        <path fill="none" stroke="rgb(0,48,130)" stroke-width="100" stroke-linejoin="round" d="M 2218,1112 L 2226,2395"/>
        <path fill="rgb(0,48,130)" stroke="none" d="M 2403,2721 L 2053,2723 2051,2373 2401,2371 2403,2721 Z"/>
       </g>
      </g>
      <g class="com.sun.star.drawing.LineShape">
       <g id="id71">
        <rect class="BoundingBox" stroke="none" fill="none" x="3944" y="1120" width="351" height="1518"/>
        <path fill="none" stroke="rgb(0,48,130)" stroke-width="100" stroke-linejoin="round" d="M 4119,1170 L 4119,2135"/>
        <path fill="rgb(0,48,130)" stroke="none" d="M 4119,2637 L 4294,2112 3944,2112 4119,2637 Z"/>
       </g>
      </g>
      <g class="com.sun.star.drawing.LineShape">
       <g id="id72">
        <rect class="BoundingBox" stroke="none" fill="none" x="6744" y="1121" width="351" height="1518"/>
        <path fill="none" stroke="rgb(0,48,130)" stroke-width="100" stroke-linejoin="round" d="M 6919,1171 L 6919,2136"/>
        <path fill="rgb(0,48,130)" stroke="none" d="M 6919,2638 L 7094,2113 6744,2113 6919,2638 Z"/>
       </g>
      </g>
      <g class="com.sun.star.drawing.LineShape">
       <g id="id73">
        <rect class="BoundingBox" stroke="none" fill="none" x="10544" y="1122" width="352" height="1518"/>
        <path fill="none" stroke="rgb(0,48,130)" stroke-width="100" stroke-linejoin="round" d="M 10719,1172 L 10719,2137"/>
        <path fill="rgb(0,48,130)" stroke="none" d="M 10719,2639 L 10894,2114 10544,2114 10719,2639 Z"/>
       </g>
      </g>
      <g class="com.sun.star.drawing.LineShape">
       <g id="id74">
        <rect class="BoundingBox" stroke="none" fill="none" x="16044" y="1123" width="351" height="1518"/>
        <path fill="none" stroke="rgb(0,48,130)" stroke-width="100" stroke-linejoin="round" d="M 16219,1173 L 16219,2138"/>
        <path fill="rgb(0,48,130)" stroke="none" d="M 16219,2640 L 16394,2115 16044,2115 16219,2640 Z"/>
       </g>
      </g>
      <g class="com.sun.star.drawing.LineShape">
       <g id="id75">
        <rect class="BoundingBox" stroke="none" fill="none" x="13844" y="1124" width="352" height="1518"/>
        <path fill="none" stroke="rgb(0,48,130)" stroke-width="100" stroke-linejoin="round" d="M 14019,1174 L 14019,2139"/>
        <path fill="rgb(0,48,130)" stroke="none" d="M 14019,2641 L 14194,2116 13844,2116 14019,2641 Z"/>
       </g>
      </g>
      <g class="com.sun.star.drawing.LineShape">
       <g id="id76">
        <rect class="BoundingBox" stroke="none" fill="none" x="18077" y="1121" width="7421" height="160"/>
        <path fill="none" stroke="rgb(128,0,0)" stroke-width="100" stroke-linejoin="round" d="M 18127,1171 L 25447,1230"/>
       </g>
      </g>
      <g class="com.sun.star.drawing.LineShape">
       <g id="id77">
        <rect class="BoundingBox" stroke="none" fill="none" x="20145" y="1122" width="352" height="1518"/>
        <path fill="none" stroke="rgb(128,0,0)" stroke-width="100" stroke-linejoin="round" d="M 20320,1172 L 20320,2137"/>
        <path fill="rgb(128,0,0)" stroke="none" d="M 20320,2639 L 20495,2114 20145,2114 20320,2639 Z"/>
       </g>
      </g>
      <g class="com.sun.star.drawing.LineShape">
       <g id="id78">
        <rect class="BoundingBox" stroke="none" fill="none" x="25345" y="1123" width="351" height="1518"/>
        <path fill="none" stroke="rgb(128,0,0)" stroke-width="100" stroke-linejoin="round" d="M 25520,1173 L 25520,2138"/>
        <path fill="rgb(128,0,0)" stroke="none" d="M 25520,2640 L 25695,2115 25345,2115 25520,2640 Z"/>
       </g>
      </g>
      <g class="com.sun.star.drawing.LineShape">
       <g id="id79">
        <rect class="BoundingBox" stroke="none" fill="none" x="23445" y="1124" width="352" height="1518"/>
        <path fill="none" stroke="rgb(128,0,0)" stroke-width="100" stroke-linejoin="round" d="M 23620,1174 L 23620,2139"/>
        <path fill="rgb(128,0,0)" stroke="none" d="M 23620,2641 L 23795,2116 23445,2116 23620,2641 Z"/>
       </g>
      </g>
      <g class="com.sun.star.drawing.LineShape">
       <g id="id80">
        <rect class="BoundingBox" stroke="none" fill="none" x="17924" y="1162" width="354" height="1663"/>
        <path fill="none" stroke="rgb(128,0,0)" stroke-width="100" stroke-linejoin="round" d="M 18092,1212 L 18100,2495"/>
        <path fill="rgb(128,0,0)" stroke="none" d="M 18277,2821 L 17927,2823 17925,2473 18275,2471 18277,2821 Z"/>
       </g>
      </g>
      <g class="com.sun.star.drawing.LineShape">
       <g id="id81">
        <rect class="BoundingBox" stroke="none" fill="none" x="22045" y="1123" width="352" height="1518"/>
        <path fill="none" stroke="rgb(128,0,0)" stroke-width="100" stroke-linejoin="round" d="M 22220,1173 L 22220,2138"/>
        <path fill="rgb(128,0,0)" stroke="none" d="M 22220,2640 L 22395,2115 22045,2115 22220,2640 Z"/>
       </g>
      </g>
     </g>
    </g>
   </g>
  </g>
 </g>
</svg>