<?xml version="1.0" encoding="UTF-8"?>
<!DOCTYPE svg PUBLIC "-//W3C//DTD SVG 1.1//EN" "http://www.w3.org/Graphics/SVG/1.1/DTD/svg11.dtd">
<svg version="1.2" width="127mm" height="96.52mm" viewBox="0 0 12700 9652" preserveAspectRatio="xMidYMid" fill-rule="evenodd" stroke-width="28.222" stroke-linejoin="round" xmlns="http://www.w3.org/2000/svg" xmlns:ooo="http://xml.openoffice.org/svg/export" xmlns:xlink="http://www.w3.org/1999/xlink" xmlns:presentation="http://sun.com/xmlns/staroffice/presentation" xmlns:smil="http://www.w3.org/2001/SMIL20/" xmlns:anim="urn:oasis:names:tc:opendocument:xmlns:animation:1.0" xml:space="preserve">
 <defs class="ClipPathGroup">
  <clipPath id="presentation_clip_path" clipPathUnits="userSpaceOnUse">
   <rect x="0" y="0" width="12700" height="9652"/>
  </clipPath>
  <clipPath id="presentation_clip_path_shrink" clipPathUnits="userSpaceOnUse">
   <rect x="12" y="9" width="12675" height="9633"/>
  </clipPath>
 </defs>
 <defs>
  <font id="EmbeddedFont_1" horiz-adv-x="2048">
   <font-face font-family="Liberation Sans embedded" units-per-em="2048" font-weight="normal" font-style="normal" ascent="1852" descent="423"/>
   <missing-glyph horiz-adv-x="2048" d="M 0,0 L 2047,0 2047,2047 0,2047 0,0 Z"/>
   <glyph unicode="Å" horiz-adv-x="1377" d="M 1167,0 L 1006,412 364,412 202,0 4,0 579,1409 796,1409 1362,0 1167,0 Z M 685,1265 L 676,1237 C 659,1182 635,1111 602,1024 L 422,561 949,561 768,1026 C 749,1072 731,1124 712,1182 L 685,1265 Z M 928,1546 C 928,1479 904,1422 857,1375 810,1328 753,1304 686,1304 619,1304 562,1328 515,1375 468,1422 444,1479 444,1546 444,1613 468,1670 515,1717 562,1764 619,1787 686,1787 752,1787 809,1764 857,1717 904,1670 928,1613 928,1546 Z M 820,1546 C 820,1583 807,1615 781,1641 755,1667 723,1680 686,1680 648,1680 616,1667 590,1641 564,1615 551,1583 551,1546 551,1509 564,1477 589,1450 614,1423 647,1409 686,1409 725,1409 757,1423 782,1450 807,1477 820,1509 820,1546 Z"/>
   <glyph unicode="z" horiz-adv-x="848" d="M 83,0 L 83,137 688,943 117,943 117,1082 901,1082 901,945 295,139 922,139 922,0 83,0 Z"/>
   <glyph unicode="y" horiz-adv-x="1033" d="M 191,-425 C 142,-425 100,-421 67,-414 L 67,-279 C 92,-283 120,-285 151,-285 263,-285 352,-203 417,-38 L 434,5 5,1082 197,1082 425,484 C 428,475 432,464 437,451 442,438 457,394 482,320 507,246 521,205 523,196 L 593,393 830,1082 1020,1082 604,0 C 559,-115 518,-201 479,-258 440,-314 398,-356 351,-384 304,-411 250,-425 191,-425 Z"/>
   <glyph unicode="v" horiz-adv-x="1033" d="M 613,0 L 400,0 7,1082 199,1082 437,378 C 446,351 469,272 506,141 L 541,258 580,376 826,1082 1017,1082 613,0 Z"/>
   <glyph unicode="u" horiz-adv-x="874" d="M 314,1082 L 314,396 C 314,325 321,269 335,230 349,191 371,162 402,145 433,128 478,119 537,119 624,119 692,149 742,208 792,267 817,350 817,455 L 817,1082 997,1082 997,231 C 997,105 999,28 1003,0 L 833,0 C 832,3 832,12 831,27 830,42 830,59 829,78 828,97 826,132 825,185 L 822,185 C 781,110 733,58 679,27 624,-4 557,-20 476,-20 357,-20 271,10 216,69 161,128 133,225 133,361 L 133,1082 314,1082 Z"/>
   <glyph unicode="t" horiz-adv-x="531" d="M 554,8 C 495,-8 434,-16 372,-16 228,-16 156,66 156,229 L 156,951 31,951 31,1082 163,1082 216,1324 336,1324 336,1082 536,1082 536,951 336,951 336,268 C 336,216 345,180 362,159 379,138 408,127 450,127 474,127 509,132 554,141 L 554,8 Z"/>
   <glyph unicode="s" horiz-adv-x="901" d="M 950,299 C 950,197 912,118 835,63 758,8 650,-20 511,-20 376,-20 273,2 200,47 127,91 79,160 57,254 L 216,285 C 231,227 263,185 311,158 359,131 426,117 511,117 602,117 669,131 712,159 754,187 775,229 775,285 775,328 760,362 731,389 702,416 654,438 589,455 L 460,489 C 357,516 283,542 240,568 196,593 162,624 137,661 112,698 100,743 100,796 100,895 135,970 206,1022 276,1073 378,1099 513,1099 632,1099 727,1078 798,1036 868,994 912,927 931,834 L 769,814 C 759,862 732,899 689,925 645,950 586,963 513,963 432,963 372,951 333,926 294,901 275,864 275,814 275,783 283,758 299,738 315,718 339,701 370,687 401,673 467,654 568,629 663,605 732,583 774,563 816,542 849,520 874,495 898,470 917,442 930,410 943,377 950,340 950,299 Z"/>
   <glyph unicode="r" horiz-adv-x="530" d="M 142,0 L 142,830 C 142,906 140,990 136,1082 L 306,1082 C 311,959 314,886 314,861 L 318,861 C 347,954 380,1017 417,1051 454,1085 507,1102 575,1102 599,1102 623,1099 648,1092 L 648,927 C 624,934 592,937 552,937 477,937 420,905 381,841 342,776 322,684 322,564 L 322,0 142,0 Z"/>
   <glyph unicode="o" horiz-adv-x="980" d="M 1053,542 C 1053,353 1011,212 928,119 845,26 724,-20 565,-20 407,-20 288,28 207,125 126,221 86,360 86,542 86,915 248,1102 571,1102 736,1102 858,1057 936,966 1014,875 1053,733 1053,542 Z M 864,542 C 864,691 842,800 798,868 753,935 679,969 574,969 469,969 393,935 346,866 299,797 275,689 275,542 275,399 298,292 345,221 391,149 464,113 563,113 671,113 748,148 795,217 841,286 864,395 864,542 Z"/>
   <glyph unicode="n" horiz-adv-x="874" d="M 825,0 L 825,686 C 825,757 818,813 804,852 790,891 768,920 737,937 706,954 661,963 602,963 515,963 447,933 397,874 347,815 322,732 322,627 L 322,0 142,0 142,851 C 142,977 140,1054 136,1082 L 306,1082 C 307,1079 307,1070 308,1055 309,1040 310,1024 311,1005 312,986 313,950 314,897 L 317,897 C 358,972 406,1025 461,1056 515,1087 582,1102 663,1102 782,1102 869,1073 924,1014 979,955 1006,857 1006,721 L 1006,0 825,0 Z"/>
   <glyph unicode="m" horiz-adv-x="1457" d="M 768,0 L 768,686 C 768,791 754,863 725,903 696,943 645,963 570,963 493,963 433,934 388,875 343,816 321,734 321,627 L 321,0 142,0 142,851 C 142,977 140,1054 136,1082 L 306,1082 C 307,1079 307,1070 308,1055 309,1040 310,1024 311,1005 312,986 313,950 314,897 L 317,897 C 356,974 400,1027 450,1057 500,1087 561,1102 633,1102 715,1102 780,1086 828,1053 875,1020 908,968 927,897 L 930,897 C 967,970 1013,1022 1066,1054 1119,1086 1183,1102 1258,1102 1367,1102 1447,1072 1497,1013 1546,954 1571,856 1571,721 L 1571,0 1393,0 1393,686 C 1393,791 1379,863 1350,903 1321,943 1270,963 1195,963 1116,963 1055,934 1012,876 968,817 946,734 946,627 L 946,0 768,0 Z"/>
   <glyph unicode="l" horiz-adv-x="187" d="M 138,0 L 138,1484 318,1484 318,0 138,0 Z"/>
   <glyph unicode="i" horiz-adv-x="187" d="M 137,1312 L 137,1484 317,1484 317,1312 137,1312 Z M 137,0 L 137,1082 317,1082 317,0 137,0 Z"/>
   <glyph unicode="h" horiz-adv-x="874" d="M 317,897 C 356,968 402,1020 457,1053 511,1086 580,1102 663,1102 780,1102 867,1073 923,1015 978,956 1006,858 1006,721 L 1006,0 825,0 825,686 C 825,762 818,819 804,856 790,893 767,920 735,937 703,954 659,963 602,963 517,963 450,934 399,875 348,816 322,737 322,638 L 322,0 142,0 142,1484 322,1484 322,1098 C 322,1057 321,1015 319,972 316,929 315,904 314,897 L 317,897 Z"/>
   <glyph unicode="g" horiz-adv-x="927" d="M 548,-425 C 430,-425 336,-402 266,-356 196,-309 151,-243 131,-158 L 312,-132 C 324,-182 351,-220 392,-248 433,-274 486,-288 553,-288 732,-288 822,-183 822,27 L 822,201 820,201 C 786,132 739,80 680,45 621,10 551,-8 472,-8 339,-8 242,36 180,124 117,212 86,350 86,539 86,730 120,872 187,963 254,1054 355,1099 492,1099 569,1099 635,1082 692,1047 748,1012 791,962 822,897 L 824,897 C 824,917 825,952 828,1001 831,1050 833,1077 836,1082 L 1007,1082 C 1003,1046 1001,971 1001,858 L 1001,31 C 1001,-273 850,-425 548,-425 Z M 822,541 C 822,629 810,705 786,769 762,832 728,881 685,915 641,948 591,965 536,965 444,965 377,932 335,865 293,798 272,690 272,541 272,393 292,287 331,222 370,157 438,125 533,125 590,125 640,142 684,175 728,208 762,256 786,319 810,381 822,455 822,541 Z"/>
   <glyph unicode="f" horiz-adv-x="557" d="M 361,951 L 361,0 181,0 181,951 29,951 29,1082 181,1082 181,1204 C 181,1303 203,1374 246,1417 289,1460 356,1482 445,1482 495,1482 537,1478 572,1470 L 572,1333 C 542,1338 515,1341 492,1341 446,1341 413,1329 392,1306 371,1283 361,1240 361,1179 L 361,1082 572,1082 572,951 361,951 Z"/>
   <glyph unicode="e" horiz-adv-x="980" d="M 276,503 C 276,379 302,283 353,216 404,149 479,115 578,115 656,115 719,131 766,162 813,193 844,233 861,281 L 1019,236 C 954,65 807,-20 578,-20 418,-20 296,28 213,123 129,218 87,360 87,548 87,727 129,864 213,959 296,1054 416,1102 571,1102 889,1102 1048,910 1048,527 L 1048,503 276,503 Z M 862,641 C 852,755 823,838 775,891 727,943 658,969 568,969 481,969 412,940 361,882 310,823 282,743 278,641 L 862,641 Z"/>
   <glyph unicode="d" horiz-adv-x="927" d="M 821,174 C 788,105 744,55 689,25 634,-5 565,-20 484,-20 347,-20 247,26 183,118 118,210 86,349 86,536 86,913 219,1102 484,1102 566,1102 634,1087 689,1057 744,1027 788,979 821,914 L 823,914 821,1035 821,1484 1001,1484 1001,223 C 1001,110 1003,36 1007,0 L 835,0 C 833,11 831,35 829,74 826,113 825,146 825,174 L 821,174 Z M 275,542 C 275,391 295,282 335,217 375,152 440,119 530,119 632,119 706,154 752,225 798,296 821,405 821,554 821,697 798,802 752,869 706,936 633,969 532,969 441,969 376,936 336,869 295,802 275,693 275,542 Z"/>
   <glyph unicode="c" horiz-adv-x="901" d="M 275,546 C 275,402 298,295 343,226 388,157 457,122 548,122 612,122 666,139 709,174 752,209 778,262 788,334 L 970,322 C 956,218 912,135 837,73 762,11 668,-20 553,-20 402,-20 286,28 207,124 127,219 87,359 87,542 87,724 127,863 207,959 287,1054 402,1102 551,1102 662,1102 754,1073 827,1016 900,959 945,880 964,779 L 779,765 C 770,825 746,873 708,908 670,943 616,961 546,961 451,961 382,929 339,866 296,803 275,696 275,546 Z"/>
   <glyph unicode="a" horiz-adv-x="1060" d="M 414,-20 C 305,-20 224,9 169,66 114,123 87,202 87,302 87,414 124,500 198,560 271,620 390,652 554,656 L 797,660 797,719 C 797,807 778,870 741,908 704,946 645,965 565,965 484,965 426,951 389,924 352,897 330,853 323,793 L 135,810 C 166,1005 310,1102 569,1102 705,1102 807,1071 876,1009 945,946 979,856 979,738 L 979,272 C 979,219 986,179 1000,152 1014,125 1041,111 1080,111 1097,111 1117,113 1139,118 L 1139,6 C 1094,-5 1047,-10 1000,-10 933,-10 885,8 855,43 824,78 807,132 803,207 L 797,207 C 751,124 698,66 637,32 576,-3 501,-20 414,-20 Z M 455,115 C 521,115 580,130 631,160 682,190 723,231 753,284 782,336 797,390 797,445 L 797,534 600,530 C 515,529 451,520 408,504 364,488 330,463 307,430 284,397 272,353 272,299 272,240 288,195 320,163 351,131 396,115 455,115 Z"/>
   <glyph unicode="U" horiz-adv-x="1192" d="M 731,-20 C 616,-20 515,1 429,43 343,85 276,146 229,226 182,306 158,401 158,512 L 158,1409 349,1409 349,528 C 349,399 382,302 447,235 512,168 607,135 730,135 857,135 955,170 1026,239 1096,308 1131,408 1131,541 L 1131,1409 1321,1409 1321,530 C 1321,416 1297,318 1249,235 1200,152 1132,89 1044,46 955,2 851,-20 731,-20 Z"/>
   <glyph unicode="T" horiz-adv-x="1192" d="M 720,1253 L 720,0 530,0 530,1253 46,1253 46,1409 1204,1409 1204,1253 720,1253 Z"/>
   <glyph unicode="P" horiz-adv-x="1112" d="M 1258,985 C 1258,852 1215,746 1128,667 1041,588 922,549 773,549 L 359,549 359,0 168,0 168,1409 761,1409 C 919,1409 1041,1372 1128,1298 1215,1224 1258,1120 1258,985 Z M 1066,983 C 1066,1165 957,1256 738,1256 L 359,1256 359,700 746,700 C 959,700 1066,794 1066,983 Z"/>
   <glyph unicode="L" horiz-adv-x="927" d="M 168,0 L 168,1409 359,1409 359,156 1071,156 1071,0 168,0 Z"/>
   <glyph unicode="K" horiz-adv-x="1191" d="M 1106,0 L 543,680 359,540 359,0 168,0 168,1409 359,1409 359,703 1038,1409 1263,1409 663,797 1343,0 1106,0 Z"/>
   <glyph unicode="I" horiz-adv-x="213" d="M 189,0 L 189,1409 380,1409 380,0 189,0 Z"/>
   <glyph unicode="G" horiz-adv-x="1377" d="M 103,711 C 103,940 164,1117 287,1242 410,1367 582,1430 804,1430 960,1430 1087,1404 1184,1351 1281,1298 1356,1214 1409,1098 L 1227,1044 C 1187,1124 1132,1182 1062,1219 991,1256 904,1274 799,1274 636,1274 512,1225 426,1127 340,1028 297,890 297,711 297,533 343,393 434,290 525,187 652,135 813,135 905,135 991,149 1071,177 1150,205 1215,243 1264,291 L 1264,545 843,545 843,705 1440,705 1440,219 C 1365,143 1274,84 1166,43 1057,1 940,-20 813,-20 666,-20 539,9 432,68 325,127 244,211 188,322 131,432 103,562 103,711 Z"/>
   <glyph unicode="F" horiz-adv-x="1006" d="M 359,1253 L 359,729 1145,729 1145,571 359,571 359,0 168,0 168,1409 1169,1409 1169,1253 359,1253 Z"/>
   <glyph unicode="D" horiz-adv-x="1218" d="M 1381,719 C 1381,574 1353,447 1296,338 1239,229 1159,145 1055,87 951,29 831,0 695,0 L 168,0 168,1409 634,1409 C 873,1409 1057,1349 1187,1230 1316,1110 1381,940 1381,719 Z M 1189,719 C 1189,894 1141,1027 1046,1119 950,1210 811,1256 630,1256 L 359,1256 359,153 673,153 C 776,153 867,176 946,221 1024,266 1084,332 1126,417 1168,502 1189,603 1189,719 Z"/>
   <glyph unicode="C" horiz-adv-x="1324" d="M 792,1274 C 636,1274 515,1224 428,1124 341,1023 298,886 298,711 298,538 343,400 434,295 524,190 646,137 800,137 997,137 1146,235 1245,430 L 1401,352 C 1343,231 1262,138 1157,75 1052,12 930,-20 791,-20 649,-20 526,10 423,69 319,128 240,212 186,322 131,431 104,561 104,711 104,936 165,1112 286,1239 407,1366 575,1430 790,1430 940,1430 1065,1401 1166,1342 1267,1283 1341,1196 1388,1081 L 1207,1021 C 1174,1103 1122,1166 1050,1209 977,1252 891,1274 792,1274 Z"/>
   <glyph unicode="9" horiz-adv-x="980" d="M 1042,733 C 1042,491 998,305 910,175 821,45 695,-20 532,-20 422,-20 334,3 268,50 201,96 154,171 125,274 L 297,301 C 333,184 412,125 535,125 638,125 718,173 775,269 832,365 861,502 864,680 837,620 792,572 727,536 662,499 591,481 514,481 387,481 286,524 210,611 134,698 96,813 96,956 96,1103 137,1219 220,1304 303,1388 418,1430 565,1430 722,1430 840,1372 921,1256 1002,1140 1042,966 1042,733 Z M 846,907 C 846,1020 820,1112 768,1181 716,1250 646,1284 559,1284 472,1284 404,1255 354,1196 304,1137 279,1057 279,956 279,853 304,772 354,713 404,653 472,623 557,623 609,623 657,635 702,659 747,682 782,716 808,759 833,802 846,852 846,907 Z"/>
   <glyph unicode="8" horiz-adv-x="980" d="M 1050,393 C 1050,263 1009,162 926,89 843,16 725,-20 570,-20 419,-20 302,16 217,87 132,158 89,260 89,391 89,483 115,560 168,623 221,686 288,724 370,737 L 370,741 C 293,759 233,798 189,858 144,918 122,988 122,1069 122,1176 162,1263 243,1330 323,1397 431,1430 566,1430 705,1430 814,1397 895,1332 975,1267 1015,1178 1015,1067 1015,986 993,916 948,856 903,796 842,758 765,743 L 765,739 C 855,724 925,686 975,625 1025,563 1050,486 1050,393 Z M 828,1057 C 828,1216 741,1296 566,1296 481,1296 417,1276 373,1236 328,1196 306,1136 306,1057 306,976 329,915 375,873 420,830 485,809 568,809 653,809 717,829 762,868 806,907 828,970 828,1057 Z M 863,410 C 863,497 837,563 785,608 733,652 660,674 566,674 475,674 403,650 352,603 301,555 275,489 275,406 275,212 374,115 572,115 670,115 743,139 791,186 839,233 863,307 863,410 Z"/>
   <glyph unicode="7" horiz-adv-x="954" d="M 1036,1263 C 892,1043 790,871 731,746 672,621 627,498 598,377 568,256 553,130 553,0 L 365,0 C 365,180 403,370 480,569 556,768 683,997 862,1256 L 105,1256 105,1409 1036,1409 1036,1263 Z"/>
   <glyph unicode="6" horiz-adv-x="980" d="M 1049,461 C 1049,312 1009,195 928,109 847,23 736,-20 594,-20 435,-20 314,39 230,157 146,275 104,447 104,672 104,916 148,1103 235,1234 322,1365 447,1430 608,1430 821,1430 955,1334 1010,1143 L 838,1112 C 803,1227 725,1284 606,1284 503,1284 424,1236 368,1141 311,1045 283,906 283,725 316,786 362,832 421,864 480,895 548,911 625,911 755,911 858,870 935,789 1011,708 1049,598 1049,461 Z M 866,453 C 866,555 841,634 791,689 741,744 671,772 582,772 498,772 430,748 379,699 327,650 301,582 301,496 301,387 328,298 382,229 435,160 504,125 588,125 675,125 743,154 792,213 841,271 866,351 866,453 Z"/>
   <glyph unicode="5" horiz-adv-x="980" d="M 1053,459 C 1053,310 1009,193 921,108 832,23 710,-20 553,-20 422,-20 316,9 235,66 154,123 103,206 82,315 L 264,336 C 302,197 400,127 557,127 654,127 729,156 784,215 839,273 866,353 866,455 866,544 839,615 784,670 729,725 654,752 561,752 512,752 467,744 425,729 383,714 341,688 299,651 L 123,651 170,1409 971,1409 971,1256 334,1256 307,809 C 385,869 482,899 598,899 737,899 847,858 930,777 1012,696 1053,590 1053,459 Z"/>
   <glyph unicode="4" horiz-adv-x="1060" d="M 881,319 L 881,0 711,0 711,319 47,319 47,459 692,1409 881,1409 881,461 1079,461 1079,319 881,319 Z M 711,1206 C 710,1202 700,1184 683,1153 666,1122 653,1100 644,1087 L 283,555 229,481 213,461 711,461 711,1206 Z"/>
   <glyph unicode="3" horiz-adv-x="1006" d="M 1049,389 C 1049,259 1008,158 925,87 842,16 724,-20 571,-20 428,-20 315,12 230,77 145,141 94,236 78,362 L 264,379 C 288,212 390,129 571,129 662,129 733,151 785,196 836,241 862,307 862,395 862,472 833,532 774,575 715,618 629,639 518,639 L 416,639 416,795 514,795 C 613,795 689,817 744,860 798,903 825,962 825,1038 825,1113 803,1173 759,1217 714,1260 648,1282 561,1282 482,1282 418,1262 369,1221 320,1180 291,1123 283,1049 L 102,1063 C 115,1178 163,1268 246,1333 328,1398 434,1430 563,1430 704,1430 814,1397 893,1332 971,1266 1010,1174 1010,1057 1010,967 985,894 935,838 884,781 811,743 715,723 L 715,719 C 820,708 902,672 961,613 1020,554 1049,479 1049,389 Z"/>
   <glyph unicode="2" horiz-adv-x="954" d="M 103,0 L 103,127 C 137,205 179,274 228,334 277,393 328,447 382,496 436,544 490,589 543,630 596,671 643,713 686,754 729,795 763,839 790,884 816,929 829,981 829,1038 829,1115 806,1175 761,1218 716,1261 653,1282 572,1282 495,1282 432,1261 383,1220 333,1178 304,1119 295,1044 L 111,1061 C 124,1174 172,1263 255,1330 337,1397 443,1430 572,1430 714,1430 823,1397 900,1330 976,1263 1014,1167 1014,1044 1014,989 1002,935 977,881 952,827 914,773 865,719 816,665 721,581 582,468 505,405 444,349 399,299 354,248 321,200 301,153 L 1036,153 1036,0 103,0 Z"/>
   <glyph unicode="1" horiz-adv-x="927" d="M 156,0 L 156,153 515,153 515,1237 197,1010 197,1180 530,1409 696,1409 696,153 1039,153 1039,0 156,0 Z"/>
   <glyph unicode="0" horiz-adv-x="980" d="M 1059,705 C 1059,470 1018,290 935,166 852,42 729,-20 567,-20 405,-20 283,42 202,165 121,288 80,468 80,705 80,947 120,1128 199,1249 278,1370 402,1430 573,1430 739,1430 862,1369 941,1247 1020,1125 1059,944 1059,705 Z M 876,705 C 876,908 853,1056 806,1147 759,1238 681,1284 573,1284 462,1284 383,1239 335,1149 286,1059 262,911 262,705 262,505 287,359 336,266 385,173 462,127 569,127 675,127 753,174 802,269 851,364 876,509 876,705 Z"/>
   <glyph unicode=" " horiz-adv-x="556"/>
  </font>
 </defs>
 <defs class="TextShapeIndex">
  <g ooo:slide="id1" ooo:id-list="id3 id4 id5 id6 id7 id8 id9 id10 id11 id12 id13 id14 id15 id16 id17 id18 id19 id20 id21 id22 id23 id24 id25 id26 id27 id28"/>
 </defs>
 <defs class="EmbeddedBulletChars">
  <g id="bullet-char-template-57356" transform="scale(0.00048828125,-0.00048828125)">
   <path d="M 580,1141 L 1163,571 580,0 -4,571 580,1141 Z"/>
  </g>
  <g id="bullet-char-template-57354" transform="scale(0.00048828125,-0.00048828125)">
   <path d="M 8,1128 L 1137,1128 1137,0 8,0 8,1128 Z"/>
  </g>
  <g id="bullet-char-template-10146" transform="scale(0.00048828125,-0.00048828125)">
   <path d="M 174,0 L 602,739 174,1481 1456,739 174,0 Z M 1358,739 L 309,1346 659,739 1358,739 Z"/>
  </g>
  <g id="bullet-char-template-10132" transform="scale(0.00048828125,-0.00048828125)">
   <path d="M 2015,739 L 1276,0 717,0 1260,543 174,543 174,936 1260,936 717,1481 1274,1481 2015,739 Z"/>
  </g>
  <g id="bullet-char-template-10007" transform="scale(0.00048828125,-0.00048828125)">
   <path d="M 0,-2 C -7,14 -16,27 -25,37 L 356,567 C 262,823 215,952 215,954 215,979 228,992 255,992 264,992 276,990 289,987 310,991 331,999 354,1012 L 381,999 492,748 772,1049 836,1024 860,1049 C 881,1039 901,1025 922,1006 886,937 835,863 770,784 769,783 710,716 594,584 L 774,223 C 774,196 753,168 711,139 L 727,119 C 717,90 699,76 672,76 641,76 570,178 457,381 L 164,-76 C 142,-110 111,-127 72,-127 30,-127 9,-110 8,-76 1,-67 -2,-52 -2,-32 -2,-23 -1,-13 0,-2 Z"/>
  </g>
  <g id="bullet-char-template-10004" transform="scale(0.00048828125,-0.00048828125)">
   <path d="M 285,-33 C 182,-33 111,30 74,156 52,228 41,333 41,471 41,549 55,616 82,672 116,743 169,778 240,778 293,778 328,747 346,684 L 369,508 C 377,444 397,411 428,410 L 1163,1116 C 1174,1127 1196,1133 1229,1133 1271,1133 1292,1118 1292,1087 L 1292,965 C 1292,929 1282,901 1262,881 L 442,47 C 390,-6 338,-33 285,-33 Z"/>
  </g>
  <g id="bullet-char-template-9679" transform="scale(0.00048828125,-0.00048828125)">
   <path d="M 813,0 C 632,0 489,54 383,161 276,268 223,411 223,592 223,773 276,916 383,1023 489,1130 632,1184 813,1184 992,1184 1136,1130 1245,1023 1353,916 1407,772 1407,592 1407,412 1353,268 1245,161 1136,54 992,0 813,0 Z"/>
  </g>
  <g id="bullet-char-template-8226" transform="scale(0.00048828125,-0.00048828125)">
   <path d="M 346,457 C 273,457 209,483 155,535 101,586 74,649 74,723 74,796 101,859 155,911 209,963 273,989 346,989 419,989 480,963 531,910 582,859 608,796 608,723 608,648 583,586 532,535 482,483 420,457 346,457 Z"/>
  </g>
  <g id="bullet-char-template-8211" transform="scale(0.00048828125,-0.00048828125)">
   <path d="M -4,459 L 1135,459 1135,606 -4,606 -4,459 Z"/>
  </g>
  <g id="bullet-char-template-61548" transform="scale(0.00048828125,-0.00048828125)">
   <path d="M 173,740 C 173,903 231,1043 346,1159 462,1274 601,1332 765,1332 928,1332 1067,1274 1183,1159 1299,1043 1357,903 1357,740 1357,577 1299,437 1183,322 1067,206 928,148 765,148 601,148 462,206 346,322 231,437 173,577 173,740 Z"/>
  </g>
 </defs>
 <g>
  <g id="id2" class="Master_Slide">
   <g id="bg-id2" class="Background"/>
   <g id="bo-id2" class="BackgroundObjects"/>
  </g>
 </g>
 <g class="SlideGroup">
  <g>
   <g id="container-id1">
    <g id="id1" class="Slide" clip-path="url(#presentation_clip_path)">
     <g class="Page">
      <g class="com.sun.star.drawing.CustomShape">
       <g id="id3">
        <rect class="BoundingBox" stroke="none" fill="none" x="1135" y="1264" width="10317" height="7172"/>
        <path fill="none" stroke="rgb(52,101,164)" d="M 6293,8434 L 5785,8434"/>
        <path fill="none" stroke="rgb(52,101,164)" d="M 5277,8434 L 4769,8434"/>
        <path fill="none" stroke="rgb(52,101,164)" d="M 4261,8434 L 3753,8434"/>
        <path fill="none" stroke="rgb(52,101,164)" d="M 3245,8434 L 2737,8434"/>
        <path fill="none" stroke="rgb(52,101,164)" d="M 2229,8434 L 1721,8434"/>
        <path fill="none" stroke="rgb(52,101,164)" d="M 1213,8434 L 1136,8434 1136,8003"/>
        <path fill="none" stroke="rgb(52,101,164)" d="M 1136,7495 L 1136,6987"/>
        <path fill="none" stroke="rgb(52,101,164)" d="M 1136,6479 L 1136,5971"/>
        <path fill="none" stroke="rgb(52,101,164)" d="M 1136,5463 L 1136,4955"/>
        <path fill="none" stroke="rgb(52,101,164)" d="M 1136,4447 L 1136,3939"/>
        <path fill="none" stroke="rgb(52,101,164)" d="M 1136,3431 L 1136,2923"/>
        <path fill="none" stroke="rgb(52,101,164)" d="M 1136,2415 L 1136,1907"/>
        <path fill="none" stroke="rgb(52,101,164)" d="M 1136,1399 L 1136,1265 1510,1265"/>
        <path fill="none" stroke="rgb(52,101,164)" d="M 2018,1265 L 2526,1265"/>
        <path fill="none" stroke="rgb(52,101,164)" d="M 3034,1265 L 3542,1265"/>
        <path fill="none" stroke="rgb(52,101,164)" d="M 4050,1265 L 4558,1265"/>
        <path fill="none" stroke="rgb(52,101,164)" d="M 5066,1265 L 5574,1265"/>
        <path fill="none" stroke="rgb(52,101,164)" d="M 6082,1265 L 6590,1265"/>
        <path fill="none" stroke="rgb(52,101,164)" d="M 7098,1265 L 7606,1265"/>
        <path fill="none" stroke="rgb(52,101,164)" d="M 8114,1265 L 8622,1265"/>
        <path fill="none" stroke="rgb(52,101,164)" d="M 9130,1265 L 9638,1265"/>
        <path fill="none" stroke="rgb(52,101,164)" d="M 10146,1265 L 10654,1265"/>
        <path fill="none" stroke="rgb(52,101,164)" d="M 11162,1265 L 11450,1265 11450,1485"/>
        <path fill="none" stroke="rgb(52,101,164)" d="M 11450,1993 L 11450,2501"/>
        <path fill="none" stroke="rgb(52,101,164)" d="M 11450,3009 L 11450,3517"/>
        <path fill="none" stroke="rgb(52,101,164)" d="M 11450,4025 L 11450,4533"/>
        <path fill="none" stroke="rgb(52,101,164)" d="M 11450,5041 L 11450,5549"/>
        <path fill="none" stroke="rgb(52,101,164)" d="M 11450,6057 L 11450,6565"/>
        <path fill="none" stroke="rgb(52,101,164)" d="M 11450,7073 L 11450,7581"/>
        <path fill="none" stroke="rgb(52,101,164)" d="M 11450,8089 L 11450,8434 11287,8434"/>
        <path fill="none" stroke="rgb(52,101,164)" d="M 10779,8434 L 10271,8434"/>
        <path fill="none" stroke="rgb(52,101,164)" d="M 9763,8434 L 9255,8434"/>
        <path fill="none" stroke="rgb(52,101,164)" d="M 8747,8434 L 8239,8434"/>
        <path fill="none" stroke="rgb(52,101,164)" d="M 7731,8434 L 7223,8434"/>
        <path fill="none" stroke="rgb(52,101,164)" d="M 6715,8434 L 6293,8434"/>
       </g>
      </g>
      <g class="Group">
       <g class="TextShape">
        <g id="id4">
         <rect class="BoundingBox" stroke="none" fill="none" x="1507" y="1727" width="1334" height="1103"/>
         <path fill="rgb(204,204,204)" stroke="none" d="M 2174,2803 L 1533,2803 1533,1753 2814,1753 2814,2803 2174,2803 Z"/>
         <path fill="none" stroke="rgb(128,128,128)" stroke-width="51" stroke-linejoin="round" d="M 2174,2803 L 1533,2803 1533,1753 2814,1753 2814,2803 2174,2803 Z"/>
         <text class="SVGTextShape"><tspan class="TextParagraph" font-family="Liberation Sans, sans-serif" font-size="282px" font-weight="400" text-decoration="underline"><tspan class="TextPosition" x="1905" y="2162"><tspan fill="rgb(0,0,0)" stroke="none" style="white-space: pre">Film </tspan></tspan><tspan class="TextPosition" x="2032" y="2480"><tspan fill="rgb(0,0,0)" stroke="none" style="white-space: pre">ID</tspan></tspan></tspan></text>
        </g>
       </g>
       <g class="TextShape">
        <g id="id5">
         <rect class="BoundingBox" stroke="none" fill="none" x="2777" y="1730" width="2953" height="1100"/>
         <path fill="rgb(204,204,204)" stroke="none" d="M 4253,2803 L 2803,2803 2803,1756 5703,1756 5703,2803 4253,2803 Z"/>
         <path fill="none" stroke="rgb(128,128,128)" stroke-width="51" stroke-linejoin="round" d="M 4253,2803 L 2803,2803 2803,1756 5703,1756 5703,2803 4253,2803 Z"/>
         <text class="SVGTextShape"><tspan class="TextParagraph" font-family="Liberation Sans, sans-serif" font-size="564px" font-weight="400"><tspan class="TextPosition" x="3652" y="2415"><tspan fill="rgb(0,0,0)" stroke="none" style="white-space: pre">Tittel</tspan></tspan></tspan></text>
        </g>
       </g>
       <g class="TextShape">
        <g id="id6">
         <rect class="BoundingBox" stroke="none" fill="none" x="5652" y="1727" width="1625" height="1103"/>
         <path fill="rgb(204,204,204)" stroke="none" d="M 6464,2803 L 5678,2803 5678,1753 7250,1753 7250,2803 6464,2803 Z"/>
         <path fill="none" stroke="rgb(128,128,128)" stroke-width="51" stroke-linejoin="round" d="M 6464,2803 L 5678,2803 5678,1753 7250,1753 7250,2803 6464,2803 Z"/>
         <text class="SVGTextShape"><tspan class="TextParagraph" font-family="Liberation Sans, sans-serif" font-size="459px" font-weight="400"><tspan class="TextPosition" x="6236" y="2319"><tspan fill="rgb(0,0,0)" stroke="none" style="white-space: pre">År</tspan></tspan></tspan></text>
        </g>
       </g>
       <g class="TextShape">
        <g id="id7">
         <rect class="BoundingBox" stroke="none" fill="none" x="7149" y="1727" width="1218" height="1103"/>
         <path fill="rgb(204,204,204)" stroke="none" d="M 7758,2803 L 7175,2803 7175,1753 8340,1753 8340,2803 7758,2803 Z"/>
         <path fill="none" stroke="rgb(128,128,128)" stroke-width="51" stroke-linejoin="round" d="M 7758,2803 L 7175,2803 7175,1753 8340,1753 8340,2803 7758,2803 Z"/>
         <text class="SVGTextShape"><tspan class="TextParagraph" font-family="Liberation Sans, sans-serif" font-size="318px" font-weight="400"><tspan class="TextPosition" x="7491" y="2192"><tspan fill="rgb(0,0,0)" stroke="none" style="white-space: pre">Len</tspan></tspan><tspan class="TextPosition" x="7491" y="2548"><tspan fill="rgb(0,0,0)" stroke="none" style="white-space: pre">gde</tspan></tspan></tspan></text>
        </g>
       </g>
       <g class="TextShape">
        <g id="id8">
         <rect class="BoundingBox" stroke="none" fill="none" x="8326" y="1727" width="2773" height="1103"/>
         <path fill="rgb(204,204,204)" stroke="none" d="M 9712,2803 L 8352,2803 8352,1753 11072,1753 11072,2803 9712,2803 Z"/>
         <path fill="none" stroke="rgb(128,128,128)" stroke-width="51" stroke-linejoin="round" d="M 9712,2803 L 8352,2803 8352,1753 11072,1753 11072,2803 9712,2803 Z"/>
         <text class="SVGTextShape"><tspan class="TextParagraph" font-family="Liberation Sans, sans-serif" font-size="459px" font-weight="400"><tspan class="TextPosition" x="8671" y="2319"><tspan fill="rgb(0,0,0)" stroke="none" style="white-space: pre">Produsent</tspan></tspan></tspan></text>
        </g>
       </g>
      </g>
      <g class="Group">
       <g class="TextShape">
        <g id="id9">
         <rect class="BoundingBox" stroke="none" fill="none" x="1532" y="3069" width="1272" height="1044"/>
         <path fill="rgb(230,230,255)" stroke="none" d="M 2168,4111 L 1533,4111 1533,3070 2802,3070 2802,4111 2168,4111 Z"/>
         <path fill="none" stroke="rgb(0,0,0)" d="M 2168,4111 L 1533,4111 1533,3070 2802,3070 2802,4111 2168,4111 Z"/>
         <text class="SVGTextShape"><tspan class="TextParagraph" font-family="Liberation Sans, sans-serif" font-size="564px" font-weight="400"><tspan class="TextPosition" x="2011" y="3703"><tspan fill="rgb(0,0,0)" stroke="none" style="white-space: pre">1</tspan></tspan></tspan></text>
        </g>
       </g>
       <g class="TextShape">
        <g id="id10">
         <rect class="BoundingBox" stroke="none" fill="none" x="2801" y="3069" width="2877" height="1044"/>
         <path fill="rgb(230,230,255)" stroke="none" d="M 4239,4111 L 2802,4111 2802,3070 5676,3070 5676,4111 4239,4111 Z"/>
         <path fill="none" stroke="rgb(0,0,0)" d="M 4239,4111 L 2802,4111 2802,3070 5676,3070 5676,4111 4239,4111 Z"/>
         <text class="SVGTextShape"><tspan class="TextParagraph" font-family="Liberation Sans, sans-serif" font-size="423px" font-weight="400"><tspan class="TextPosition" x="3592" y="3580"><tspan fill="rgb(0,0,0)" stroke="none" style="white-space: pre">Citizen </tspan></tspan><tspan class="TextPosition" x="3683" y="4054"><tspan fill="rgb(0,0,0)" stroke="none" style="white-space: pre">Kane </tspan></tspan></tspan></text>
        </g>
       </g>
       <g class="TextShape">
        <g id="id11">
         <rect class="BoundingBox" stroke="none" fill="none" x="5677" y="3070" width="1502" height="1044"/>
         <path fill="rgb(230,230,255)" stroke="none" d="M 6428,4112 L 5678,4112 5678,3071 7177,3071 7177,4112 6428,4112 Z"/>
         <path fill="none" stroke="rgb(0,0,0)" d="M 6428,4112 L 5678,4112 5678,3071 7177,3071 7177,4112 6428,4112 Z"/>
         <text class="SVGTextShape"><tspan class="TextParagraph" font-family="Liberation Sans, sans-serif" font-size="423px" font-weight="400"><tspan class="TextPosition" x="5954" y="3581"><tspan fill="rgb(0,0,0)" stroke="none" style="white-space: pre">1941</tspan></tspan></tspan></text>
        </g>
       </g>
       <g class="TextShape">
        <g id="id12">
         <rect class="BoundingBox" stroke="none" fill="none" x="7174" y="3070" width="1171" height="1044"/>
         <path fill="rgb(230,230,255)" stroke="none" d="M 7759,4112 L 7175,4112 7175,3071 8343,3071 8343,4112 7759,4112 Z"/>
         <path fill="none" stroke="rgb(0,0,0)" d="M 7759,4112 L 7175,4112 7175,3071 8343,3071 8343,4112 7759,4112 Z"/>
         <text class="SVGTextShape"><tspan class="TextParagraph" font-family="Liberation Sans, sans-serif" font-size="423px" font-weight="400"><tspan class="TextPosition" x="7421" y="3581"><tspan fill="rgb(0,0,0)" stroke="none" style="white-space: pre">115</tspan></tspan></tspan></text>
        </g>
       </g>
       <g class="TextShape">
        <g id="id13">
         <rect class="BoundingBox" stroke="none" fill="none" x="8351" y="3070" width="2711" height="1044"/>
         <path fill="rgb(230,230,255)" stroke="none" d="M 9706,4112 L 8352,4112 8352,3071 11060,3071 11060,4112 9706,4112 Z"/>
         <path fill="none" stroke="rgb(0,0,0)" d="M 9706,4112 L 8352,4112 8352,3071 11060,3071 11060,4112 9706,4112 Z"/>
         <text class="SVGTextShape"><tspan class="TextParagraph" font-family="Liberation Sans, sans-serif" font-size="318px" font-weight="400"><tspan class="TextPosition" x="9039" y="3484"><tspan fill="rgb(0,0,0)" stroke="none" style="white-space: pre">Universal </tspan></tspan><tspan class="TextPosition" x="9128" y="3840"><tspan fill="rgb(0,0,0)" stroke="none" style="white-space: pre">Pictures</tspan></tspan></tspan></text>
        </g>
       </g>
      </g>
      <g class="Group">
       <g class="TextShape">
        <g id="id14">
         <rect class="BoundingBox" stroke="none" fill="none" x="1532" y="4378" width="1273" height="1044"/>
         <path fill="rgb(230,230,255)" stroke="none" d="M 2168,5420 L 1533,5420 1533,4379 2803,4379 2803,5420 2168,5420 Z"/>
         <path fill="none" stroke="rgb(0,0,0)" d="M 2168,5420 L 1533,5420 1533,4379 2803,4379 2803,5420 2168,5420 Z"/>
         <text class="SVGTextShape"><tspan class="TextParagraph" font-family="Liberation Sans, sans-serif" font-size="564px" font-weight="400"><tspan class="TextPosition" x="2012" y="5012"><tspan fill="rgb(0,0,0)" stroke="none" style="white-space: pre">2</tspan></tspan></tspan></text>
        </g>
       </g>
       <g class="TextShape">
        <g id="id15">
         <rect class="BoundingBox" stroke="none" fill="none" x="2802" y="4378" width="2878" height="1041"/>
         <path fill="rgb(230,230,255)" stroke="none" d="M 4241,5417 L 2803,5417 2803,4379 5678,4379 5678,5417 4241,5417 Z"/>
         <path fill="none" stroke="rgb(0,0,0)" d="M 4241,5417 L 2803,5417 2803,4379 5678,4379 5678,5417 4241,5417 Z"/>
         <text class="SVGTextShape"><tspan class="TextParagraph" font-family="Liberation Sans, sans-serif" font-size="494px" font-weight="400"><tspan class="TextPosition" x="3426" y="4953"><tspan fill="rgb(0,0,0)" stroke="none" style="white-space: pre">Psycho</tspan></tspan></tspan></text>
        </g>
       </g>
       <g class="TextShape">
        <g id="id16">
         <rect class="BoundingBox" stroke="none" fill="none" x="7174" y="4378" width="1180" height="1043"/>
         <path fill="rgb(230,230,255)" stroke="none" d="M 7764,5419 L 7175,5419 7175,4379 8352,4379 8352,5419 7764,5419 Z"/>
         <path fill="none" stroke="rgb(0,0,0)" d="M 7764,5419 L 7175,5419 7175,4379 8352,4379 8352,5419 7764,5419 Z"/>
         <text class="SVGTextShape"><tspan class="TextParagraph" font-family="Liberation Sans, sans-serif" font-size="318px" font-weight="400"><tspan class="TextPosition" x="7497" y="4792"><tspan fill="rgb(0,0,0)" stroke="none" style="white-space: pre">104</tspan></tspan></tspan></text>
        </g>
       </g>
       <g class="TextShape">
        <g id="id17">
         <rect class="BoundingBox" stroke="none" fill="none" x="8351" y="4378" width="2711" height="1044"/>
         <path fill="rgb(230,230,255)" stroke="none" d="M 9706,5420 L 8352,5420 8352,4379 11060,4379 11060,5420 9706,5420 Z"/>
         <path fill="none" stroke="rgb(0,0,0)" d="M 9706,5420 L 8352,5420 8352,4379 11060,4379 11060,5420 9706,5420 Z"/>
         <text class="SVGTextShape"><tspan class="TextParagraph" font-family="Liberation Sans, sans-serif" font-size="318px" font-weight="400"><tspan class="TextPosition" x="9039" y="4792"><tspan fill="rgb(0,0,0)" stroke="none" style="white-space: pre">Universal </tspan></tspan><tspan class="TextPosition" x="9128" y="5148"><tspan fill="rgb(0,0,0)" stroke="none" style="white-space: pre">Pictures</tspan></tspan></tspan></text>
        </g>
       </g>
       <g class="TextShape">
        <g id="id18">
         <rect class="BoundingBox" stroke="none" fill="none" x="5678" y="4378" width="1502" height="1044"/>
         <path fill="rgb(230,230,255)" stroke="none" d="M 6429,5420 L 5679,5420 5679,4379 7178,4379 7178,5420 6429,5420 Z"/>
         <path fill="none" stroke="rgb(0,0,0)" d="M 6429,5420 L 5679,5420 5679,4379 7178,4379 7178,5420 6429,5420 Z"/>
         <text class="SVGTextShape"><tspan class="TextParagraph" font-family="Liberation Sans, sans-serif" font-size="423px" font-weight="400"><tspan class="TextPosition" x="5955" y="4889"><tspan fill="rgb(0,0,0)" stroke="none" style="white-space: pre">1960</tspan></tspan></tspan></text>
        </g>
       </g>
      </g>
      <g class="Group">
       <g class="TextShape">
        <g id="id19">
         <rect class="BoundingBox" stroke="none" fill="none" x="5677" y="5685" width="1502" height="1032"/>
         <path fill="rgb(230,230,255)" stroke="none" d="M 6428,6715 L 5678,6715 5678,5686 7177,5686 7177,6715 6428,6715 Z"/>
         <path fill="none" stroke="rgb(0,0,0)" d="M 6428,6715 L 5678,6715 5678,5686 7177,5686 7177,6715 6428,6715 Z"/>
         <text class="SVGTextShape"><tspan class="TextParagraph" font-family="Liberation Sans, sans-serif" font-size="423px" font-weight="400"><tspan class="TextPosition" x="5954" y="6196"><tspan fill="rgb(0,0,0)" stroke="none" style="white-space: pre">1972</tspan></tspan></tspan></text>
        </g>
       </g>
       <g class="TextShape">
        <g id="id20">
         <rect class="BoundingBox" stroke="none" fill="none" x="7173" y="5686" width="1180" height="1031"/>
         <path fill="rgb(230,230,255)" stroke="none" d="M 7763,6715 L 7174,6715 7174,5687 8351,5687 8351,6715 7763,6715 Z"/>
         <path fill="none" stroke="rgb(0,0,0)" d="M 7763,6715 L 7174,6715 7174,5687 8351,5687 8351,6715 7763,6715 Z"/>
         <text class="SVGTextShape"><tspan class="TextParagraph" font-family="Liberation Sans, sans-serif" font-size="318px" font-weight="400"><tspan class="TextPosition" x="7496" y="6100"><tspan fill="rgb(0,0,0)" stroke="none" style="white-space: pre">175</tspan></tspan></tspan></text>
        </g>
       </g>
       <g class="TextShape">
        <g id="id21">
         <rect class="BoundingBox" stroke="none" fill="none" x="2802" y="5688" width="2877" height="1029"/>
         <path fill="rgb(230,230,255)" stroke="none" d="M 4240,6715 L 2803,6715 2803,5689 5677,5689 5677,6715 4240,6715 Z"/>
         <path fill="none" stroke="rgb(0,0,0)" d="M 4240,6715 L 2803,6715 2803,5689 5677,5689 5677,6715 4240,6715 Z"/>
         <text class="SVGTextShape"><tspan class="TextParagraph" font-family="Liberation Sans, sans-serif" font-size="370px" font-weight="400"><tspan class="TextPosition" x="3059" y="6148"><tspan fill="rgb(0,0,0)" stroke="none" style="white-space: pre">The Godfather</tspan></tspan></tspan></text>
        </g>
       </g>
       <g class="TextShape">
        <g id="id22">
         <rect class="BoundingBox" stroke="none" fill="none" x="8349" y="5685" width="2711" height="1032"/>
         <path fill="rgb(230,230,255)" stroke="none" d="M 9704,6715 L 8350,6715 8350,5686 11058,5686 11058,6715 9704,6715 Z"/>
         <path fill="none" stroke="rgb(0,0,0)" d="M 9704,6715 L 8350,6715 8350,5686 11058,5686 11058,6715 9704,6715 Z"/>
         <text class="SVGTextShape"><tspan class="TextParagraph" font-family="Liberation Sans, sans-serif" font-size="318px" font-weight="400"><tspan class="TextPosition" x="8925" y="6099"><tspan fill="rgb(0,0,0)" stroke="none" style="white-space: pre">Paramount</tspan></tspan></tspan></text>
        </g>
       </g>
       <g class="TextShape">
        <g id="id23">
         <rect class="BoundingBox" stroke="none" fill="none" x="1532" y="5698" width="1273" height="1019"/>
         <path fill="rgb(230,230,255)" stroke="none" d="M 2168,6715 L 1533,6715 1533,5699 2803,5699 2803,6715 2168,6715 Z"/>
         <path fill="none" stroke="rgb(0,0,0)" d="M 2168,6715 L 1533,6715 1533,5699 2803,5699 2803,6715 2168,6715 Z"/>
         <text class="SVGTextShape"><tspan class="TextParagraph" font-family="Liberation Sans, sans-serif" font-size="564px" font-weight="400"><tspan class="TextPosition" x="2012" y="6332"><tspan fill="rgb(0,0,0)" stroke="none" style="white-space: pre">3</tspan></tspan></tspan></text>
        </g>
       </g>
      </g>
      <g class="Group">
       <g class="TextShape">
        <g id="id24">
         <rect class="BoundingBox" stroke="none" fill="none" x="1533" y="6954" width="1273" height="1044"/>
         <path fill="rgb(230,230,255)" stroke="none" d="M 2169,7996 L 1534,7996 1534,6955 2804,6955 2804,7996 2169,7996 Z"/>
         <path fill="none" stroke="rgb(0,0,0)" d="M 2169,7996 L 1534,7996 1534,6955 2804,6955 2804,7996 2169,7996 Z"/>
         <text class="SVGTextShape"><tspan class="TextParagraph" font-family="Liberation Sans, sans-serif" font-size="564px" font-weight="400"><tspan class="TextPosition" x="2013" y="7588"><tspan fill="rgb(0,0,0)" stroke="none" style="white-space: pre">4</tspan></tspan></tspan></text>
        </g>
       </g>
       <g class="TextShape">
        <g id="id25">
         <rect class="BoundingBox" stroke="none" fill="none" x="2803" y="6954" width="2878" height="1041"/>
         <path fill="rgb(230,230,255)" stroke="none" d="M 4242,7993 L 2804,7993 2804,6955 5679,6955 5679,7993 4242,7993 Z"/>
         <path fill="none" stroke="rgb(0,0,0)" d="M 4242,7993 L 2804,7993 2804,6955 5679,6955 5679,7993 4242,7993 Z"/>
         <text class="SVGTextShape"><tspan class="TextParagraph" font-family="Liberation Sans, sans-serif" font-size="494px" font-weight="400"><tspan class="TextPosition" x="3427" y="7529"><tspan fill="rgb(0,0,0)" stroke="none" style="white-space: pre">Psycho</tspan></tspan></tspan></text>
        </g>
       </g>
       <g class="TextShape">
        <g id="id26">
         <rect class="BoundingBox" stroke="none" fill="none" x="7175" y="6954" width="1180" height="1043"/>
         <path fill="rgb(230,230,255)" stroke="none" d="M 7765,7995 L 7176,7995 7176,6955 8353,6955 8353,7995 7765,7995 Z"/>
         <path fill="none" stroke="rgb(0,0,0)" d="M 7765,7995 L 7176,7995 7176,6955 8353,6955 8353,7995 7765,7995 Z"/>
         <text class="SVGTextShape"><tspan class="TextParagraph" font-family="Liberation Sans, sans-serif" font-size="318px" font-weight="400"><tspan class="TextPosition" x="7498" y="7368"><tspan fill="rgb(0,0,0)" stroke="none" style="white-space: pre">109</tspan></tspan></tspan></text>
        </g>
       </g>
       <g class="TextShape">
        <g id="id27">
         <rect class="BoundingBox" stroke="none" fill="none" x="8352" y="6954" width="2711" height="1044"/>
         <path fill="rgb(230,230,255)" stroke="none" d="M 9707,7996 L 8353,7996 8353,6955 11061,6955 11061,7996 9707,7996 Z"/>
         <path fill="none" stroke="rgb(0,0,0)" d="M 9707,7996 L 8353,7996 8353,6955 11061,6955 11061,7996 9707,7996 Z"/>
         <text class="SVGTextShape"><tspan class="TextParagraph" font-family="Liberation Sans, sans-serif" font-size="318px" font-weight="400"><tspan class="TextPosition" x="8928" y="7368"><tspan fill="rgb(0,0,0)" stroke="none" style="white-space: pre">Paramount</tspan></tspan></tspan></text>
        </g>
       </g>
       <g class="TextShape">
        <g id="id28">
         <rect class="BoundingBox" stroke="none" fill="none" x="5679" y="6954" width="1502" height="1044"/>
         <path fill="rgb(230,230,255)" stroke="none" d="M 6430,7996 L 5680,7996 5680,6955 7179,6955 7179,7996 6430,7996 Z"/>
         <path fill="none" stroke="rgb(0,0,0)" d="M 6430,7996 L 5680,7996 5680,6955 7179,6955 7179,7996 6430,7996 Z"/>
         <text class="SVGTextShape"><tspan class="TextParagraph" font-family="Liberation Sans, sans-serif" font-size="423px" font-weight="400"><tspan class="TextPosition" x="5956" y="7465"><tspan fill="rgb(0,0,0)" stroke="none" style="white-space: pre">1998</tspan></tspan></tspan></text>
        </g>
       </g>
      </g>
     </g>
    </g>
   </g>
  </g>
 </g>
</svg>