<?xml version="1.0" encoding="UTF-8"?>
<!DOCTYPE svg PUBLIC "-//W3C//DTD SVG 1.1//EN" "http://www.w3.org/Graphics/SVG/1.1/DTD/svg11.dtd">
<svg version="1.2" width="287.02mm" height="86.36mm" viewBox="0 0 28702 8636" preserveAspectRatio="xMidYMid" fill-rule="evenodd" stroke-width="28.222" stroke-linejoin="round" xmlns="http://www.w3.org/2000/svg" xmlns:ooo="http://xml.openoffice.org/svg/export" xmlns:xlink="http://www.w3.org/1999/xlink" xmlns:presentation="http://sun.com/xmlns/staroffice/presentation" xmlns:smil="http://www.w3.org/2001/SMIL20/" xmlns:anim="urn:oasis:names:tc:opendocument:xmlns:animation:1.0" xml:space="preserve">
 <defs class="ClipPathGroup">
  <clipPath id="presentation_clip_path" clipPathUnits="userSpaceOnUse">
   <rect x="0" y="0" width="28702" height="8636"/>
  </clipPath>
  <clipPath id="presentation_clip_path_shrink" clipPathUnits="userSpaceOnUse">
   <rect x="28" y="8" width="28645" height="8619"/>
  </clipPath>
 </defs>
 <defs>
  <font id="EmbeddedFont_1" horiz-adv-x="2048">
   <font-face font-family="Liberation Sans embedded" units-per-em="2048" font-weight="normal" font-style="normal" ascent="1852" descent="423"/>
   <missing-glyph horiz-adv-x="2048" d="M 0,0 L 2047,0 2047,2047 0,2047 0,0 Z"/>
   <glyph unicode="ø" horiz-adv-x="1192" d="M 1112,542 C 1112,353 1070,212 987,119 904,26 783,-20 624,-20 494,-20 390,13 311,78 L 211,-38 44,-38 228,176 C 173,268 145,390 145,542 145,915 307,1102 630,1102 764,1102 869,1072 946,1011 L 1037,1116 1204,1116 1031,915 C 1085,826 1112,702 1112,542 Z M 923,542 C 923,628 915,702 900,763 L 417,201 C 462,142 531,113 622,113 730,113 807,148 854,217 900,286 923,395 923,542 Z M 334,542 C 334,455 342,384 358,327 L 840,888 C 795,942 726,969 633,969 528,969 452,935 405,866 358,797 334,689 334,542 Z"/>
   <glyph unicode="Å" horiz-adv-x="1377" d="M 1167,0 L 1006,412 364,412 202,0 4,0 579,1409 796,1409 1362,0 1167,0 Z M 685,1265 L 676,1237 C 659,1182 635,1111 602,1024 L 422,561 949,561 768,1026 C 749,1072 731,1124 712,1182 L 685,1265 Z M 928,1546 C 928,1479 904,1422 857,1375 810,1328 753,1304 686,1304 619,1304 562,1328 515,1375 468,1422 444,1479 444,1546 444,1613 468,1670 515,1717 562,1764 619,1787 686,1787 752,1787 809,1764 857,1717 904,1670 928,1613 928,1546 Z M 820,1546 C 820,1583 807,1615 781,1641 755,1667 723,1680 686,1680 648,1680 616,1667 590,1641 564,1615 551,1583 551,1546 551,1509 564,1477 589,1450 614,1423 647,1409 686,1409 725,1409 757,1423 782,1450 807,1477 820,1509 820,1546 Z"/>
   <glyph unicode="z" horiz-adv-x="848" d="M 83,0 L 83,137 688,943 117,943 117,1082 901,1082 901,945 295,139 922,139 922,0 83,0 Z"/>
   <glyph unicode="y" horiz-adv-x="1033" d="M 191,-425 C 142,-425 100,-421 67,-414 L 67,-279 C 92,-283 120,-285 151,-285 263,-285 352,-203 417,-38 L 434,5 5,1082 197,1082 425,484 C 428,475 432,464 437,451 442,438 457,394 482,320 507,246 521,205 523,196 L 593,393 830,1082 1020,1082 604,0 C 559,-115 518,-201 479,-258 440,-314 398,-356 351,-384 304,-411 250,-425 191,-425 Z"/>
   <glyph unicode="v" horiz-adv-x="1033" d="M 613,0 L 400,0 7,1082 199,1082 437,378 C 446,351 469,272 506,141 L 541,258 580,376 826,1082 1017,1082 613,0 Z"/>
   <glyph unicode="u" horiz-adv-x="874" d="M 314,1082 L 314,396 C 314,325 321,269 335,230 349,191 371,162 402,145 433,128 478,119 537,119 624,119 692,149 742,208 792,267 817,350 817,455 L 817,1082 997,1082 997,231 C 997,105 999,28 1003,0 L 833,0 C 832,3 832,12 831,27 830,42 830,59 829,78 828,97 826,132 825,185 L 822,185 C 781,110 733,58 679,27 624,-4 557,-20 476,-20 357,-20 271,10 216,69 161,128 133,225 133,361 L 133,1082 314,1082 Z"/>
   <glyph unicode="t" horiz-adv-x="531" d="M 554,8 C 495,-8 434,-16 372,-16 228,-16 156,66 156,229 L 156,951 31,951 31,1082 163,1082 216,1324 336,1324 336,1082 536,1082 536,951 336,951 336,268 C 336,216 345,180 362,159 379,138 408,127 450,127 474,127 509,132 554,141 L 554,8 Z"/>
   <glyph unicode="s" horiz-adv-x="901" d="M 950,299 C 950,197 912,118 835,63 758,8 650,-20 511,-20 376,-20 273,2 200,47 127,91 79,160 57,254 L 216,285 C 231,227 263,185 311,158 359,131 426,117 511,117 602,117 669,131 712,159 754,187 775,229 775,285 775,328 760,362 731,389 702,416 654,438 589,455 L 460,489 C 357,516 283,542 240,568 196,593 162,624 137,661 112,698 100,743 100,796 100,895 135,970 206,1022 276,1073 378,1099 513,1099 632,1099 727,1078 798,1036 868,994 912,927 931,834 L 769,814 C 759,862 732,899 689,925 645,950 586,963 513,963 432,963 372,951 333,926 294,901 275,864 275,814 275,783 283,758 299,738 315,718 339,701 370,687 401,673 467,654 568,629 663,605 732,583 774,563 816,542 849,520 874,495 898,470 917,442 930,410 943,377 950,340 950,299 Z"/>
   <glyph unicode="r" horiz-adv-x="530" d="M 142,0 L 142,830 C 142,906 140,990 136,1082 L 306,1082 C 311,959 314,886 314,861 L 318,861 C 347,954 380,1017 417,1051 454,1085 507,1102 575,1102 599,1102 623,1099 648,1092 L 648,927 C 624,934 592,937 552,937 477,937 420,905 381,841 342,776 322,684 322,564 L 322,0 142,0 Z"/>
   <glyph unicode="o" horiz-adv-x="980" d="M 1053,542 C 1053,353 1011,212 928,119 845,26 724,-20 565,-20 407,-20 288,28 207,125 126,221 86,360 86,542 86,915 248,1102 571,1102 736,1102 858,1057 936,966 1014,875 1053,733 1053,542 Z M 864,542 C 864,691 842,800 798,868 753,935 679,969 574,969 469,969 393,935 346,866 299,797 275,689 275,542 275,399 298,292 345,221 391,149 464,113 563,113 671,113 748,148 795,217 841,286 864,395 864,542 Z"/>
   <glyph unicode="n" horiz-adv-x="874" d="M 825,0 L 825,686 C 825,757 818,813 804,852 790,891 768,920 737,937 706,954 661,963 602,963 515,963 447,933 397,874 347,815 322,732 322,627 L 322,0 142,0 142,851 C 142,977 140,1054 136,1082 L 306,1082 C 307,1079 307,1070 308,1055 309,1040 310,1024 311,1005 312,986 313,950 314,897 L 317,897 C 358,972 406,1025 461,1056 515,1087 582,1102 663,1102 782,1102 869,1073 924,1014 979,955 1006,857 1006,721 L 1006,0 825,0 Z"/>
   <glyph unicode="m" horiz-adv-x="1457" d="M 768,0 L 768,686 C 768,791 754,863 725,903 696,943 645,963 570,963 493,963 433,934 388,875 343,816 321,734 321,627 L 321,0 142,0 142,851 C 142,977 140,1054 136,1082 L 306,1082 C 307,1079 307,1070 308,1055 309,1040 310,1024 311,1005 312,986 313,950 314,897 L 317,897 C 356,974 400,1027 450,1057 500,1087 561,1102 633,1102 715,1102 780,1086 828,1053 875,1020 908,968 927,897 L 930,897 C 967,970 1013,1022 1066,1054 1119,1086 1183,1102 1258,1102 1367,1102 1447,1072 1497,1013 1546,954 1571,856 1571,721 L 1571,0 1393,0 1393,686 C 1393,791 1379,863 1350,903 1321,943 1270,963 1195,963 1116,963 1055,934 1012,876 968,817 946,734 946,627 L 946,0 768,0 Z"/>
   <glyph unicode="l" horiz-adv-x="187" d="M 138,0 L 138,1484 318,1484 318,0 138,0 Z"/>
   <glyph unicode="k" horiz-adv-x="901" d="M 816,0 L 450,494 318,385 318,0 138,0 138,1484 318,1484 318,557 793,1082 1004,1082 565,617 1027,0 816,0 Z"/>
   <glyph unicode="i" horiz-adv-x="187" d="M 137,1312 L 137,1484 317,1484 317,1312 137,1312 Z M 137,0 L 137,1082 317,1082 317,0 137,0 Z"/>
   <glyph unicode="h" horiz-adv-x="874" d="M 317,897 C 356,968 402,1020 457,1053 511,1086 580,1102 663,1102 780,1102 867,1073 923,1015 978,956 1006,858 1006,721 L 1006,0 825,0 825,686 C 825,762 818,819 804,856 790,893 767,920 735,937 703,954 659,963 602,963 517,963 450,934 399,875 348,816 322,737 322,638 L 322,0 142,0 142,1484 322,1484 322,1098 C 322,1057 321,1015 319,972 316,929 315,904 314,897 L 317,897 Z"/>
   <glyph unicode="g" horiz-adv-x="927" d="M 548,-425 C 430,-425 336,-402 266,-356 196,-309 151,-243 131,-158 L 312,-132 C 324,-182 351,-220 392,-248 433,-274 486,-288 553,-288 732,-288 822,-183 822,27 L 822,201 820,201 C 786,132 739,80 680,45 621,10 551,-8 472,-8 339,-8 242,36 180,124 117,212 86,350 86,539 86,730 120,872 187,963 254,1054 355,1099 492,1099 569,1099 635,1082 692,1047 748,1012 791,962 822,897 L 824,897 C 824,917 825,952 828,1001 831,1050 833,1077 836,1082 L 1007,1082 C 1003,1046 1001,971 1001,858 L 1001,31 C 1001,-273 850,-425 548,-425 Z M 822,541 C 822,629 810,705 786,769 762,832 728,881 685,915 641,948 591,965 536,965 444,965 377,932 335,865 293,798 272,690 272,541 272,393 292,287 331,222 370,157 438,125 533,125 590,125 640,142 684,175 728,208 762,256 786,319 810,381 822,455 822,541 Z"/>
   <glyph unicode="f" horiz-adv-x="557" d="M 361,951 L 361,0 181,0 181,951 29,951 29,1082 181,1082 181,1204 C 181,1303 203,1374 246,1417 289,1460 356,1482 445,1482 495,1482 537,1478 572,1470 L 572,1333 C 542,1338 515,1341 492,1341 446,1341 413,1329 392,1306 371,1283 361,1240 361,1179 L 361,1082 572,1082 572,951 361,951 Z"/>
   <glyph unicode="e" horiz-adv-x="980" d="M 276,503 C 276,379 302,283 353,216 404,149 479,115 578,115 656,115 719,131 766,162 813,193 844,233 861,281 L 1019,236 C 954,65 807,-20 578,-20 418,-20 296,28 213,123 129,218 87,360 87,548 87,727 129,864 213,959 296,1054 416,1102 571,1102 889,1102 1048,910 1048,527 L 1048,503 276,503 Z M 862,641 C 852,755 823,838 775,891 727,943 658,969 568,969 481,969 412,940 361,882 310,823 282,743 278,641 L 862,641 Z"/>
   <glyph unicode="d" horiz-adv-x="927" d="M 821,174 C 788,105 744,55 689,25 634,-5 565,-20 484,-20 347,-20 247,26 183,118 118,210 86,349 86,536 86,913 219,1102 484,1102 566,1102 634,1087 689,1057 744,1027 788,979 821,914 L 823,914 821,1035 821,1484 1001,1484 1001,223 C 1001,110 1003,36 1007,0 L 835,0 C 833,11 831,35 829,74 826,113 825,146 825,174 L 821,174 Z M 275,542 C 275,391 295,282 335,217 375,152 440,119 530,119 632,119 706,154 752,225 798,296 821,405 821,554 821,697 798,802 752,869 706,936 633,969 532,969 441,969 376,936 336,869 295,802 275,693 275,542 Z"/>
   <glyph unicode="c" horiz-adv-x="901" d="M 275,546 C 275,402 298,295 343,226 388,157 457,122 548,122 612,122 666,139 709,174 752,209 778,262 788,334 L 970,322 C 956,218 912,135 837,73 762,11 668,-20 553,-20 402,-20 286,28 207,124 127,219 87,359 87,542 87,724 127,863 207,959 287,1054 402,1102 551,1102 662,1102 754,1073 827,1016 900,959 945,880 964,779 L 779,765 C 770,825 746,873 708,908 670,943 616,961 546,961 451,961 382,929 339,866 296,803 275,696 275,546 Z"/>
   <glyph unicode="b" horiz-adv-x="953" d="M 1053,546 C 1053,169 920,-20 655,-20 573,-20 505,-5 451,25 396,54 352,102 318,168 L 316,168 C 316,147 315,116 312,74 309,31 307,7 306,0 L 132,0 C 136,36 138,110 138,223 L 138,1484 318,1484 318,1061 C 318,1018 317,967 314,908 L 318,908 C 351,977 396,1027 451,1057 506,1087 574,1102 655,1102 792,1102 892,1056 957,964 1021,872 1053,733 1053,546 Z M 864,540 C 864,691 844,800 804,865 764,930 699,963 609,963 508,963 434,928 388,859 341,790 318,680 318,529 318,387 341,282 386,215 431,147 505,113 607,113 698,113 763,147 804,214 844,281 864,389 864,540 Z"/>
   <glyph unicode="a" horiz-adv-x="1060" d="M 414,-20 C 305,-20 224,9 169,66 114,123 87,202 87,302 87,414 124,500 198,560 271,620 390,652 554,656 L 797,660 797,719 C 797,807 778,870 741,908 704,946 645,965 565,965 484,965 426,951 389,924 352,897 330,853 323,793 L 135,810 C 166,1005 310,1102 569,1102 705,1102 807,1071 876,1009 945,946 979,856 979,738 L 979,272 C 979,219 986,179 1000,152 1014,125 1041,111 1080,111 1097,111 1117,113 1139,118 L 1139,6 C 1094,-5 1047,-10 1000,-10 933,-10 885,8 855,43 824,78 807,132 803,207 L 797,207 C 751,124 698,66 637,32 576,-3 501,-20 414,-20 Z M 455,115 C 521,115 580,130 631,160 682,190 723,231 753,284 782,336 797,390 797,445 L 797,534 600,530 C 515,529 451,520 408,504 364,488 330,463 307,430 284,397 272,353 272,299 272,240 288,195 320,163 351,131 396,115 455,115 Z"/>
   <glyph unicode="U" horiz-adv-x="1192" d="M 731,-20 C 616,-20 515,1 429,43 343,85 276,146 229,226 182,306 158,401 158,512 L 158,1409 349,1409 349,528 C 349,399 382,302 447,235 512,168 607,135 730,135 857,135 955,170 1026,239 1096,308 1131,408 1131,541 L 1131,1409 1321,1409 1321,530 C 1321,416 1297,318 1249,235 1200,152 1132,89 1044,46 955,2 851,-20 731,-20 Z"/>
   <glyph unicode="T" horiz-adv-x="1192" d="M 720,1253 L 720,0 530,0 530,1253 46,1253 46,1409 1204,1409 1204,1253 720,1253 Z"/>
   <glyph unicode="S" horiz-adv-x="1192" d="M 1272,389 C 1272,259 1221,158 1120,87 1018,16 875,-20 690,-20 347,-20 148,99 93,338 L 278,375 C 299,290 345,228 414,189 483,149 578,129 697,129 820,129 916,150 983,193 1050,235 1083,297 1083,379 1083,425 1073,462 1052,491 1031,520 1001,543 963,562 925,581 880,596 827,609 774,622 716,635 652,650 541,675 456,699 399,724 341,749 295,776 262,807 229,837 203,872 186,913 168,954 159,1000 159,1053 159,1174 205,1267 298,1332 390,1397 522,1430 694,1430 854,1430 976,1406 1061,1357 1146,1308 1205,1224 1239,1106 L 1051,1073 C 1030,1148 991,1202 933,1236 875,1269 795,1286 692,1286 579,1286 493,1267 434,1230 375,1193 345,1137 345,1063 345,1020 357,984 380,956 403,927 436,903 479,884 522,864 609,840 738,811 781,801 825,791 868,781 911,770 952,758 991,744 1030,729 1067,712 1102,693 1136,674 1166,650 1191,622 1216,594 1236,561 1251,523 1265,485 1272,440 1272,389 Z"/>
   <glyph unicode="R" horiz-adv-x="1244" d="M 1164,0 L 798,585 359,585 359,0 168,0 168,1409 831,1409 C 990,1409 1112,1374 1199,1303 1285,1232 1328,1133 1328,1006 1328,901 1298,813 1237,742 1176,671 1091,626 984,607 L 1384,0 1164,0 Z M 1136,1004 C 1136,1086 1108,1149 1053,1192 997,1235 917,1256 812,1256 L 359,1256 359,736 820,736 C 921,736 999,760 1054,807 1109,854 1136,919 1136,1004 Z"/>
   <glyph unicode="P" horiz-adv-x="1112" d="M 1258,985 C 1258,852 1215,746 1128,667 1041,588 922,549 773,549 L 359,549 359,0 168,0 168,1409 761,1409 C 919,1409 1041,1372 1128,1298 1215,1224 1258,1120 1258,985 Z M 1066,983 C 1066,1165 957,1256 738,1256 L 359,1256 359,700 746,700 C 959,700 1066,794 1066,983 Z"/>
   <glyph unicode="O" horiz-adv-x="1430" d="M 1495,711 C 1495,564 1467,435 1411,324 1354,213 1273,128 1168,69 1063,10 938,-20 795,-20 650,-20 526,9 421,68 316,127 235,212 180,323 125,434 97,563 97,711 97,936 159,1113 282,1240 405,1367 577,1430 797,1430 940,1430 1065,1402 1170,1345 1275,1288 1356,1205 1412,1096 1467,987 1495,859 1495,711 Z M 1300,711 C 1300,886 1256,1024 1169,1124 1081,1224 957,1274 797,1274 636,1274 511,1225 423,1126 335,1027 291,889 291,711 291,534 336,394 425,291 514,187 637,135 795,135 958,135 1083,185 1170,286 1257,386 1300,528 1300,711 Z"/>
   <glyph unicode="M" horiz-adv-x="1377" d="M 1366,0 L 1366,940 C 1366,1044 1369,1144 1375,1240 1342,1121 1313,1027 1287,960 L 923,0 789,0 420,960 364,1130 331,1240 334,1129 338,940 338,0 168,0 168,1409 419,1409 794,432 C 807,393 820,351 833,306 845,261 853,228 857,208 862,235 874,275 891,330 908,384 919,418 925,432 L 1293,1409 1538,1409 1538,0 1366,0 Z"/>
   <glyph unicode="L" horiz-adv-x="927" d="M 168,0 L 168,1409 359,1409 359,156 1071,156 1071,0 168,0 Z"/>
   <glyph unicode="K" horiz-adv-x="1191" d="M 1106,0 L 543,680 359,540 359,0 168,0 168,1409 359,1409 359,703 1038,1409 1263,1409 663,797 1343,0 1106,0 Z"/>
   <glyph unicode="I" horiz-adv-x="213" d="M 189,0 L 189,1409 380,1409 380,0 189,0 Z"/>
   <glyph unicode="H" horiz-adv-x="1165" d="M 1121,0 L 1121,653 359,653 359,0 168,0 168,1409 359,1409 359,813 1121,813 1121,1409 1312,1409 1312,0 1121,0 Z"/>
   <glyph unicode="G" horiz-adv-x="1377" d="M 103,711 C 103,940 164,1117 287,1242 410,1367 582,1430 804,1430 960,1430 1087,1404 1184,1351 1281,1298 1356,1214 1409,1098 L 1227,1044 C 1187,1124 1132,1182 1062,1219 991,1256 904,1274 799,1274 636,1274 512,1225 426,1127 340,1028 297,890 297,711 297,533 343,393 434,290 525,187 652,135 813,135 905,135 991,149 1071,177 1150,205 1215,243 1264,291 L 1264,545 843,545 843,705 1440,705 1440,219 C 1365,143 1274,84 1166,43 1057,1 940,-20 813,-20 666,-20 539,9 432,68 325,127 244,211 188,322 131,432 103,562 103,711 Z"/>
   <glyph unicode="F" horiz-adv-x="1006" d="M 359,1253 L 359,729 1145,729 1145,571 359,571 359,0 168,0 168,1409 1169,1409 1169,1253 359,1253 Z"/>
   <glyph unicode="E" horiz-adv-x="1138" d="M 168,0 L 168,1409 1237,1409 1237,1253 359,1253 359,801 1177,801 1177,647 359,647 359,156 1278,156 1278,0 168,0 Z"/>
   <glyph unicode="D" horiz-adv-x="1218" d="M 1381,719 C 1381,574 1353,447 1296,338 1239,229 1159,145 1055,87 951,29 831,0 695,0 L 168,0 168,1409 634,1409 C 873,1409 1057,1349 1187,1230 1316,1110 1381,940 1381,719 Z M 1189,719 C 1189,894 1141,1027 1046,1119 950,1210 811,1256 630,1256 L 359,1256 359,153 673,153 C 776,153 867,176 946,221 1024,266 1084,332 1126,417 1168,502 1189,603 1189,719 Z"/>
   <glyph unicode="C" horiz-adv-x="1324" d="M 792,1274 C 636,1274 515,1224 428,1124 341,1023 298,886 298,711 298,538 343,400 434,295 524,190 646,137 800,137 997,137 1146,235 1245,430 L 1401,352 C 1343,231 1262,138 1157,75 1052,12 930,-20 791,-20 649,-20 526,10 423,69 319,128 240,212 186,322 131,431 104,561 104,711 104,936 165,1112 286,1239 407,1366 575,1430 790,1430 940,1430 1065,1401 1166,1342 1267,1283 1341,1196 1388,1081 L 1207,1021 C 1174,1103 1122,1166 1050,1209 977,1252 891,1274 792,1274 Z"/>
   <glyph unicode="B" horiz-adv-x="1112" d="M 1258,397 C 1258,272 1212,174 1121,105 1030,35 903,0 740,0 L 168,0 168,1409 680,1409 C 1011,1409 1176,1295 1176,1067 1176,984 1153,914 1106,857 1059,800 993,762 908,743 1020,730 1106,692 1167,631 1228,569 1258,491 1258,397 Z M 984,1044 C 984,1120 958,1174 906,1207 854,1240 779,1256 680,1256 L 359,1256 359,810 680,810 C 782,810 858,829 909,868 959,906 984,965 984,1044 Z M 1065,412 C 1065,578 948,661 715,661 L 359,661 359,153 730,153 C 847,153 932,175 985,218 1038,261 1065,326 1065,412 Z"/>
   <glyph unicode="A" horiz-adv-x="1377" d="M 1167,0 L 1006,412 364,412 202,0 4,0 579,1409 796,1409 1362,0 1167,0 Z M 685,1265 L 676,1237 C 659,1182 635,1111 602,1024 L 422,561 949,561 768,1026 C 749,1072 731,1124 712,1182 L 685,1265 Z"/>
   <glyph unicode="9" horiz-adv-x="980" d="M 1042,733 C 1042,491 998,305 910,175 821,45 695,-20 532,-20 422,-20 334,3 268,50 201,96 154,171 125,274 L 297,301 C 333,184 412,125 535,125 638,125 718,173 775,269 832,365 861,502 864,680 837,620 792,572 727,536 662,499 591,481 514,481 387,481 286,524 210,611 134,698 96,813 96,956 96,1103 137,1219 220,1304 303,1388 418,1430 565,1430 722,1430 840,1372 921,1256 1002,1140 1042,966 1042,733 Z M 846,907 C 846,1020 820,1112 768,1181 716,1250 646,1284 559,1284 472,1284 404,1255 354,1196 304,1137 279,1057 279,956 279,853 304,772 354,713 404,653 472,623 557,623 609,623 657,635 702,659 747,682 782,716 808,759 833,802 846,852 846,907 Z"/>
   <glyph unicode="8" horiz-adv-x="980" d="M 1050,393 C 1050,263 1009,162 926,89 843,16 725,-20 570,-20 419,-20 302,16 217,87 132,158 89,260 89,391 89,483 115,560 168,623 221,686 288,724 370,737 L 370,741 C 293,759 233,798 189,858 144,918 122,988 122,1069 122,1176 162,1263 243,1330 323,1397 431,1430 566,1430 705,1430 814,1397 895,1332 975,1267 1015,1178 1015,1067 1015,986 993,916 948,856 903,796 842,758 765,743 L 765,739 C 855,724 925,686 975,625 1025,563 1050,486 1050,393 Z M 828,1057 C 828,1216 741,1296 566,1296 481,1296 417,1276 373,1236 328,1196 306,1136 306,1057 306,976 329,915 375,873 420,830 485,809 568,809 653,809 717,829 762,868 806,907 828,970 828,1057 Z M 863,410 C 863,497 837,563 785,608 733,652 660,674 566,674 475,674 403,650 352,603 301,555 275,489 275,406 275,212 374,115 572,115 670,115 743,139 791,186 839,233 863,307 863,410 Z"/>
   <glyph unicode="7" horiz-adv-x="954" d="M 1036,1263 C 892,1043 790,871 731,746 672,621 627,498 598,377 568,256 553,130 553,0 L 365,0 C 365,180 403,370 480,569 556,768 683,997 862,1256 L 105,1256 105,1409 1036,1409 1036,1263 Z"/>
   <glyph unicode="6" horiz-adv-x="980" d="M 1049,461 C 1049,312 1009,195 928,109 847,23 736,-20 594,-20 435,-20 314,39 230,157 146,275 104,447 104,672 104,916 148,1103 235,1234 322,1365 447,1430 608,1430 821,1430 955,1334 1010,1143 L 838,1112 C 803,1227 725,1284 606,1284 503,1284 424,1236 368,1141 311,1045 283,906 283,725 316,786 362,832 421,864 480,895 548,911 625,911 755,911 858,870 935,789 1011,708 1049,598 1049,461 Z M 866,453 C 866,555 841,634 791,689 741,744 671,772 582,772 498,772 430,748 379,699 327,650 301,582 301,496 301,387 328,298 382,229 435,160 504,125 588,125 675,125 743,154 792,213 841,271 866,351 866,453 Z"/>
   <glyph unicode="5" horiz-adv-x="980" d="M 1053,459 C 1053,310 1009,193 921,108 832,23 710,-20 553,-20 422,-20 316,9 235,66 154,123 103,206 82,315 L 264,336 C 302,197 400,127 557,127 654,127 729,156 784,215 839,273 866,353 866,455 866,544 839,615 784,670 729,725 654,752 561,752 512,752 467,744 425,729 383,714 341,688 299,651 L 123,651 170,1409 971,1409 971,1256 334,1256 307,809 C 385,869 482,899 598,899 737,899 847,858 930,777 1012,696 1053,590 1053,459 Z"/>
   <glyph unicode="4" horiz-adv-x="1060" d="M 881,319 L 881,0 711,0 711,319 47,319 47,459 692,1409 881,1409 881,461 1079,461 1079,319 881,319 Z M 711,1206 C 710,1202 700,1184 683,1153 666,1122 653,1100 644,1087 L 283,555 229,481 213,461 711,461 711,1206 Z"/>
   <glyph unicode="3" horiz-adv-x="1006" d="M 1049,389 C 1049,259 1008,158 925,87 842,16 724,-20 571,-20 428,-20 315,12 230,77 145,141 94,236 78,362 L 264,379 C 288,212 390,129 571,129 662,129 733,151 785,196 836,241 862,307 862,395 862,472 833,532 774,575 715,618 629,639 518,639 L 416,639 416,795 514,795 C 613,795 689,817 744,860 798,903 825,962 825,1038 825,1113 803,1173 759,1217 714,1260 648,1282 561,1282 482,1282 418,1262 369,1221 320,1180 291,1123 283,1049 L 102,1063 C 115,1178 163,1268 246,1333 328,1398 434,1430 563,1430 704,1430 814,1397 893,1332 971,1266 1010,1174 1010,1057 1010,967 985,894 935,838 884,781 811,743 715,723 L 715,719 C 820,708 902,672 961,613 1020,554 1049,479 1049,389 Z"/>
   <glyph unicode="2" horiz-adv-x="954" d="M 103,0 L 103,127 C 137,205 179,274 228,334 277,393 328,447 382,496 436,544 490,589 543,630 596,671 643,713 686,754 729,795 763,839 790,884 816,929 829,981 829,1038 829,1115 806,1175 761,1218 716,1261 653,1282 572,1282 495,1282 432,1261 383,1220 333,1178 304,1119 295,1044 L 111,1061 C 124,1174 172,1263 255,1330 337,1397 443,1430 572,1430 714,1430 823,1397 900,1330 976,1263 1014,1167 1014,1044 1014,989 1002,935 977,881 952,827 914,773 865,719 816,665 721,581 582,468 505,405 444,349 399,299 354,248 321,200 301,153 L 1036,153 1036,0 103,0 Z"/>
   <glyph unicode="1" horiz-adv-x="927" d="M 156,0 L 156,153 515,153 515,1237 197,1010 197,1180 530,1409 696,1409 696,153 1039,153 1039,0 156,0 Z"/>
   <glyph unicode="0" horiz-adv-x="980" d="M 1059,705 C 1059,470 1018,290 935,166 852,42 729,-20 567,-20 405,-20 283,42 202,165 121,288 80,468 80,705 80,947 120,1128 199,1249 278,1370 402,1430 573,1430 739,1430 862,1369 941,1247 1020,1125 1059,944 1059,705 Z M 876,705 C 876,908 853,1056 806,1147 759,1238 681,1284 573,1284 462,1284 383,1239 335,1149 286,1059 262,911 262,705 262,505 287,359 336,266 385,173 462,127 569,127 675,127 753,174 802,269 851,364 876,509 876,705 Z"/>
   <glyph unicode="," horiz-adv-x="239" d="M 385,219 L 385,51 C 385,-20 379,-79 366,-126 353,-173 334,-219 307,-262 L 184,-262 C 247,-171 278,-84 278,0 L 190,0 190,219 385,219 Z"/>
   <glyph unicode=" " horiz-adv-x="556"/>
  </font>
 </defs>
 <defs class="TextShapeIndex">
  <g ooo:slide="id1" ooo:id-list="id3 id4 id5 id6 id7 id8 id9 id10 id11 id12 id13 id14 id15 id16 id17 id18 id19 id20 id21 id22 id23 id24 id25 id26 id27 id28 id29 id30 id31 id32 id33 id34 id35 id36 id37 id38 id39 id40 id41 id42 id43 id44 id45 id46 id47 id48 id49 id50 id51 id52 id53 id54 id55 id56 id57 id58 id59 id60"/>
 </defs>
 <defs class="EmbeddedBulletChars">
  <g id="bullet-char-template-57356" transform="scale(0.00048828125,-0.00048828125)">
   <path d="M 580,1141 L 1163,571 580,0 -4,571 580,1141 Z"/>
  </g>
  <g id="bullet-char-template-57354" transform="scale(0.00048828125,-0.00048828125)">
   <path d="M 8,1128 L 1137,1128 1137,0 8,0 8,1128 Z"/>
  </g>
  <g id="bullet-char-template-10146" transform="scale(0.00048828125,-0.00048828125)">
   <path d="M 174,0 L 602,739 174,1481 1456,739 174,0 Z M 1358,739 L 309,1346 659,739 1358,739 Z"/>
  </g>
  <g id="bullet-char-template-10132" transform="scale(0.00048828125,-0.00048828125)">
   <path d="M 2015,739 L 1276,0 717,0 1260,543 174,543 174,936 1260,936 717,1481 1274,1481 2015,739 Z"/>
  </g>
  <g id="bullet-char-template-10007" transform="scale(0.00048828125,-0.00048828125)">
   <path d="M 0,-2 C -7,14 -16,27 -25,37 L 356,567 C 262,823 215,952 215,954 215,979 228,992 255,992 264,992 276,990 289,987 310,991 331,999 354,1012 L 381,999 492,748 772,1049 836,1024 860,1049 C 881,1039 901,1025 922,1006 886,937 835,863 770,784 769,783 710,716 594,584 L 774,223 C 774,196 753,168 711,139 L 727,119 C 717,90 699,76 672,76 641,76 570,178 457,381 L 164,-76 C 142,-110 111,-127 72,-127 30,-127 9,-110 8,-76 1,-67 -2,-52 -2,-32 -2,-23 -1,-13 0,-2 Z"/>
  </g>
  <g id="bullet-char-template-10004" transform="scale(0.00048828125,-0.00048828125)">
   <path d="M 285,-33 C 182,-33 111,30 74,156 52,228 41,333 41,471 41,549 55,616 82,672 116,743 169,778 240,778 293,778 328,747 346,684 L 369,508 C 377,444 397,411 428,410 L 1163,1116 C 1174,1127 1196,1133 1229,1133 1271,1133 1292,1118 1292,1087 L 1292,965 C 1292,929 1282,901 1262,881 L 442,47 C 390,-6 338,-33 285,-33 Z"/>
  </g>
  <g id="bullet-char-template-9679" transform="scale(0.00048828125,-0.00048828125)">
   <path d="M 813,0 C 632,0 489,54 383,161 276,268 223,411 223,592 223,773 276,916 383,1023 489,1130 632,1184 813,1184 992,1184 1136,1130 1245,1023 1353,916 1407,772 1407,592 1407,412 1353,268 1245,161 1136,54 992,0 813,0 Z"/>
  </g>
  <g id="bullet-char-template-8226" transform="scale(0.00048828125,-0.00048828125)">
   <path d="M 346,457 C 273,457 209,483 155,535 101,586 74,649 74,723 74,796 101,859 155,911 209,963 273,989 346,989 419,989 480,963 531,910 582,859 608,796 608,723 608,648 583,586 532,535 482,483 420,457 346,457 Z"/>
  </g>
  <g id="bullet-char-template-8211" transform="scale(0.00048828125,-0.00048828125)">
   <path d="M -4,459 L 1135,459 1135,606 -4,606 -4,459 Z"/>
  </g>
  <g id="bullet-char-template-61548" transform="scale(0.00048828125,-0.00048828125)">
   <path d="M 173,740 C 173,903 231,1043 346,1159 462,1274 601,1332 765,1332 928,1332 1067,1274 1183,1159 1299,1043 1357,903 1357,740 1357,577 1299,437 1183,322 1067,206 928,148 765,148 601,148 462,206 346,322 231,437 173,577 173,740 Z"/>
  </g>
 </defs>
 <g>
  <g id="id2" class="Master_Slide">
   <g id="bg-id2" class="Background"/>
   <g id="bo-id2" class="BackgroundObjects"/>
  </g>
 </g>
 <g class="SlideGroup">
  <g>
   <g id="container-id1">
    <g id="id1" class="Slide" clip-path="url(#presentation_clip_path)">
     <g class="Page">
      <g class="Group">
       <g class="Group">
        <g class="TextShape">
         <g id="id3">
          <rect class="BoundingBox" stroke="none" fill="none" x="1104" y="3817" width="1360" height="1003"/>
          <path fill="rgb(230,230,255)" stroke="none" d="M 1784,4818 L 1105,4818 1105,3818 2462,3818 2462,4818 1784,4818 Z"/>
          <path fill="none" stroke="rgb(0,0,0)" d="M 1784,4818 L 1105,4818 1105,3818 2462,3818 2462,4818 1784,4818 Z"/>
          <text class="SVGTextShape"><tspan class="TextParagraph" font-family="Liberation Sans, sans-serif" font-size="564px" font-weight="400"><tspan class="TextPosition" x="1627" y="4451"><tspan fill="rgb(0,0,0)" stroke="none" style="white-space: pre">2</tspan></tspan></tspan></text>
         </g>
        </g>
        <g class="TextShape">
         <g id="id4">
          <rect class="BoundingBox" stroke="none" fill="none" x="5014" y="3817" width="2918" height="1003"/>
          <path fill="rgb(230,230,255)" stroke="none" d="M 6473,4818 L 5015,4818 5015,3818 7930,3818 7930,4818 6473,4818 Z"/>
          <path fill="none" stroke="rgb(0,0,0)" d="M 6473,4818 L 5015,4818 5015,3818 7930,3818 7930,4818 6473,4818 Z"/>
          <text class="SVGTextShape"><tspan class="TextParagraph" font-family="Liberation Sans, sans-serif" font-size="564px" font-weight="400"><tspan class="TextPosition" x="5501" y="4451"><tspan fill="rgb(0,0,0)" stroke="none" style="white-space: pre">Hansen</tspan></tspan></tspan></text>
         </g>
        </g>
        <g class="TextShape">
         <g id="id5">
          <rect class="BoundingBox" stroke="none" fill="none" x="2399" y="3817" width="2617" height="1003"/>
          <path fill="rgb(230,230,255)" stroke="none" d="M 3707,4818 L 2400,4818 2400,3818 5014,3818 5014,4818 3707,4818 Z"/>
          <path fill="none" stroke="rgb(0,0,0)" d="M 3707,4818 L 2400,4818 2400,3818 5014,3818 5014,4818 3707,4818 Z"/>
          <text class="SVGTextShape"><tspan class="TextParagraph" font-family="Liberation Sans, sans-serif" font-size="564px" font-weight="400"><tspan class="TextPosition" x="2689" y="4451"><tspan fill="rgb(0,0,0)" stroke="none" style="white-space: pre">Thomas</tspan></tspan></tspan></text>
         </g>
        </g>
        <g class="TextShape">
         <g id="id6">
          <rect class="BoundingBox" stroke="none" fill="none" x="7875" y="3817" width="4658" height="1003"/>
          <path fill="rgb(230,230,255)" stroke="none" d="M 10204,4818 L 7876,4818 7876,3818 12531,3818 12531,4818 10204,4818 Z"/>
          <path fill="none" stroke="rgb(0,0,0)" d="M 10204,4818 L 7876,4818 7876,3818 12531,3818 12531,4818 10204,4818 Z"/>
          <text class="SVGTextShape"><tspan class="TextParagraph" font-family="Liberation Sans, sans-serif" font-size="564px" font-weight="400"><tspan class="TextPosition" x="8870" y="4451"><tspan fill="rgb(0,0,0)" stroke="none" style="white-space: pre">Bakken 8b</tspan></tspan></tspan></text>
         </g>
        </g>
        <g class="TextShape">
         <g id="id7">
          <rect class="BoundingBox" stroke="none" fill="none" x="12343" y="3817" width="2433" height="1003"/>
          <path fill="rgb(230,230,255)" stroke="none" d="M 13559,4818 L 12344,4818 12344,3818 14774,3818 14774,4818 13559,4818 Z"/>
          <path fill="none" stroke="rgb(0,0,0)" d="M 13559,4818 L 12344,4818 12344,3818 14774,3818 14774,4818 13559,4818 Z"/>
          <text class="SVGTextShape"><tspan class="TextParagraph" font-family="Liberation Sans, sans-serif" font-size="564px" font-weight="400"><tspan class="TextPosition" x="12933" y="4451"><tspan fill="rgb(0,0,0)" stroke="none" style="white-space: pre">1406</tspan></tspan></tspan></text>
         </g>
        </g>
        <g class="TextShape">
         <g id="id8">
          <rect class="BoundingBox" stroke="none" fill="none" x="14587" y="3817" width="2450" height="1003"/>
          <path fill="rgb(230,230,255)" stroke="none" d="M 15812,4818 L 14588,4818 14588,3818 17035,3818 17035,4818 15812,4818 Z"/>
          <path fill="none" stroke="rgb(0,0,0)" d="M 15812,4818 L 14588,4818 14588,3818 17035,3818 17035,4818 15812,4818 Z"/>
          <text class="SVGTextShape"><tspan class="TextParagraph" font-family="Liberation Sans, sans-serif" font-size="564px" font-weight="400"><tspan class="TextPosition" x="15418" y="4451"><tspan fill="rgb(0,0,0)" stroke="none" style="white-space: pre">Ski</tspan></tspan></tspan></text>
         </g>
        </g>
        <g class="TextShape">
         <g id="id9">
          <rect class="BoundingBox" stroke="none" fill="none" x="17006" y="3817" width="1492" height="1003"/>
          <path fill="rgb(230,230,255)" stroke="none" d="M 17752,4818 L 17007,4818 17007,3818 18496,3818 18496,4818 17752,4818 Z"/>
          <path fill="none" stroke="rgb(0,0,0)" d="M 17752,4818 L 17007,4818 17007,3818 18496,3818 18496,4818 17752,4818 Z"/>
          <text class="SVGTextShape"><tspan class="TextParagraph" font-family="Liberation Sans, sans-serif" font-size="564px" font-weight="400"><tspan class="TextPosition" x="17595" y="4451"><tspan fill="rgb(0,0,0)" stroke="none" style="white-space: pre">3</tspan></tspan></tspan></text>
         </g>
        </g>
        <g class="TextShape">
         <g id="id10">
          <rect class="BoundingBox" stroke="none" fill="none" x="18487" y="3817" width="2903" height="1000"/>
          <path fill="rgb(230,230,255)" stroke="none" d="M 19938,4815 L 18488,4815 18488,3818 21388,3818 21388,4815 19938,4815 Z"/>
          <path fill="none" stroke="rgb(0,0,0)" d="M 19938,4815 L 18488,4815 18488,3818 21388,3818 21388,4815 19938,4815 Z"/>
          <text class="SVGTextShape"><tspan class="TextParagraph" font-family="Liberation Sans, sans-serif" font-size="318px" font-weight="400"><tspan class="TextPosition" x="19619" y="4231"><tspan fill="rgb(0,0,0)" stroke="none" style="white-space: pre">The </tspan></tspan></tspan><tspan class="TextParagraph" font-family="Liberation Sans, sans-serif" font-size="318px" font-weight="400"><tspan class="TextPosition" x="19229" y="4587"><tspan fill="rgb(0,0,0)" stroke="none" style="white-space: pre">Godfather</tspan></tspan></tspan></text>
         </g>
        </g>
        <g class="TextShape">
         <g id="id11">
          <rect class="BoundingBox" stroke="none" fill="none" x="21187" y="3818" width="1403" height="1002"/>
          <path fill="rgb(230,230,255)" stroke="none" d="M 21888,4818 L 21188,4818 21188,3819 22588,3819 22588,4818 21888,4818 Z"/>
          <path fill="none" stroke="rgb(0,0,0)" d="M 21888,4818 L 21188,4818 21188,3819 22588,3819 22588,4818 21888,4818 Z"/>
          <text class="SVGTextShape"><tspan class="TextParagraph" font-family="Liberation Sans, sans-serif" font-size="318px" font-weight="400"><tspan class="TextPosition" x="21533" y="4232"><tspan fill="rgb(0,0,0)" stroke="none" style="white-space: pre">1972</tspan></tspan></tspan></text>
         </g>
        </g>
        <g class="TextShape">
         <g id="id12">
          <rect class="BoundingBox" stroke="none" fill="none" x="22587" y="3818" width="1112" height="1002"/>
          <path fill="rgb(230,230,255)" stroke="none" d="M 23143,4818 L 22588,4818 22588,3819 23697,3819 23697,4818 23143,4818 Z"/>
          <path fill="none" stroke="rgb(0,0,0)" d="M 23143,4818 L 22588,4818 22588,3819 23697,3819 23697,4818 23143,4818 Z"/>
          <text class="SVGTextShape"><tspan class="TextParagraph" font-family="Liberation Sans, sans-serif" font-size="318px" font-weight="400"><tspan class="TextPosition" x="22876" y="4232"><tspan fill="rgb(0,0,0)" stroke="none" style="white-space: pre">175</tspan></tspan></tspan></text>
         </g>
        </g>
        <g class="TextShape">
         <g id="id13">
          <rect class="BoundingBox" stroke="none" fill="none" x="1104" y="5148" width="1360" height="1002"/>
          <path fill="rgb(230,230,255)" stroke="none" d="M 1784,6148 L 1105,6148 1105,5149 2462,5149 2462,6148 1784,6148 Z"/>
          <path fill="none" stroke="rgb(0,0,0)" d="M 1784,6148 L 1105,6148 1105,5149 2462,5149 2462,6148 1784,6148 Z"/>
          <text class="SVGTextShape"><tspan class="TextParagraph" font-family="Liberation Sans, sans-serif" font-size="564px" font-weight="400"><tspan class="TextPosition" x="1627" y="5782"><tspan fill="rgb(0,0,0)" stroke="none" style="white-space: pre">3</tspan></tspan></tspan></text>
         </g>
        </g>
        <g class="TextShape">
         <g id="id14">
          <rect class="BoundingBox" stroke="none" fill="none" x="5014" y="5148" width="2918" height="1002"/>
          <path fill="rgb(230,230,255)" stroke="none" d="M 6473,6148 L 5015,6148 5015,5149 7930,5149 7930,6148 6473,6148 Z"/>
          <path fill="none" stroke="rgb(0,0,0)" d="M 6473,6148 L 5015,6148 5015,5149 7930,5149 7930,6148 6473,6148 Z"/>
          <text class="SVGTextShape"><tspan class="TextParagraph" font-family="Liberation Sans, sans-serif" font-size="564px" font-weight="400"><tspan class="TextPosition" x="5658" y="5782"><tspan fill="rgb(0,0,0)" stroke="none" style="white-space: pre">Rørvik</tspan></tspan></tspan></text>
         </g>
        </g>
        <g class="TextShape">
         <g id="id15">
          <rect class="BoundingBox" stroke="none" fill="none" x="2400" y="5148" width="2617" height="1002"/>
          <path fill="rgb(230,230,255)" stroke="none" d="M 3708,6148 L 2401,6148 2401,5149 5015,5149 5015,6148 3708,6148 Z"/>
          <path fill="none" stroke="rgb(0,0,0)" d="M 3708,6148 L 2401,6148 2401,5149 5015,5149 5015,6148 3708,6148 Z"/>
          <text class="SVGTextShape"><tspan class="TextParagraph" font-family="Liberation Sans, sans-serif" font-size="564px" font-weight="400"><tspan class="TextPosition" x="3393" y="5782"><tspan fill="rgb(0,0,0)" stroke="none" style="white-space: pre">Eli</tspan></tspan></tspan></text>
         </g>
        </g>
        <g class="TextShape">
         <g id="id16">
          <rect class="BoundingBox" stroke="none" fill="none" x="7875" y="5148" width="4658" height="1002"/>
          <path fill="rgb(230,230,255)" stroke="none" d="M 10204,6148 L 7876,6148 7876,5149 12531,5149 12531,6148 10204,6148 Z"/>
          <path fill="none" stroke="rgb(0,0,0)" d="M 10204,6148 L 7876,6148 7876,5149 12531,5149 12531,6148 10204,6148 Z"/>
          <text class="SVGTextShape"><tspan class="TextParagraph" font-family="Liberation Sans, sans-serif" font-size="564px" font-weight="400"><tspan class="TextPosition" x="8199" y="5782"><tspan fill="rgb(0,0,0)" stroke="none" style="white-space: pre">Saturnringen 47</tspan></tspan></tspan></text>
         </g>
        </g>
        <g class="TextShape">
         <g id="id17">
          <rect class="BoundingBox" stroke="none" fill="none" x="12343" y="5148" width="2433" height="1002"/>
          <path fill="rgb(230,230,255)" stroke="none" d="M 13559,6148 L 12344,6148 12344,5149 14774,5149 14774,6148 13559,6148 Z"/>
          <path fill="none" stroke="rgb(0,0,0)" d="M 13559,6148 L 12344,6148 12344,5149 14774,5149 14774,6148 13559,6148 Z"/>
          <text class="SVGTextShape"><tspan class="TextParagraph" font-family="Liberation Sans, sans-serif" font-size="564px" font-weight="400"><tspan class="TextPosition" x="12933" y="5782"><tspan fill="rgb(0,0,0)" stroke="none" style="white-space: pre">1808</tspan></tspan></tspan></text>
         </g>
        </g>
        <g class="TextShape">
         <g id="id18">
          <rect class="BoundingBox" stroke="none" fill="none" x="14587" y="5148" width="2450" height="1002"/>
          <path fill="rgb(230,230,255)" stroke="none" d="M 15812,6148 L 14588,6148 14588,5149 17035,5149 17035,6148 15812,6148 Z"/>
          <path fill="none" stroke="rgb(0,0,0)" d="M 15812,6148 L 14588,6148 14588,5149 17035,5149 17035,6148 15812,6148 Z"/>
          <text class="SVGTextShape"><tspan class="TextParagraph" font-family="Liberation Sans, sans-serif" font-size="564px" font-weight="400"><tspan class="TextPosition" x="15041" y="5782"><tspan fill="rgb(0,0,0)" stroke="none" style="white-space: pre">Askim</tspan></tspan></tspan></text>
         </g>
        </g>
        <g class="TextShape">
         <g id="id19">
          <rect class="BoundingBox" stroke="none" fill="none" x="17006" y="5149" width="1492" height="1001"/>
          <path fill="rgb(230,230,255)" stroke="none" d="M 17752,6148 L 17007,6148 17007,5150 18496,5150 18496,6148 17752,6148 Z"/>
          <path fill="none" stroke="rgb(0,0,0)" d="M 17752,6148 L 17007,6148 17007,5150 18496,5150 18496,6148 17752,6148 Z"/>
          <text class="SVGTextShape"><tspan class="TextParagraph" font-family="Liberation Sans, sans-serif" font-size="564px" font-weight="400"><tspan class="TextPosition" x="17595" y="5783"><tspan fill="rgb(0,0,0)" stroke="none" style="white-space: pre">2</tspan></tspan></tspan></text>
         </g>
        </g>
        <g class="TextShape">
         <g id="id20">
          <rect class="BoundingBox" stroke="none" fill="none" x="18487" y="5152" width="2902" height="998"/>
          <path fill="rgb(230,230,255)" stroke="none" d="M 19938,6148 L 18488,6148 18488,5153 21387,5153 21387,6148 19938,6148 Z"/>
          <path fill="none" stroke="rgb(0,0,0)" d="M 19938,6148 L 18488,6148 18488,5153 21387,5153 21387,6148 19938,6148 Z"/>
          <text class="SVGTextShape"><tspan class="TextParagraph" font-family="Liberation Sans, sans-serif" font-size="318px" font-weight="400"><tspan class="TextPosition" x="19368" y="5566"><tspan fill="rgb(0,0,0)" stroke="none" style="white-space: pre"> </tspan><tspan fill="rgb(0,0,0)" stroke="none" style="white-space: pre">Psycho</tspan></tspan></tspan></text>
         </g>
        </g>
        <g class="TextShape">
         <g id="id21">
          <rect class="BoundingBox" stroke="none" fill="none" x="21186" y="5150" width="1403" height="1000"/>
          <path fill="rgb(230,230,255)" stroke="none" d="M 21887,6148 L 21187,6148 21187,5151 22587,5151 22587,6148 21887,6148 Z"/>
          <path fill="none" stroke="rgb(0,0,0)" d="M 21887,6148 L 21187,6148 21187,5151 22587,5151 22587,6148 21887,6148 Z"/>
          <text class="SVGTextShape"><tspan class="TextParagraph" font-family="Liberation Sans, sans-serif" font-size="318px" font-weight="400"><tspan class="TextPosition" x="21487" y="5564"><tspan fill="rgb(0,0,0)" stroke="none" style="white-space: pre"> </tspan><tspan fill="rgb(0,0,0)" stroke="none" style="white-space: pre">1960</tspan></tspan></tspan></text>
         </g>
        </g>
        <g class="TextShape">
         <g id="id22">
          <rect class="BoundingBox" stroke="none" fill="none" x="22586" y="5147" width="1113" height="1003"/>
          <path fill="rgb(230,230,255)" stroke="none" d="M 23142,6148 L 22587,6148 22587,5148 23697,5148 23697,6148 23142,6148 Z"/>
          <path fill="none" stroke="rgb(0,0,0)" d="M 23142,6148 L 22587,6148 22587,5148 23697,5148 23697,6148 23142,6148 Z"/>
          <text class="SVGTextShape"><tspan class="TextParagraph" font-family="Liberation Sans, sans-serif" font-size="318px" font-weight="400"><tspan class="TextPosition" x="22876" y="5561"><tspan fill="rgb(0,0,0)" stroke="none" style="white-space: pre">104</tspan></tspan></tspan></text>
         </g>
        </g>
        <g class="TextShape">
         <g id="id23">
          <rect class="BoundingBox" stroke="none" fill="none" x="1104" y="6452" width="1360" height="1003"/>
          <path fill="rgb(230,230,255)" stroke="none" d="M 1784,7453 L 1105,7453 1105,6453 2462,6453 2462,7453 1784,7453 Z"/>
          <path fill="none" stroke="rgb(0,0,0)" d="M 1784,7453 L 1105,7453 1105,6453 2462,6453 2462,7453 1784,7453 Z"/>
          <text class="SVGTextShape"><tspan class="TextParagraph" font-family="Liberation Sans, sans-serif" font-size="564px" font-weight="400"><tspan class="TextPosition" x="1627" y="7086"><tspan fill="rgb(0,0,0)" stroke="none" style="white-space: pre">4</tspan></tspan></tspan></text>
         </g>
        </g>
        <g class="TextShape">
         <g id="id24">
          <rect class="BoundingBox" stroke="none" fill="none" x="5014" y="6452" width="2918" height="1003"/>
          <path fill="rgb(230,230,255)" stroke="none" d="M 6473,7453 L 5015,7453 5015,6453 7930,6453 7930,7453 6473,7453 Z"/>
          <path fill="none" stroke="rgb(0,0,0)" d="M 6473,7453 L 5015,7453 5015,6453 7930,6453 7930,7453 6473,7453 Z"/>
          <text class="SVGTextShape"><tspan class="TextParagraph" font-family="Liberation Sans, sans-serif" font-size="564px" font-weight="400"><tspan class="TextPosition" x="5266" y="7086"><tspan fill="rgb(0,0,0)" stroke="none" style="white-space: pre">Andersen</tspan></tspan></tspan></text>
         </g>
        </g>
        <g class="TextShape">
         <g id="id25">
          <rect class="BoundingBox" stroke="none" fill="none" x="2400" y="6452" width="2618" height="1003"/>
          <path fill="rgb(230,230,255)" stroke="none" d="M 3709,7453 L 2401,7453 2401,6453 5016,6453 5016,7453 3709,7453 Z"/>
          <path fill="none" stroke="rgb(0,0,0)" d="M 3709,7453 L 2401,7453 2401,6453 5016,6453 5016,7453 3709,7453 Z"/>
          <text class="SVGTextShape"><tspan class="TextParagraph" font-family="Liberation Sans, sans-serif" font-size="564px" font-weight="400"><tspan class="TextPosition" x="3006" y="7086"><tspan fill="rgb(0,0,0)" stroke="none" style="white-space: pre">Børre</tspan></tspan></tspan></text>
         </g>
        </g>
        <g class="TextShape">
         <g id="id26">
          <rect class="BoundingBox" stroke="none" fill="none" x="7875" y="6452" width="4658" height="1003"/>
          <path fill="rgb(230,230,255)" stroke="none" d="M 10204,7453 L 7876,7453 7876,6453 12531,6453 12531,7453 10204,7453 Z"/>
          <path fill="none" stroke="rgb(0,0,0)" d="M 10204,7453 L 7876,7453 7876,6453 12531,6453 12531,7453 10204,7453 Z"/>
          <text class="SVGTextShape"><tspan class="TextParagraph" font-family="Liberation Sans, sans-serif" font-size="564px" font-weight="400"><tspan class="TextPosition" x="8620" y="7086"><tspan fill="rgb(0,0,0)" stroke="none" style="white-space: pre">Bekkefaret 5</tspan></tspan></tspan></text>
         </g>
        </g>
        <g class="TextShape">
         <g id="id27">
          <rect class="BoundingBox" stroke="none" fill="none" x="12343" y="6452" width="2433" height="1003"/>
          <path fill="rgb(230,230,255)" stroke="none" d="M 13559,7453 L 12344,7453 12344,6453 14774,6453 14774,7453 13559,7453 Z"/>
          <path fill="none" stroke="rgb(0,0,0)" d="M 13559,7453 L 12344,7453 12344,6453 14774,6453 14774,7453 13559,7453 Z"/>
          <text class="SVGTextShape"><tspan class="TextParagraph" font-family="Liberation Sans, sans-serif" font-size="564px" font-weight="400"><tspan class="TextPosition" x="12933" y="7086"><tspan fill="rgb(0,0,0)" stroke="none" style="white-space: pre">0348</tspan></tspan></tspan></text>
         </g>
        </g>
        <g class="TextShape">
         <g id="id28">
          <rect class="BoundingBox" stroke="none" fill="none" x="14587" y="6452" width="2450" height="1003"/>
          <path fill="rgb(230,230,255)" stroke="none" d="M 15812,7453 L 14588,7453 14588,6453 17035,6453 17035,7453 15812,7453 Z"/>
          <path fill="none" stroke="rgb(0,0,0)" d="M 15812,7453 L 14588,7453 14588,6453 17035,6453 17035,7453 15812,7453 Z"/>
          <text class="SVGTextShape"><tspan class="TextParagraph" font-family="Liberation Sans, sans-serif" font-size="564px" font-weight="400"><tspan class="TextPosition" x="15232" y="7086"><tspan fill="rgb(0,0,0)" stroke="none" style="white-space: pre">Oslo</tspan></tspan></tspan></text>
         </g>
        </g>
        <g class="TextShape">
         <g id="id29">
          <rect class="BoundingBox" stroke="none" fill="none" x="17006" y="6452" width="1492" height="1003"/>
          <path fill="rgb(230,230,255)" stroke="none" d="M 17752,7453 L 17007,7453 17007,6453 18496,6453 18496,7453 17752,7453 Z"/>
          <path fill="none" stroke="rgb(0,0,0)" d="M 17752,7453 L 17007,7453 17007,6453 18496,6453 18496,7453 17752,7453 Z"/>
          <text class="SVGTextShape"><tspan class="TextParagraph" font-family="Liberation Sans, sans-serif" font-size="564px" font-weight="400"><tspan class="TextPosition" x="17595" y="7086"><tspan fill="rgb(0,0,0)" stroke="none" style="white-space: pre">4</tspan></tspan></tspan></text>
         </g>
        </g>
        <g class="TextShape">
         <g id="id30">
          <rect class="BoundingBox" stroke="none" fill="none" x="18487" y="6452" width="2903" height="1000"/>
          <path fill="rgb(230,230,255)" stroke="none" d="M 19938,7450 L 18488,7450 18488,6453 21388,6453 21388,7450 19938,7450 Z"/>
          <path fill="none" stroke="rgb(0,0,0)" d="M 19938,7450 L 18488,7450 18488,6453 21388,6453 21388,7450 19938,7450 Z"/>
          <text class="SVGTextShape"><tspan class="TextParagraph" font-family="Liberation Sans, sans-serif" font-size="318px" font-weight="400"><tspan class="TextPosition" x="19369" y="6866"><tspan fill="rgb(0,0,0)" stroke="none" style="white-space: pre"> </tspan><tspan fill="rgb(0,0,0)" stroke="none" style="white-space: pre">Psycho</tspan></tspan></tspan></text>
         </g>
        </g>
        <g class="TextShape">
         <g id="id31">
          <rect class="BoundingBox" stroke="none" fill="none" x="21187" y="6453" width="1403" height="1002"/>
          <path fill="rgb(230,230,255)" stroke="none" d="M 21888,7453 L 21188,7453 21188,6454 22588,6454 22588,7453 21888,7453 Z"/>
          <path fill="none" stroke="rgb(0,0,0)" d="M 21888,7453 L 21188,7453 21188,6454 22588,6454 22588,7453 21888,7453 Z"/>
          <text class="SVGTextShape"><tspan class="TextParagraph" font-family="Liberation Sans, sans-serif" font-size="318px" font-weight="400"><tspan class="TextPosition" x="21533" y="6867"><tspan fill="rgb(0,0,0)" stroke="none" style="white-space: pre">1998</tspan></tspan></tspan></text>
         </g>
        </g>
        <g class="TextShape">
         <g id="id32">
          <rect class="BoundingBox" stroke="none" fill="none" x="22587" y="6453" width="1112" height="1002"/>
          <path fill="rgb(230,230,255)" stroke="none" d="M 23143,7453 L 22588,7453 22588,6454 23697,6454 23697,7453 23143,7453 Z"/>
          <path fill="none" stroke="rgb(0,0,0)" d="M 23143,7453 L 22588,7453 22588,6454 23697,6454 23697,7453 23143,7453 Z"/>
          <text class="SVGTextShape"><tspan class="TextParagraph" font-family="Liberation Sans, sans-serif" font-size="318px" font-weight="400"><tspan class="TextPosition" x="22876" y="6867"><tspan fill="rgb(0,0,0)" stroke="none" style="white-space: pre">109</tspan></tspan></tspan></text>
         </g>
        </g>
        <g class="TextShape">
         <g id="id33">
          <rect class="BoundingBox" stroke="none" fill="none" x="4989" y="1127" width="3082" height="1051"/>
          <path fill="rgb(204,204,204)" stroke="none" d="M 6530,2151 L 5015,2151 5015,1153 8044,1153 8044,2151 6530,2151 Z"/>
          <path fill="none" stroke="rgb(117,117,117)" stroke-width="51" stroke-linejoin="round" d="M 6530,2151 L 5015,2151 5015,1153 8044,1153 8044,2151 6530,2151 Z"/>
          <text class="SVGTextShape"><tspan class="TextParagraph" font-family="Liberation Sans, sans-serif" font-size="564px" font-weight="400"><tspan class="TextPosition" x="5323" y="1812"><tspan fill="rgb(0,0,0)" stroke="none" style="white-space: pre">Etternavn</tspan></tspan></tspan></text>
         </g>
        </g>
        <g class="TextShape">
         <g id="id34">
          <rect class="BoundingBox" stroke="none" fill="none" x="2394" y="1127" width="2721" height="1051"/>
          <path fill="rgb(204,204,204)" stroke="none" d="M 3754,2151 L 2420,2151 2420,1153 5088,1153 5088,2151 3754,2151 Z"/>
          <path fill="none" stroke="rgb(117,117,117)" stroke-width="51" stroke-linejoin="round" d="M 3754,2151 L 2420,2151 2420,1153 5088,1153 5088,2151 3754,2151 Z"/>
          <text class="SVGTextShape"><tspan class="TextParagraph" font-family="Liberation Sans, sans-serif" font-size="564px" font-weight="400"><tspan class="TextPosition" x="2721" y="1812"><tspan fill="rgb(0,0,0)" stroke="none" style="white-space: pre">Fornavn</tspan></tspan></tspan></text>
         </g>
        </g>
        <g class="TextShape">
         <g id="id35">
          <rect class="BoundingBox" stroke="none" fill="none" x="7850" y="1127" width="4713" height="1051"/>
          <path fill="rgb(204,204,204)" stroke="none" d="M 10206,2151 L 7876,2151 7876,1153 12536,1153 12536,2151 10206,2151 Z"/>
          <path fill="none" stroke="rgb(117,117,117)" stroke-width="51" stroke-linejoin="round" d="M 10206,2151 L 7876,2151 7876,1153 12536,1153 12536,2151 10206,2151 Z"/>
          <text class="SVGTextShape"><tspan class="TextParagraph" font-family="Liberation Sans, sans-serif" font-size="564px" font-weight="400"><tspan class="TextPosition" x="9171" y="1812"><tspan fill="rgb(0,0,0)" stroke="none" style="white-space: pre">Adresse</tspan></tspan></tspan></text>
         </g>
        </g>
        <g class="TextShape">
         <g id="id36">
          <rect class="BoundingBox" stroke="none" fill="none" x="12318" y="1127" width="2483" height="1051"/>
          <path fill="rgb(204,204,204)" stroke="none" d="M 13559,2151 L 12344,2151 12344,1153 14774,1153 14774,2151 13559,2151 Z"/>
          <path fill="none" stroke="rgb(117,117,117)" stroke-width="51" stroke-linejoin="round" d="M 13559,2151 L 12344,2151 12344,1153 14774,1153 14774,2151 13559,2151 Z"/>
          <text class="SVGTextShape"><tspan class="TextParagraph" font-family="Liberation Sans, sans-serif" font-size="564px" font-weight="400"><tspan class="TextPosition" x="12744" y="1812"><tspan fill="rgb(0,0,0)" stroke="none" style="white-space: pre">Postnr</tspan></tspan></tspan></text>
         </g>
        </g>
        <g class="TextShape">
         <g id="id37">
          <rect class="BoundingBox" stroke="none" fill="none" x="14562" y="1127" width="2503" height="1051"/>
          <path fill="rgb(204,204,204)" stroke="none" d="M 15813,2151 L 14588,2151 14588,1153 17038,1153 17038,2151 15813,2151 Z"/>
          <path fill="none" stroke="rgb(117,117,117)" stroke-width="51" stroke-linejoin="round" d="M 15813,2151 L 14588,2151 14588,1153 17038,1153 17038,2151 15813,2151 Z"/>
          <text class="SVGTextShape"><tspan class="TextParagraph" font-family="Liberation Sans, sans-serif" font-size="564px" font-weight="400"><tspan class="TextPosition" x="15233" y="1812"><tspan fill="rgb(0,0,0)" stroke="none" style="white-space: pre">Sted</tspan></tspan></tspan></text>
         </g>
        </g>
        <g class="TextShape">
         <g id="id38">
          <rect class="BoundingBox" stroke="none" fill="none" x="16981" y="1127" width="1530" height="1051"/>
          <path fill="rgb(204,204,204)" stroke="none" d="M 17746,2151 L 17007,2151 17007,1153 18484,1153 18484,2151 17746,2151 Z"/>
          <path fill="none" stroke="rgb(117,117,117)" stroke-width="51" stroke-linejoin="round" d="M 17746,2151 L 17007,2151 17007,1153 18484,1153 18484,2151 17746,2151 Z"/>
          <text class="SVGTextShape"><tspan class="TextParagraph" font-family="Liberation Sans, sans-serif" font-size="370px" font-weight="400"><tspan class="TextPosition" x="17401" y="1638"><tspan fill="rgb(0,0,0)" stroke="none" style="white-space: pre">Film </tspan></tspan><tspan class="TextPosition" x="17562" y="2049"><tspan fill="rgb(0,0,0)" stroke="none" style="white-space: pre">ID</tspan></tspan></tspan></text>
         </g>
        </g>
        <g class="TextShape">
         <g id="id39">
          <rect class="BoundingBox" stroke="none" fill="none" x="18462" y="1127" width="2953" height="1048"/>
          <path fill="rgb(204,204,204)" stroke="none" d="M 19938,2148 L 18488,2148 18488,1153 21388,1153 21388,2148 19938,2148 Z"/>
          <path fill="none" stroke="rgb(117,117,117)" stroke-width="51" stroke-linejoin="round" d="M 19938,2148 L 18488,2148 18488,1153 21388,1153 21388,2148 19938,2148 Z"/>
          <text class="SVGTextShape"><tspan class="TextParagraph" font-family="Liberation Sans, sans-serif" font-size="564px" font-weight="400"><tspan class="TextPosition" x="19337" y="1812"><tspan fill="rgb(0,0,0)" stroke="none" style="white-space: pre">Tittel</tspan></tspan></tspan></text>
         </g>
        </g>
        <g class="TextShape">
         <g id="id40">
          <rect class="BoundingBox" stroke="none" fill="none" x="21162" y="1127" width="1453" height="1051"/>
          <path fill="rgb(204,204,204)" stroke="none" d="M 21888,2151 L 21188,2151 21188,1153 22588,1153 22588,2151 21888,2151 Z"/>
          <path fill="none" stroke="rgb(117,117,117)" stroke-width="51" stroke-linejoin="round" d="M 21888,2151 L 21188,2151 21188,1153 22588,1153 22588,2151 21888,2151 Z"/>
          <text class="SVGTextShape"><tspan class="TextParagraph" font-family="Liberation Sans, sans-serif" font-size="459px" font-weight="400"><tspan class="TextPosition" x="21660" y="1719"><tspan fill="rgb(0,0,0)" stroke="none" style="white-space: pre">År</tspan></tspan></tspan></text>
         </g>
        </g>
        <g class="TextShape">
         <g id="id41">
          <rect class="BoundingBox" stroke="none" fill="none" x="22562" y="1127" width="1162" height="1051"/>
          <path fill="rgb(204,204,204)" stroke="none" d="M 23143,2151 L 22588,2151 22588,1153 23697,1153 23697,2151 23143,2151 Z"/>
          <path fill="none" stroke="rgb(117,117,117)" stroke-width="51" stroke-linejoin="round" d="M 23143,2151 L 22588,2151 22588,1153 23697,1153 23697,2151 23143,2151 Z"/>
          <text class="SVGTextShape"><tspan class="TextParagraph" font-family="Liberation Sans, sans-serif" font-size="318px" font-weight="400"><tspan class="TextPosition" x="22876" y="1592"><tspan fill="rgb(0,0,0)" stroke="none" style="white-space: pre">Len</tspan></tspan><tspan class="TextPosition" x="22876" y="1948"><tspan fill="rgb(0,0,0)" stroke="none" style="white-space: pre">gde</tspan></tspan></tspan></text>
         </g>
        </g>
        <g class="TextShape">
         <g id="id42">
          <rect class="BoundingBox" stroke="none" fill="none" x="23539" y="1127" width="3273" height="1053"/>
          <path fill="rgb(204,204,204)" stroke="none" d="M 25175,2153 L 23565,2153 23565,1153 26785,1153 26785,2153 25175,2153 Z"/>
          <path fill="none" stroke="rgb(117,117,117)" stroke-width="51" stroke-linejoin="round" d="M 25175,2153 L 23565,2153 23565,1153 26785,1153 26785,2153 25175,2153 Z"/>
          <text class="SVGTextShape"><tspan class="TextParagraph" font-family="Liberation Sans, sans-serif" font-size="459px" font-weight="400"><tspan class="TextPosition" x="24134" y="1719"><tspan fill="rgb(0,0,0)" stroke="none" style="white-space: pre">Produsent</tspan></tspan></tspan></text>
         </g>
        </g>
        <g class="TextShape">
         <g id="id43">
          <rect class="BoundingBox" stroke="none" fill="none" x="1079" y="1127" width="1413" height="1053"/>
          <path fill="rgb(204,204,204)" stroke="none" d="M 1785,2153 L 1105,2153 1105,1153 2465,1153 2465,2153 1785,2153 Z"/>
          <path fill="none" stroke="rgb(117,117,117)" stroke-width="51" stroke-linejoin="round" d="M 1785,2153 L 1105,2153 1105,1153 2465,1153 2465,2153 1785,2153 Z"/>
          <text class="SVGTextShape"><tspan class="TextParagraph" font-family="Liberation Sans, sans-serif" font-size="353px" font-weight="400"><tspan class="TextPosition" x="1279" y="1622"><tspan fill="rgb(0,0,0)" stroke="none" style="white-space: pre">Kunde </tspan></tspan><tspan class="TextPosition" x="1610" y="2016"><tspan fill="rgb(0,0,0)" stroke="none" style="white-space: pre">ID</tspan></tspan></tspan></text>
         </g>
        </g>
        <g class="TextShape">
         <g id="id44">
          <rect class="BoundingBox" stroke="none" fill="none" x="1104" y="2485" width="1360" height="1003"/>
          <path fill="rgb(230,230,255)" stroke="none" d="M 1784,3486 L 1105,3486 1105,2486 2462,2486 2462,3486 1784,3486 Z"/>
          <path fill="none" stroke="rgb(0,0,0)" d="M 1784,3486 L 1105,3486 1105,2486 2462,2486 2462,3486 1784,3486 Z"/>
          <text class="SVGTextShape"><tspan class="TextParagraph" font-family="Liberation Sans, sans-serif" font-size="564px" font-weight="400"><tspan class="TextPosition" x="1627" y="3119"><tspan fill="rgb(0,0,0)" stroke="none" style="white-space: pre">1</tspan></tspan></tspan></text>
         </g>
        </g>
        <g class="TextShape">
         <g id="id45">
          <rect class="BoundingBox" stroke="none" fill="none" x="5014" y="2485" width="2918" height="1003"/>
          <path fill="rgb(230,230,255)" stroke="none" d="M 6473,3486 L 5015,3486 5015,2486 7930,2486 7930,3486 6473,3486 Z"/>
          <path fill="none" stroke="rgb(0,0,0)" d="M 6473,3486 L 5015,3486 5015,2486 7930,2486 7930,3486 6473,3486 Z"/>
          <text class="SVGTextShape"><tspan class="TextParagraph" font-family="Liberation Sans, sans-serif" font-size="564px" font-weight="400"><tspan class="TextPosition" x="6096" y="3119"><tspan fill="rgb(0,0,0)" stroke="none" style="white-space: pre">Lie</tspan></tspan></tspan></text>
         </g>
        </g>
        <g class="TextShape">
         <g id="id46">
          <rect class="BoundingBox" stroke="none" fill="none" x="2398" y="2485" width="2618" height="1003"/>
          <path fill="rgb(230,230,255)" stroke="none" d="M 3707,3486 L 2399,3486 2399,2486 5014,2486 5014,3486 3707,3486 Z"/>
          <path fill="none" stroke="rgb(0,0,0)" d="M 3707,3486 L 2399,3486 2399,2486 5014,2486 5014,3486 3707,3486 Z"/>
          <text class="SVGTextShape"><tspan class="TextParagraph" font-family="Liberation Sans, sans-serif" font-size="564px" font-weight="400"><tspan class="TextPosition" x="3002" y="3119"><tspan fill="rgb(0,0,0)" stroke="none" style="white-space: pre">Mona</tspan></tspan></tspan></text>
         </g>
        </g>
        <g class="TextShape">
         <g id="id47">
          <rect class="BoundingBox" stroke="none" fill="none" x="7875" y="2485" width="4658" height="1003"/>
          <path fill="rgb(230,230,255)" stroke="none" d="M 10204,3486 L 7876,3486 7876,2486 12531,2486 12531,3486 10204,3486 Z"/>
          <path fill="none" stroke="rgb(0,0,0)" d="M 10204,3486 L 7876,3486 7876,2486 12531,2486 12531,3486 10204,3486 Z"/>
          <text class="SVGTextShape"><tspan class="TextParagraph" font-family="Liberation Sans, sans-serif" font-size="564px" font-weight="400"><tspan class="TextPosition" x="8904" y="3119"><tspan fill="rgb(0,0,0)" stroke="none" style="white-space: pre">Storgata 4</tspan></tspan></tspan></text>
         </g>
        </g>
        <g class="TextShape">
         <g id="id48">
          <rect class="BoundingBox" stroke="none" fill="none" x="12343" y="2485" width="2433" height="1003"/>
          <path fill="rgb(230,230,255)" stroke="none" d="M 13559,3486 L 12344,3486 12344,2486 14774,2486 14774,3486 13559,3486 Z"/>
          <path fill="none" stroke="rgb(0,0,0)" d="M 13559,3486 L 12344,3486 12344,2486 14774,2486 14774,3486 13559,3486 Z"/>
          <text class="SVGTextShape"><tspan class="TextParagraph" font-family="Liberation Sans, sans-serif" font-size="564px" font-weight="400"><tspan class="TextPosition" x="12933" y="3119"><tspan fill="rgb(0,0,0)" stroke="none" style="white-space: pre">0182</tspan></tspan></tspan></text>
         </g>
        </g>
        <g class="TextShape">
         <g id="id49">
          <rect class="BoundingBox" stroke="none" fill="none" x="14587" y="2485" width="2450" height="1003"/>
          <path fill="rgb(230,230,255)" stroke="none" d="M 15812,3486 L 14588,3486 14588,2486 17035,2486 17035,3486 15812,3486 Z"/>
          <path fill="none" stroke="rgb(0,0,0)" d="M 15812,3486 L 14588,3486 14588,2486 17035,2486 17035,3486 15812,3486 Z"/>
          <text class="SVGTextShape"><tspan class="TextParagraph" font-family="Liberation Sans, sans-serif" font-size="564px" font-weight="400"><tspan class="TextPosition" x="15232" y="3119"><tspan fill="rgb(0,0,0)" stroke="none" style="white-space: pre">Oslo</tspan></tspan></tspan></text>
         </g>
        </g>
        <g class="TextShape">
         <g id="id50">
          <rect class="BoundingBox" stroke="none" fill="none" x="17006" y="2485" width="1492" height="1003"/>
          <path fill="rgb(230,230,255)" stroke="none" d="M 17752,3486 L 17007,3486 17007,2486 18496,2486 18496,3486 17752,3486 Z"/>
          <path fill="none" stroke="rgb(0,0,0)" d="M 17752,3486 L 17007,3486 17007,2486 18496,2486 18496,3486 17752,3486 Z"/>
          <text class="SVGTextShape"><tspan class="TextParagraph" font-family="Liberation Sans, sans-serif" font-size="564px" font-weight="400"><tspan class="TextPosition" x="17360" y="3119"><tspan fill="rgb(0,0,0)" stroke="none" style="white-space: pre">1,2</tspan></tspan></tspan></text>
         </g>
        </g>
        <g class="TextShape">
         <g id="id51">
          <rect class="BoundingBox" stroke="none" fill="none" x="18487" y="2488" width="2903" height="1000"/>
          <path fill="rgb(230,230,255)" stroke="none" d="M 19938,3486 L 18488,3486 18488,2489 21388,2489 21388,3486 19938,3486 Z"/>
          <path fill="none" stroke="rgb(0,0,0)" d="M 19938,3486 L 18488,3486 18488,2489 21388,2489 21388,3486 19938,3486 Z"/>
          <text class="SVGTextShape"><tspan class="TextParagraph" font-family="Liberation Sans, sans-serif" font-size="318px" font-weight="400"><tspan class="TextPosition" x="18988" y="2902"><tspan fill="rgb(0,0,0)" stroke="none" style="white-space: pre">Citizen Kane, </tspan></tspan><tspan class="TextPosition" x="19413" y="3258"><tspan fill="rgb(0,0,0)" stroke="none" style="white-space: pre">Psycho</tspan></tspan></tspan></text>
         </g>
        </g>
        <g class="TextShape">
         <g id="id52">
          <rect class="BoundingBox" stroke="none" fill="none" x="21187" y="2486" width="1403" height="1002"/>
          <path fill="rgb(230,230,255)" stroke="none" d="M 21888,3486 L 21188,3486 21188,2487 22588,2487 22588,3486 21888,3486 Z"/>
          <path fill="none" stroke="rgb(0,0,0)" d="M 21888,3486 L 21188,3486 21188,2487 22588,2487 22588,3486 21888,3486 Z"/>
          <text class="SVGTextShape"><tspan class="TextParagraph" font-family="Liberation Sans, sans-serif" font-size="318px" font-weight="400"><tspan class="TextPosition" x="21444" y="2900"><tspan fill="rgb(0,0,0)" stroke="none" style="white-space: pre"> </tspan><tspan fill="rgb(0,0,0)" stroke="none" style="white-space: pre">1941, </tspan></tspan></tspan><tspan class="TextParagraph" font-family="Liberation Sans, sans-serif" font-size="318px" font-weight="400"><tspan class="TextPosition" x="21533" y="3256"><tspan fill="rgb(0,0,0)" stroke="none" style="white-space: pre">1960</tspan></tspan></tspan></text>
         </g>
        </g>
        <g class="TextShape">
         <g id="id53">
          <rect class="BoundingBox" stroke="none" fill="none" x="22587" y="2485" width="1112" height="1003"/>
          <path fill="rgb(230,230,255)" stroke="none" d="M 23143,3486 L 22588,3486 22588,2486 23697,2486 23697,3486 23143,3486 Z"/>
          <path fill="none" stroke="rgb(0,0,0)" d="M 23143,3486 L 22588,3486 22588,2486 23697,2486 23697,3486 23143,3486 Z"/>
          <text class="SVGTextShape"><tspan class="TextParagraph" font-family="Liberation Sans, sans-serif" font-size="318px" font-weight="400"><tspan class="TextPosition" x="22844" y="2899"><tspan fill="rgb(0,0,0)" stroke="none" style="white-space: pre">115, </tspan></tspan><tspan class="TextPosition" x="22876" y="3255"><tspan fill="rgb(0,0,0)" stroke="none" style="white-space: pre">104</tspan></tspan></tspan></text>
         </g>
        </g>
        <g class="TextShape">
         <g id="id54">
          <rect class="BoundingBox" stroke="none" fill="none" x="23564" y="3818" width="3223" height="1002"/>
          <path fill="rgb(230,230,255)" stroke="none" d="M 25175,4818 L 23565,4818 23565,3819 26785,3819 26785,4818 25175,4818 Z"/>
          <path fill="none" stroke="rgb(0,0,0)" d="M 25175,4818 L 23565,4818 23565,3819 26785,3819 26785,4818 25175,4818 Z"/>
          <text class="SVGTextShape"><tspan class="TextParagraph" font-family="Liberation Sans, sans-serif" font-size="318px" font-weight="400"><tspan class="TextPosition" x="24396" y="4232"><tspan fill="rgb(0,0,0)" stroke="none" style="white-space: pre">Paramount</tspan></tspan></tspan></text>
         </g>
        </g>
        <g class="TextShape">
         <g id="id55">
          <rect class="BoundingBox" stroke="none" fill="none" x="23564" y="5149" width="3223" height="1001"/>
          <path fill="rgb(230,230,255)" stroke="none" d="M 25175,6148 L 23565,6148 23565,5150 26785,5150 26785,6148 25175,6148 Z"/>
          <path fill="none" stroke="rgb(0,0,0)" d="M 25175,6148 L 23565,6148 23565,5150 26785,5150 26785,6148 25175,6148 Z"/>
          <text class="SVGTextShape"><tspan class="TextParagraph" font-family="Liberation Sans, sans-serif" font-size="318px" font-weight="400"><tspan class="TextPosition" x="23886" y="5563"><tspan fill="rgb(0,0,0)" stroke="none" style="white-space: pre">Universal Pictures</tspan></tspan></tspan></text>
         </g>
        </g>
        <g class="TextShape">
         <g id="id56">
          <rect class="BoundingBox" stroke="none" fill="none" x="23564" y="6453" width="3223" height="1002"/>
          <path fill="rgb(230,230,255)" stroke="none" d="M 25175,7453 L 23565,7453 23565,6454 26785,6454 26785,7453 25175,7453 Z"/>
          <path fill="none" stroke="rgb(0,0,0)" d="M 25175,7453 L 23565,7453 23565,6454 26785,6454 26785,7453 25175,7453 Z"/>
          <text class="SVGTextShape"><tspan class="TextParagraph" font-family="Liberation Sans, sans-serif" font-size="318px" font-weight="400"><tspan class="TextPosition" x="23886" y="6867"><tspan fill="rgb(0,0,0)" stroke="none" style="white-space: pre">Universal Pictures</tspan></tspan></tspan></text>
         </g>
        </g>
        <g class="TextShape">
         <g id="id57">
          <rect class="BoundingBox" stroke="none" fill="none" x="23564" y="2486" width="3223" height="1002"/>
          <path fill="rgb(230,230,255)" stroke="none" d="M 25175,3486 L 23565,3486 23565,2487 26785,2487 26785,3486 25175,3486 Z"/>
          <path fill="none" stroke="rgb(0,0,0)" d="M 25175,3486 L 23565,3486 23565,2487 26785,2487 26785,3486 25175,3486 Z"/>
          <text class="SVGTextShape"><tspan class="TextParagraph" font-family="Liberation Sans, sans-serif" font-size="318px" font-weight="400"><tspan class="TextPosition" x="23842" y="2900"><tspan fill="rgb(0,0,0)" stroke="none" style="white-space: pre">Universal Pictures, </tspan></tspan><tspan class="TextPosition" x="23886" y="3256"><tspan fill="rgb(0,0,0)" stroke="none" style="white-space: pre">Universal Pictures</tspan></tspan></tspan></text>
         </g>
        </g>
       </g>
       <g class="com.sun.star.drawing.CustomShape">
        <g id="id58">
         <rect class="BoundingBox" stroke="none" fill="none" x="19038" y="2964" width="8119" height="422"/>
         <path fill="none" stroke="rgb(128,0,0)" d="M 23097,3384 L 23046,3384"/>
         <path fill="none" stroke="rgb(128,0,0)" d="M 22995,3384 L 22944,3384"/>
         <path fill="none" stroke="rgb(128,0,0)" d="M 22893,3384 L 22842,3384"/>
         <path fill="none" stroke="rgb(128,0,0)" d="M 22791,3384 L 22740,3384"/>
         <path fill="none" stroke="rgb(128,0,0)" d="M 22689,3384 L 22638,3384"/>
         <path fill="none" stroke="rgb(128,0,0)" d="M 22587,3384 L 22536,3384"/>
         <path fill="none" stroke="rgb(128,0,0)" d="M 22485,3384 L 22434,3384"/>
         <path fill="none" stroke="rgb(128,0,0)" d="M 22383,3384 L 22332,3384"/>
         <path fill="none" stroke="rgb(128,0,0)" d="M 22281,3384 L 22230,3384"/>
         <path fill="none" stroke="rgb(128,0,0)" d="M 22179,3384 L 22128,3384"/>
         <path fill="none" stroke="rgb(128,0,0)" d="M 22077,3384 L 22026,3384"/>
         <path fill="none" stroke="rgb(128,0,0)" d="M 21975,3384 L 21924,3384"/>
         <path fill="none" stroke="rgb(128,0,0)" d="M 21873,3384 L 21822,3384"/>
         <path fill="none" stroke="rgb(128,0,0)" d="M 21771,3384 L 21720,3384"/>
         <path fill="none" stroke="rgb(128,0,0)" d="M 21669,3384 L 21618,3384"/>
         <path fill="none" stroke="rgb(128,0,0)" d="M 21567,3384 L 21516,3384"/>
         <path fill="none" stroke="rgb(128,0,0)" d="M 21465,3384 L 21414,3384"/>
         <path fill="none" stroke="rgb(128,0,0)" d="M 21363,3384 L 21312,3384"/>
         <path fill="none" stroke="rgb(128,0,0)" d="M 21261,3384 L 21210,3384"/>
         <path fill="none" stroke="rgb(128,0,0)" d="M 21159,3384 L 21108,3384"/>
         <path fill="none" stroke="rgb(128,0,0)" d="M 21057,3384 L 21006,3384"/>
         <path fill="none" stroke="rgb(128,0,0)" d="M 20955,3384 L 20904,3384"/>
         <path fill="none" stroke="rgb(128,0,0)" d="M 20853,3384 L 20802,3384"/>
         <path fill="none" stroke="rgb(128,0,0)" d="M 20751,3384 L 20700,3384"/>
         <path fill="none" stroke="rgb(128,0,0)" d="M 20649,3384 L 20598,3384"/>
         <path fill="none" stroke="rgb(128,0,0)" d="M 20547,3384 L 20496,3384"/>
         <path fill="none" stroke="rgb(128,0,0)" d="M 20445,3384 L 20394,3384"/>
         <path fill="none" stroke="rgb(128,0,0)" d="M 20343,3384 L 20292,3384"/>
         <path fill="none" stroke="rgb(128,0,0)" d="M 20241,3384 L 20190,3384"/>
         <path fill="none" stroke="rgb(128,0,0)" d="M 20139,3384 L 20088,3384"/>
         <path fill="none" stroke="rgb(128,0,0)" d="M 20037,3384 L 19986,3384"/>
         <path fill="none" stroke="rgb(128,0,0)" d="M 19935,3384 L 19884,3384"/>
         <path fill="none" stroke="rgb(128,0,0)" d="M 19833,3384 L 19782,3384"/>
         <path fill="none" stroke="rgb(128,0,0)" d="M 19731,3384 L 19680,3384"/>
         <path fill="none" stroke="rgb(128,0,0)" d="M 19629,3384 L 19578,3384"/>
         <path fill="none" stroke="rgb(128,0,0)" d="M 19527,3384 L 19476,3384"/>
         <path fill="none" stroke="rgb(128,0,0)" d="M 19425,3384 L 19374,3384"/>
         <path fill="none" stroke="rgb(128,0,0)" d="M 19323,3384 L 19272,3384"/>
         <path fill="none" stroke="rgb(128,0,0)" d="M 19221,3384 L 19170,3384"/>
         <path fill="none" stroke="rgb(128,0,0)" d="M 19119,3384 L 19068,3384"/>
         <path fill="none" stroke="rgb(128,0,0)" d="M 19039,3362 L 19039,3311"/>
         <path fill="none" stroke="rgb(128,0,0)" d="M 19039,3260 L 19039,3209"/>
         <path fill="none" stroke="rgb(128,0,0)" d="M 19039,3158 L 19039,3107"/>
         <path fill="none" stroke="rgb(128,0,0)" d="M 19039,3056 L 19039,3005"/>
         <path fill="none" stroke="rgb(128,0,0)" d="M 19050,2965 L 19101,2965"/>
         <path fill="none" stroke="rgb(128,0,0)" d="M 19152,2965 L 19203,2965"/>
         <path fill="none" stroke="rgb(128,0,0)" d="M 19254,2965 L 19305,2965"/>
         <path fill="none" stroke="rgb(128,0,0)" d="M 19356,2965 L 19407,2965"/>
         <path fill="none" stroke="rgb(128,0,0)" d="M 19458,2965 L 19509,2965"/>
         <path fill="none" stroke="rgb(128,0,0)" d="M 19560,2965 L 19611,2965"/>
         <path fill="none" stroke="rgb(128,0,0)" d="M 19662,2965 L 19713,2965"/>
         <path fill="none" stroke="rgb(128,0,0)" d="M 19764,2965 L 19815,2965"/>
         <path fill="none" stroke="rgb(128,0,0)" d="M 19866,2965 L 19917,2965"/>
         <path fill="none" stroke="rgb(128,0,0)" d="M 19968,2965 L 20019,2965"/>
         <path fill="none" stroke="rgb(128,0,0)" d="M 20070,2965 L 20121,2965"/>
         <path fill="none" stroke="rgb(128,0,0)" d="M 20172,2965 L 20223,2965"/>
         <path fill="none" stroke="rgb(128,0,0)" d="M 20274,2965 L 20325,2965"/>
         <path fill="none" stroke="rgb(128,0,0)" d="M 20376,2965 L 20427,2965"/>
         <path fill="none" stroke="rgb(128,0,0)" d="M 20478,2965 L 20529,2965"/>
         <path fill="none" stroke="rgb(128,0,0)" d="M 20580,2965 L 20631,2965"/>
         <path fill="none" stroke="rgb(128,0,0)" d="M 20682,2965 L 20733,2965"/>
         <path fill="none" stroke="rgb(128,0,0)" d="M 20784,2965 L 20835,2965"/>
         <path fill="none" stroke="rgb(128,0,0)" d="M 20886,2965 L 20937,2965"/>
         <path fill="none" stroke="rgb(128,0,0)" d="M 20988,2965 L 21039,2965"/>
         <path fill="none" stroke="rgb(128,0,0)" d="M 21090,2965 L 21141,2965"/>
         <path fill="none" stroke="rgb(128,0,0)" d="M 21192,2965 L 21243,2965"/>
         <path fill="none" stroke="rgb(128,0,0)" d="M 21294,2965 L 21345,2965"/>
         <path fill="none" stroke="rgb(128,0,0)" d="M 21396,2965 L 21447,2965"/>
         <path fill="none" stroke="rgb(128,0,0)" d="M 21498,2965 L 21549,2965"/>
         <path fill="none" stroke="rgb(128,0,0)" d="M 21600,2965 L 21651,2965"/>
         <path fill="none" stroke="rgb(128,0,0)" d="M 21702,2965 L 21753,2965"/>
         <path fill="none" stroke="rgb(128,0,0)" d="M 21804,2965 L 21855,2965"/>
         <path fill="none" stroke="rgb(128,0,0)" d="M 21906,2965 L 21957,2965"/>
         <path fill="none" stroke="rgb(128,0,0)" d="M 22008,2965 L 22059,2965"/>
         <path fill="none" stroke="rgb(128,0,0)" d="M 22110,2965 L 22161,2965"/>
         <path fill="none" stroke="rgb(128,0,0)" d="M 22212,2965 L 22263,2965"/>
         <path fill="none" stroke="rgb(128,0,0)" d="M 22314,2965 L 22365,2965"/>
         <path fill="none" stroke="rgb(128,0,0)" d="M 22416,2965 L 22467,2965"/>
         <path fill="none" stroke="rgb(128,0,0)" d="M 22518,2965 L 22569,2965"/>
         <path fill="none" stroke="rgb(128,0,0)" d="M 22620,2965 L 22671,2965"/>
         <path fill="none" stroke="rgb(128,0,0)" d="M 22722,2965 L 22773,2965"/>
         <path fill="none" stroke="rgb(128,0,0)" d="M 22824,2965 L 22875,2965"/>
         <path fill="none" stroke="rgb(128,0,0)" d="M 22926,2965 L 22977,2965"/>
         <path fill="none" stroke="rgb(128,0,0)" d="M 23028,2965 L 23079,2965"/>
         <path fill="none" stroke="rgb(128,0,0)" d="M 23130,2965 L 23181,2965"/>
         <path fill="none" stroke="rgb(128,0,0)" d="M 23232,2965 L 23283,2965"/>
         <path fill="none" stroke="rgb(128,0,0)" d="M 23334,2965 L 23385,2965"/>
         <path fill="none" stroke="rgb(128,0,0)" d="M 23436,2965 L 23487,2965"/>
         <path fill="none" stroke="rgb(128,0,0)" d="M 23538,2965 L 23589,2965"/>
         <path fill="none" stroke="rgb(128,0,0)" d="M 23640,2965 L 23691,2965"/>
         <path fill="none" stroke="rgb(128,0,0)" d="M 23742,2965 L 23793,2965"/>
         <path fill="none" stroke="rgb(128,0,0)" d="M 23844,2965 L 23895,2965"/>
         <path fill="none" stroke="rgb(128,0,0)" d="M 23946,2965 L 23997,2965"/>
         <path fill="none" stroke="rgb(128,0,0)" d="M 24048,2965 L 24099,2965"/>
         <path fill="none" stroke="rgb(128,0,0)" d="M 24150,2965 L 24201,2965"/>
         <path fill="none" stroke="rgb(128,0,0)" d="M 24252,2965 L 24303,2965"/>
         <path fill="none" stroke="rgb(128,0,0)" d="M 24354,2965 L 24405,2965"/>
         <path fill="none" stroke="rgb(128,0,0)" d="M 24456,2965 L 24507,2965"/>
         <path fill="none" stroke="rgb(128,0,0)" d="M 24558,2965 L 24609,2965"/>
         <path fill="none" stroke="rgb(128,0,0)" d="M 24660,2965 L 24711,2965"/>
         <path fill="none" stroke="rgb(128,0,0)" d="M 24762,2965 L 24813,2965"/>
         <path fill="none" stroke="rgb(128,0,0)" d="M 24864,2965 L 24915,2965"/>
         <path fill="none" stroke="rgb(128,0,0)" d="M 24966,2965 L 25017,2965"/>
         <path fill="none" stroke="rgb(128,0,0)" d="M 25068,2965 L 25119,2965"/>
         <path fill="none" stroke="rgb(128,0,0)" d="M 25170,2965 L 25221,2965"/>
         <path fill="none" stroke="rgb(128,0,0)" d="M 25272,2965 L 25323,2965"/>
         <path fill="none" stroke="rgb(128,0,0)" d="M 25374,2965 L 25425,2965"/>
         <path fill="none" stroke="rgb(128,0,0)" d="M 25476,2965 L 25527,2965"/>
         <path fill="none" stroke="rgb(128,0,0)" d="M 25578,2965 L 25629,2965"/>
         <path fill="none" stroke="rgb(128,0,0)" d="M 25680,2965 L 25731,2965"/>
         <path fill="none" stroke="rgb(128,0,0)" d="M 25782,2965 L 25833,2965"/>
         <path fill="none" stroke="rgb(128,0,0)" d="M 25884,2965 L 25935,2965"/>
         <path fill="none" stroke="rgb(128,0,0)" d="M 25986,2965 L 26037,2965"/>
         <path fill="none" stroke="rgb(128,0,0)" d="M 26088,2965 L 26139,2965"/>
         <path fill="none" stroke="rgb(128,0,0)" d="M 26190,2965 L 26241,2965"/>
         <path fill="none" stroke="rgb(128,0,0)" d="M 26292,2965 L 26343,2965"/>
         <path fill="none" stroke="rgb(128,0,0)" d="M 26394,2965 L 26445,2965"/>
         <path fill="none" stroke="rgb(128,0,0)" d="M 26496,2965 L 26547,2965"/>
         <path fill="none" stroke="rgb(128,0,0)" d="M 26598,2965 L 26649,2965"/>
         <path fill="none" stroke="rgb(128,0,0)" d="M 26700,2965 L 26751,2965"/>
         <path fill="none" stroke="rgb(128,0,0)" d="M 26802,2965 L 26853,2965"/>
         <path fill="none" stroke="rgb(128,0,0)" d="M 26904,2965 L 26955,2965"/>
         <path fill="none" stroke="rgb(128,0,0)" d="M 27006,2965 L 27057,2965"/>
         <path fill="none" stroke="rgb(128,0,0)" d="M 27108,2965 L 27155,2965 27155,2969"/>
         <path fill="none" stroke="rgb(128,0,0)" d="M 27155,3020 L 27155,3071"/>
         <path fill="none" stroke="rgb(128,0,0)" d="M 27155,3122 L 27155,3173"/>
         <path fill="none" stroke="rgb(128,0,0)" d="M 27155,3224 L 27155,3275"/>
         <path fill="none" stroke="rgb(128,0,0)" d="M 27155,3326 L 27155,3377"/>
         <path fill="none" stroke="rgb(128,0,0)" d="M 27111,3384 L 27060,3384"/>
         <path fill="none" stroke="rgb(128,0,0)" d="M 27009,3384 L 26958,3384"/>
         <path fill="none" stroke="rgb(128,0,0)" d="M 26907,3384 L 26856,3384"/>
         <path fill="none" stroke="rgb(128,0,0)" d="M 26805,3384 L 26754,3384"/>
         <path fill="none" stroke="rgb(128,0,0)" d="M 26703,3384 L 26652,3384"/>
         <path fill="none" stroke="rgb(128,0,0)" d="M 26601,3384 L 26550,3384"/>
         <path fill="none" stroke="rgb(128,0,0)" d="M 26499,3384 L 26448,3384"/>
         <path fill="none" stroke="rgb(128,0,0)" d="M 26397,3384 L 26346,3384"/>
         <path fill="none" stroke="rgb(128,0,0)" d="M 26295,3384 L 26244,3384"/>
         <path fill="none" stroke="rgb(128,0,0)" d="M 26193,3384 L 26142,3384"/>
         <path fill="none" stroke="rgb(128,0,0)" d="M 26091,3384 L 26040,3384"/>
         <path fill="none" stroke="rgb(128,0,0)" d="M 25989,3384 L 25938,3384"/>
         <path fill="none" stroke="rgb(128,0,0)" d="M 25887,3384 L 25836,3384"/>
         <path fill="none" stroke="rgb(128,0,0)" d="M 25785,3384 L 25734,3384"/>
         <path fill="none" stroke="rgb(128,0,0)" d="M 25683,3384 L 25632,3384"/>
         <path fill="none" stroke="rgb(128,0,0)" d="M 25581,3384 L 25530,3384"/>
         <path fill="none" stroke="rgb(128,0,0)" d="M 25479,3384 L 25428,3384"/>
         <path fill="none" stroke="rgb(128,0,0)" d="M 25377,3384 L 25326,3384"/>
         <path fill="none" stroke="rgb(128,0,0)" d="M 25275,3384 L 25224,3384"/>
         <path fill="none" stroke="rgb(128,0,0)" d="M 25173,3384 L 25122,3384"/>
         <path fill="none" stroke="rgb(128,0,0)" d="M 25071,3384 L 25020,3384"/>
         <path fill="none" stroke="rgb(128,0,0)" d="M 24969,3384 L 24918,3384"/>
         <path fill="none" stroke="rgb(128,0,0)" d="M 24867,3384 L 24816,3384"/>
         <path fill="none" stroke="rgb(128,0,0)" d="M 24765,3384 L 24714,3384"/>
         <path fill="none" stroke="rgb(128,0,0)" d="M 24663,3384 L 24612,3384"/>
         <path fill="none" stroke="rgb(128,0,0)" d="M 24561,3384 L 24510,3384"/>
         <path fill="none" stroke="rgb(128,0,0)" d="M 24459,3384 L 24408,3384"/>
         <path fill="none" stroke="rgb(128,0,0)" d="M 24357,3384 L 24306,3384"/>
         <path fill="none" stroke="rgb(128,0,0)" d="M 24255,3384 L 24204,3384"/>
         <path fill="none" stroke="rgb(128,0,0)" d="M 24153,3384 L 24102,3384"/>
         <path fill="none" stroke="rgb(128,0,0)" d="M 24051,3384 L 24000,3384"/>
         <path fill="none" stroke="rgb(128,0,0)" d="M 23949,3384 L 23898,3384"/>
         <path fill="none" stroke="rgb(128,0,0)" d="M 23847,3384 L 23796,3384"/>
         <path fill="none" stroke="rgb(128,0,0)" d="M 23745,3384 L 23694,3384"/>
         <path fill="none" stroke="rgb(128,0,0)" d="M 23643,3384 L 23592,3384"/>
         <path fill="none" stroke="rgb(128,0,0)" d="M 23541,3384 L 23490,3384"/>
         <path fill="none" stroke="rgb(128,0,0)" d="M 23439,3384 L 23388,3384"/>
         <path fill="none" stroke="rgb(128,0,0)" d="M 23337,3384 L 23286,3384"/>
         <path fill="none" stroke="rgb(128,0,0)" d="M 23235,3384 L 23184,3384"/>
         <path fill="none" stroke="rgb(128,0,0)" d="M 23133,3384 L 23097,3384"/>
        </g>
       </g>
       <g class="com.sun.star.drawing.CustomShape">
        <g id="id59">
         <rect class="BoundingBox" stroke="none" fill="none" x="19039" y="5265" width="8119" height="422"/>
         <path fill="none" stroke="rgb(128,0,0)" d="M 23098,5685 L 23047,5685"/>
         <path fill="none" stroke="rgb(128,0,0)" d="M 22996,5685 L 22945,5685"/>
         <path fill="none" stroke="rgb(128,0,0)" d="M 22894,5685 L 22843,5685"/>
         <path fill="none" stroke="rgb(128,0,0)" d="M 22792,5685 L 22741,5685"/>
         <path fill="none" stroke="rgb(128,0,0)" d="M 22690,5685 L 22639,5685"/>
         <path fill="none" stroke="rgb(128,0,0)" d="M 22588,5685 L 22537,5685"/>
         <path fill="none" stroke="rgb(128,0,0)" d="M 22486,5685 L 22435,5685"/>
         <path fill="none" stroke="rgb(128,0,0)" d="M 22384,5685 L 22333,5685"/>
         <path fill="none" stroke="rgb(128,0,0)" d="M 22282,5685 L 22231,5685"/>
         <path fill="none" stroke="rgb(128,0,0)" d="M 22180,5685 L 22129,5685"/>
         <path fill="none" stroke="rgb(128,0,0)" d="M 22078,5685 L 22027,5685"/>
         <path fill="none" stroke="rgb(128,0,0)" d="M 21976,5685 L 21925,5685"/>
         <path fill="none" stroke="rgb(128,0,0)" d="M 21874,5685 L 21823,5685"/>
         <path fill="none" stroke="rgb(128,0,0)" d="M 21772,5685 L 21721,5685"/>
         <path fill="none" stroke="rgb(128,0,0)" d="M 21670,5685 L 21619,5685"/>
         <path fill="none" stroke="rgb(128,0,0)" d="M 21568,5685 L 21517,5685"/>
         <path fill="none" stroke="rgb(128,0,0)" d="M 21466,5685 L 21415,5685"/>
         <path fill="none" stroke="rgb(128,0,0)" d="M 21364,5685 L 21313,5685"/>
         <path fill="none" stroke="rgb(128,0,0)" d="M 21262,5685 L 21211,5685"/>
         <path fill="none" stroke="rgb(128,0,0)" d="M 21160,5685 L 21109,5685"/>
         <path fill="none" stroke="rgb(128,0,0)" d="M 21058,5685 L 21007,5685"/>
         <path fill="none" stroke="rgb(128,0,0)" d="M 20956,5685 L 20905,5685"/>
         <path fill="none" stroke="rgb(128,0,0)" d="M 20854,5685 L 20803,5685"/>
         <path fill="none" stroke="rgb(128,0,0)" d="M 20752,5685 L 20701,5685"/>
         <path fill="none" stroke="rgb(128,0,0)" d="M 20650,5685 L 20599,5685"/>
         <path fill="none" stroke="rgb(128,0,0)" d="M 20548,5685 L 20497,5685"/>
         <path fill="none" stroke="rgb(128,0,0)" d="M 20446,5685 L 20395,5685"/>
         <path fill="none" stroke="rgb(128,0,0)" d="M 20344,5685 L 20293,5685"/>
         <path fill="none" stroke="rgb(128,0,0)" d="M 20242,5685 L 20191,5685"/>
         <path fill="none" stroke="rgb(128,0,0)" d="M 20140,5685 L 20089,5685"/>
         <path fill="none" stroke="rgb(128,0,0)" d="M 20038,5685 L 19987,5685"/>
         <path fill="none" stroke="rgb(128,0,0)" d="M 19936,5685 L 19885,5685"/>
         <path fill="none" stroke="rgb(128,0,0)" d="M 19834,5685 L 19783,5685"/>
         <path fill="none" stroke="rgb(128,0,0)" d="M 19732,5685 L 19681,5685"/>
         <path fill="none" stroke="rgb(128,0,0)" d="M 19630,5685 L 19579,5685"/>
         <path fill="none" stroke="rgb(128,0,0)" d="M 19528,5685 L 19477,5685"/>
         <path fill="none" stroke="rgb(128,0,0)" d="M 19426,5685 L 19375,5685"/>
         <path fill="none" stroke="rgb(128,0,0)" d="M 19324,5685 L 19273,5685"/>
         <path fill="none" stroke="rgb(128,0,0)" d="M 19222,5685 L 19171,5685"/>
         <path fill="none" stroke="rgb(128,0,0)" d="M 19120,5685 L 19069,5685"/>
         <path fill="none" stroke="rgb(128,0,0)" d="M 19040,5663 L 19040,5612"/>
         <path fill="none" stroke="rgb(128,0,0)" d="M 19040,5561 L 19040,5510"/>
         <path fill="none" stroke="rgb(128,0,0)" d="M 19040,5459 L 19040,5408"/>
         <path fill="none" stroke="rgb(128,0,0)" d="M 19040,5357 L 19040,5306"/>
         <path fill="none" stroke="rgb(128,0,0)" d="M 19051,5266 L 19102,5266"/>
         <path fill="none" stroke="rgb(128,0,0)" d="M 19153,5266 L 19204,5266"/>
         <path fill="none" stroke="rgb(128,0,0)" d="M 19255,5266 L 19306,5266"/>
         <path fill="none" stroke="rgb(128,0,0)" d="M 19357,5266 L 19408,5266"/>
         <path fill="none" stroke="rgb(128,0,0)" d="M 19459,5266 L 19510,5266"/>
         <path fill="none" stroke="rgb(128,0,0)" d="M 19561,5266 L 19612,5266"/>
         <path fill="none" stroke="rgb(128,0,0)" d="M 19663,5266 L 19714,5266"/>
         <path fill="none" stroke="rgb(128,0,0)" d="M 19765,5266 L 19816,5266"/>
         <path fill="none" stroke="rgb(128,0,0)" d="M 19867,5266 L 19918,5266"/>
         <path fill="none" stroke="rgb(128,0,0)" d="M 19969,5266 L 20020,5266"/>
         <path fill="none" stroke="rgb(128,0,0)" d="M 20071,5266 L 20122,5266"/>
         <path fill="none" stroke="rgb(128,0,0)" d="M 20173,5266 L 20224,5266"/>
         <path fill="none" stroke="rgb(128,0,0)" d="M 20275,5266 L 20326,5266"/>
         <path fill="none" stroke="rgb(128,0,0)" d="M 20377,5266 L 20428,5266"/>
         <path fill="none" stroke="rgb(128,0,0)" d="M 20479,5266 L 20530,5266"/>
         <path fill="none" stroke="rgb(128,0,0)" d="M 20581,5266 L 20632,5266"/>
         <path fill="none" stroke="rgb(128,0,0)" d="M 20683,5266 L 20734,5266"/>
         <path fill="none" stroke="rgb(128,0,0)" d="M 20785,5266 L 20836,5266"/>
         <path fill="none" stroke="rgb(128,0,0)" d="M 20887,5266 L 20938,5266"/>
         <path fill="none" stroke="rgb(128,0,0)" d="M 20989,5266 L 21040,5266"/>
         <path fill="none" stroke="rgb(128,0,0)" d="M 21091,5266 L 21142,5266"/>
         <path fill="none" stroke="rgb(128,0,0)" d="M 21193,5266 L 21244,5266"/>
         <path fill="none" stroke="rgb(128,0,0)" d="M 21295,5266 L 21346,5266"/>
         <path fill="none" stroke="rgb(128,0,0)" d="M 21397,5266 L 21448,5266"/>
         <path fill="none" stroke="rgb(128,0,0)" d="M 21499,5266 L 21550,5266"/>
         <path fill="none" stroke="rgb(128,0,0)" d="M 21601,5266 L 21652,5266"/>
         <path fill="none" stroke="rgb(128,0,0)" d="M 21703,5266 L 21754,5266"/>
         <path fill="none" stroke="rgb(128,0,0)" d="M 21805,5266 L 21856,5266"/>
         <path fill="none" stroke="rgb(128,0,0)" d="M 21907,5266 L 21958,5266"/>
         <path fill="none" stroke="rgb(128,0,0)" d="M 22009,5266 L 22060,5266"/>
         <path fill="none" stroke="rgb(128,0,0)" d="M 22111,5266 L 22162,5266"/>
         <path fill="none" stroke="rgb(128,0,0)" d="M 22213,5266 L 22264,5266"/>
         <path fill="none" stroke="rgb(128,0,0)" d="M 22315,5266 L 22366,5266"/>
         <path fill="none" stroke="rgb(128,0,0)" d="M 22417,5266 L 22468,5266"/>
         <path fill="none" stroke="rgb(128,0,0)" d="M 22519,5266 L 22570,5266"/>
         <path fill="none" stroke="rgb(128,0,0)" d="M 22621,5266 L 22672,5266"/>
         <path fill="none" stroke="rgb(128,0,0)" d="M 22723,5266 L 22774,5266"/>
         <path fill="none" stroke="rgb(128,0,0)" d="M 22825,5266 L 22876,5266"/>
         <path fill="none" stroke="rgb(128,0,0)" d="M 22927,5266 L 22978,5266"/>
         <path fill="none" stroke="rgb(128,0,0)" d="M 23029,5266 L 23080,5266"/>
         <path fill="none" stroke="rgb(128,0,0)" d="M 23131,5266 L 23182,5266"/>
         <path fill="none" stroke="rgb(128,0,0)" d="M 23233,5266 L 23284,5266"/>
         <path fill="none" stroke="rgb(128,0,0)" d="M 23335,5266 L 23386,5266"/>
         <path fill="none" stroke="rgb(128,0,0)" d="M 23437,5266 L 23488,5266"/>
         <path fill="none" stroke="rgb(128,0,0)" d="M 23539,5266 L 23590,5266"/>
         <path fill="none" stroke="rgb(128,0,0)" d="M 23641,5266 L 23692,5266"/>
         <path fill="none" stroke="rgb(128,0,0)" d="M 23743,5266 L 23794,5266"/>
         <path fill="none" stroke="rgb(128,0,0)" d="M 23845,5266 L 23896,5266"/>
         <path fill="none" stroke="rgb(128,0,0)" d="M 23947,5266 L 23998,5266"/>
         <path fill="none" stroke="rgb(128,0,0)" d="M 24049,5266 L 24100,5266"/>
         <path fill="none" stroke="rgb(128,0,0)" d="M 24151,5266 L 24202,5266"/>
         <path fill="none" stroke="rgb(128,0,0)" d="M 24253,5266 L 24304,5266"/>
         <path fill="none" stroke="rgb(128,0,0)" d="M 24355,5266 L 24406,5266"/>
         <path fill="none" stroke="rgb(128,0,0)" d="M 24457,5266 L 24508,5266"/>
         <path fill="none" stroke="rgb(128,0,0)" d="M 24559,5266 L 24610,5266"/>
         <path fill="none" stroke="rgb(128,0,0)" d="M 24661,5266 L 24712,5266"/>
         <path fill="none" stroke="rgb(128,0,0)" d="M 24763,5266 L 24814,5266"/>
         <path fill="none" stroke="rgb(128,0,0)" d="M 24865,5266 L 24916,5266"/>
         <path fill="none" stroke="rgb(128,0,0)" d="M 24967,5266 L 25018,5266"/>
         <path fill="none" stroke="rgb(128,0,0)" d="M 25069,5266 L 25120,5266"/>
         <path fill="none" stroke="rgb(128,0,0)" d="M 25171,5266 L 25222,5266"/>
         <path fill="none" stroke="rgb(128,0,0)" d="M 25273,5266 L 25324,5266"/>
         <path fill="none" stroke="rgb(128,0,0)" d="M 25375,5266 L 25426,5266"/>
         <path fill="none" stroke="rgb(128,0,0)" d="M 25477,5266 L 25528,5266"/>
         <path fill="none" stroke="rgb(128,0,0)" d="M 25579,5266 L 25630,5266"/>
         <path fill="none" stroke="rgb(128,0,0)" d="M 25681,5266 L 25732,5266"/>
         <path fill="none" stroke="rgb(128,0,0)" d="M 25783,5266 L 25834,5266"/>
         <path fill="none" stroke="rgb(128,0,0)" d="M 25885,5266 L 25936,5266"/>
         <path fill="none" stroke="rgb(128,0,0)" d="M 25987,5266 L 26038,5266"/>
         <path fill="none" stroke="rgb(128,0,0)" d="M 26089,5266 L 26140,5266"/>
         <path fill="none" stroke="rgb(128,0,0)" d="M 26191,5266 L 26242,5266"/>
         <path fill="none" stroke="rgb(128,0,0)" d="M 26293,5266 L 26344,5266"/>
         <path fill="none" stroke="rgb(128,0,0)" d="M 26395,5266 L 26446,5266"/>
         <path fill="none" stroke="rgb(128,0,0)" d="M 26497,5266 L 26548,5266"/>
         <path fill="none" stroke="rgb(128,0,0)" d="M 26599,5266 L 26650,5266"/>
         <path fill="none" stroke="rgb(128,0,0)" d="M 26701,5266 L 26752,5266"/>
         <path fill="none" stroke="rgb(128,0,0)" d="M 26803,5266 L 26854,5266"/>
         <path fill="none" stroke="rgb(128,0,0)" d="M 26905,5266 L 26956,5266"/>
         <path fill="none" stroke="rgb(128,0,0)" d="M 27007,5266 L 27058,5266"/>
         <path fill="none" stroke="rgb(128,0,0)" d="M 27109,5266 L 27156,5266 27156,5270"/>
         <path fill="none" stroke="rgb(128,0,0)" d="M 27156,5321 L 27156,5372"/>
         <path fill="none" stroke="rgb(128,0,0)" d="M 27156,5423 L 27156,5474"/>
         <path fill="none" stroke="rgb(128,0,0)" d="M 27156,5525 L 27156,5576"/>
         <path fill="none" stroke="rgb(128,0,0)" d="M 27156,5627 L 27156,5678"/>
         <path fill="none" stroke="rgb(128,0,0)" d="M 27112,5685 L 27061,5685"/>
         <path fill="none" stroke="rgb(128,0,0)" d="M 27010,5685 L 26959,5685"/>
         <path fill="none" stroke="rgb(128,0,0)" d="M 26908,5685 L 26857,5685"/>
         <path fill="none" stroke="rgb(128,0,0)" d="M 26806,5685 L 26755,5685"/>
         <path fill="none" stroke="rgb(128,0,0)" d="M 26704,5685 L 26653,5685"/>
         <path fill="none" stroke="rgb(128,0,0)" d="M 26602,5685 L 26551,5685"/>
         <path fill="none" stroke="rgb(128,0,0)" d="M 26500,5685 L 26449,5685"/>
         <path fill="none" stroke="rgb(128,0,0)" d="M 26398,5685 L 26347,5685"/>
         <path fill="none" stroke="rgb(128,0,0)" d="M 26296,5685 L 26245,5685"/>
         <path fill="none" stroke="rgb(128,0,0)" d="M 26194,5685 L 26143,5685"/>
         <path fill="none" stroke="rgb(128,0,0)" d="M 26092,5685 L 26041,5685"/>
         <path fill="none" stroke="rgb(128,0,0)" d="M 25990,5685 L 25939,5685"/>
         <path fill="none" stroke="rgb(128,0,0)" d="M 25888,5685 L 25837,5685"/>
         <path fill="none" stroke="rgb(128,0,0)" d="M 25786,5685 L 25735,5685"/>
         <path fill="none" stroke="rgb(128,0,0)" d="M 25684,5685 L 25633,5685"/>
         <path fill="none" stroke="rgb(128,0,0)" d="M 25582,5685 L 25531,5685"/>
         <path fill="none" stroke="rgb(128,0,0)" d="M 25480,5685 L 25429,5685"/>
         <path fill="none" stroke="rgb(128,0,0)" d="M 25378,5685 L 25327,5685"/>
         <path fill="none" stroke="rgb(128,0,0)" d="M 25276,5685 L 25225,5685"/>
         <path fill="none" stroke="rgb(128,0,0)" d="M 25174,5685 L 25123,5685"/>
         <path fill="none" stroke="rgb(128,0,0)" d="M 25072,5685 L 25021,5685"/>
         <path fill="none" stroke="rgb(128,0,0)" d="M 24970,5685 L 24919,5685"/>
         <path fill="none" stroke="rgb(128,0,0)" d="M 24868,5685 L 24817,5685"/>
         <path fill="none" stroke="rgb(128,0,0)" d="M 24766,5685 L 24715,5685"/>
         <path fill="none" stroke="rgb(128,0,0)" d="M 24664,5685 L 24613,5685"/>
         <path fill="none" stroke="rgb(128,0,0)" d="M 24562,5685 L 24511,5685"/>
         <path fill="none" stroke="rgb(128,0,0)" d="M 24460,5685 L 24409,5685"/>
         <path fill="none" stroke="rgb(128,0,0)" d="M 24358,5685 L 24307,5685"/>
         <path fill="none" stroke="rgb(128,0,0)" d="M 24256,5685 L 24205,5685"/>
         <path fill="none" stroke="rgb(128,0,0)" d="M 24154,5685 L 24103,5685"/>
         <path fill="none" stroke="rgb(128,0,0)" d="M 24052,5685 L 24001,5685"/>
         <path fill="none" stroke="rgb(128,0,0)" d="M 23950,5685 L 23899,5685"/>
         <path fill="none" stroke="rgb(128,0,0)" d="M 23848,5685 L 23797,5685"/>
         <path fill="none" stroke="rgb(128,0,0)" d="M 23746,5685 L 23695,5685"/>
         <path fill="none" stroke="rgb(128,0,0)" d="M 23644,5685 L 23593,5685"/>
         <path fill="none" stroke="rgb(128,0,0)" d="M 23542,5685 L 23491,5685"/>
         <path fill="none" stroke="rgb(128,0,0)" d="M 23440,5685 L 23389,5685"/>
         <path fill="none" stroke="rgb(128,0,0)" d="M 23338,5685 L 23287,5685"/>
         <path fill="none" stroke="rgb(128,0,0)" d="M 23236,5685 L 23185,5685"/>
         <path fill="none" stroke="rgb(128,0,0)" d="M 23134,5685 L 23098,5685"/>
        </g>
       </g>
       <g class="com.sun.star.drawing.CustomShape">
        <g id="id60">
         <rect class="BoundingBox" stroke="none" fill="none" x="27156" y="3121" width="709" height="2351"/>
         <path fill="none" stroke="rgb(128,0,0)" d="M 27157,3122 C 27184,3122 27211,3124 27238,3129"/>
         <path fill="none" stroke="rgb(128,0,0)" d="M 27264,3133 C 27291,3139 27317,3147 27342,3156"/>
         <path fill="none" stroke="rgb(128,0,0)" d="M 27367,3167 C 27393,3178 27416,3192 27437,3206"/>
         <path fill="none" stroke="rgb(128,0,0)" d="M 27458,3223 C 27481,3244 27497,3265 27505,3288"/>
         <path fill="none" stroke="rgb(128,0,0)" d="M 27510,3314 C 27510,3315 27510,3316 27510,3317 L 27510,3395"/>
         <path fill="none" stroke="rgb(128,0,0)" d="M 27510,3422 L 27510,3503"/>
         <path fill="none" stroke="rgb(128,0,0)" d="M 27510,3530 L 27510,3611"/>
         <path fill="none" stroke="rgb(128,0,0)" d="M 27510,3638 L 27510,3719"/>
         <path fill="none" stroke="rgb(128,0,0)" d="M 27510,3746 L 27510,3826"/>
         <path fill="none" stroke="rgb(128,0,0)" d="M 27510,3853 L 27510,3934"/>
         <path fill="none" stroke="rgb(128,0,0)" d="M 27510,3961 L 27510,4042"/>
         <path fill="none" stroke="rgb(128,0,0)" d="M 27510,4069 L 27510,4100 C 27510,4116 27515,4132 27523,4147"/>
         <path fill="none" stroke="rgb(128,0,0)" d="M 27538,4170 C 27554,4188 27574,4206 27599,4222"/>
         <path fill="none" stroke="rgb(128,0,0)" d="M 27623,4236 C 27645,4248 27670,4259 27697,4268"/>
         <path fill="none" stroke="rgb(128,0,0)" d="M 27723,4276 C 27748,4283 27775,4289 27802,4292"/>
         <path fill="none" stroke="rgb(128,0,0)" d="M 27829,4295 C 27840,4296 27852,4296 27863,4296 27847,4296 27832,4297 27816,4298"/>
         <path fill="none" stroke="rgb(128,0,0)" d="M 27790,4301 C 27762,4305 27736,4311 27711,4319"/>
         <path fill="none" stroke="rgb(128,0,0)" d="M 27685,4328 C 27658,4337 27634,4349 27612,4362"/>
         <path fill="none" stroke="rgb(128,0,0)" d="M 27589,4376 C 27564,4393 27544,4412 27531,4432"/>
         <path fill="none" stroke="rgb(128,0,0)" d="M 27518,4455 C 27513,4467 27510,4479 27510,4491 L 27510,4535"/>
         <path fill="none" stroke="rgb(128,0,0)" d="M 27510,4562 L 27510,4643"/>
         <path fill="none" stroke="rgb(128,0,0)" d="M 27510,4670 L 27510,4751"/>
         <path fill="none" stroke="rgb(128,0,0)" d="M 27510,4778 L 27510,4858"/>
         <path fill="none" stroke="rgb(128,0,0)" d="M 27510,4885 L 27510,4966"/>
         <path fill="none" stroke="rgb(128,0,0)" d="M 27510,4993 L 27510,5074"/>
         <path fill="none" stroke="rgb(128,0,0)" d="M 27510,5101 L 27510,5182"/>
         <path fill="none" stroke="rgb(128,0,0)" d="M 27510,5209 L 27510,5274 C 27510,5279 27510,5284 27509,5289"/>
         <path fill="none" stroke="rgb(128,0,0)" d="M 27500,5315 C 27490,5336 27472,5357 27448,5376"/>
         <path fill="none" stroke="rgb(128,0,0)" d="M 27427,5392 C 27406,5406 27381,5419 27355,5430"/>
         <path fill="none" stroke="rgb(128,0,0)" d="M 27330,5440 C 27305,5449 27279,5456 27252,5461"/>
         <path fill="none" stroke="rgb(128,0,0)" d="M 27225,5465 C 27203,5468 27180,5470 27157,5470"/>
        </g>
       </g>
      </g>
     </g>
    </g>
   </g>
  </g>
 </g>
</svg>