<?xml version="1.0" encoding="UTF-8"?>
<!DOCTYPE svg PUBLIC "-//W3C//DTD SVG 1.1//EN" "http://www.w3.org/Graphics/SVG/1.1/DTD/svg11.dtd">
<svg version="1.2" width="165.1mm" height="147.32mm" viewBox="0 0 16510 14732" preserveAspectRatio="xMidYMid" fill-rule="evenodd" stroke-width="28.222" stroke-linejoin="round" xmlns="http://www.w3.org/2000/svg" xmlns:ooo="http://xml.openoffice.org/svg/export" xmlns:xlink="http://www.w3.org/1999/xlink" xmlns:presentation="http://sun.com/xmlns/staroffice/presentation" xmlns:smil="http://www.w3.org/2001/SMIL20/" xmlns:anim="urn:oasis:names:tc:opendocument:xmlns:animation:1.0" xml:space="preserve">
 <defs class="ClipPathGroup">
  <clipPath id="presentation_clip_path" clipPathUnits="userSpaceOnUse">
   <rect x="0" y="0" width="16510" height="14732"/>
  </clipPath>
  <clipPath id="presentation_clip_path_shrink" clipPathUnits="userSpaceOnUse">
   <rect x="16" y="14" width="16477" height="14703"/>
  </clipPath>
 </defs>
 <defs>
  <font id="EmbeddedFont_1" horiz-adv-x="2048">
   <font-face font-family="Arial embedded" units-per-em="2048" font-weight="normal" font-style="normal" ascent="1852" descent="423"/>
   <missing-glyph horiz-adv-x="2048" d="M 0,0 L 2047,0 2047,2047 0,2047 0,0 Z"/>
   <glyph unicode="y" horiz-adv-x="980" d="M 127,-409 L 107,-240 C 146,-251 181,-256 210,-256 250,-256 282,-249 306,-236 330,-223 350,-204 365,-180 376,-162 395,-117 420,-46 423,-36 429,-21 436,-2 L 33,1062 227,1062 448,447 C 477,369 502,287 525,201 546,284 570,364 599,443 L 826,1062 1006,1062 602,-18 C 559,-135 525,-215 501,-259 469,-318 432,-362 391,-390 350,-417 300,-431 243,-431 208,-431 170,-424 127,-409 Z"/>
   <glyph unicode="x" horiz-adv-x="1006" d="M 15,0 L 403,552 44,1062 269,1062 432,813 C 463,766 487,726 506,694 535,738 562,777 587,811 L 766,1062 981,1062 614,562 1009,0 788,0 570,330 512,419 233,0 15,0 Z"/>
   <glyph unicode="w" horiz-adv-x="1456" d="M 331,0 L 6,1062 192,1062 361,449 424,221 C 427,232 445,305 479,440 L 648,1062 833,1062 992,446 1045,243 1106,448 1288,1062 1463,1062 1131,0 944,0 775,636 734,817 519,0 331,0 Z"/>
   <glyph unicode="v" horiz-adv-x="1006" d="M 430,0 L 26,1062 216,1062 444,426 C 469,357 491,286 512,212 528,268 550,335 579,414 L 815,1062 1000,1062 598,0 430,0 Z"/>
   <glyph unicode="u" horiz-adv-x="900" d="M 831,0 L 831,156 C 748,36 636,-24 494,-24 431,-24 373,-12 319,12 264,36 224,66 198,103 171,139 153,183 142,236 135,271 131,327 131,404 L 131,1062 311,1062 311,473 C 311,379 315,316 322,283 333,236 357,199 394,172 431,145 476,131 530,131 584,131 635,145 682,173 729,200 763,238 783,286 802,333 812,402 812,493 L 812,1062 992,1062 992,0 831,0 Z"/>
   <glyph unicode="t" horiz-adv-x="531" d="M 528,161 L 554,2 C 503,-9 458,-14 418,-14 353,-14 302,-4 266,17 230,38 205,65 190,99 175,132 168,203 168,311 L 168,922 36,922 36,1062 168,1062 168,1325 347,1433 347,1062 528,1062 528,922 347,922 347,301 C 347,250 350,217 357,202 363,187 373,176 388,167 402,158 422,154 449,154 469,154 495,156 528,161 Z"/>
   <glyph unicode="s" horiz-adv-x="901" d="M 63,317 L 241,345 C 251,274 279,219 325,181 370,143 434,124 516,124 599,124 660,141 700,175 740,208 760,248 760,293 760,334 742,366 707,389 682,405 621,425 523,450 391,483 300,512 249,537 198,561 159,595 133,638 106,681 93,728 93,780 93,827 104,871 126,912 147,952 177,985 214,1012 242,1033 280,1050 329,1065 377,1079 429,1086 484,1086 567,1086 641,1074 704,1050 767,1026 813,994 843,953 873,912 894,857 905,788 L 729,764 C 721,819 698,861 660,892 621,923 567,938 497,938 414,938 355,924 320,897 285,870 267,838 267,801 267,778 274,757 289,738 304,719 327,703 358,690 376,683 429,668 517,644 644,610 733,582 784,561 834,539 873,507 902,466 931,425 945,373 945,312 945,252 928,196 893,143 858,90 807,49 741,20 675,-9 600,-24 517,-24 379,-24 274,5 202,62 129,119 83,204 63,317 Z"/>
   <glyph unicode="r" horiz-adv-x="583" d="M 133,0 L 133,1062 295,1062 295,901 C 336,976 375,1026 410,1050 445,1074 483,1086 525,1086 586,1086 647,1067 710,1028 L 648,861 C 604,887 560,900 516,900 477,900 441,888 410,865 379,841 356,808 343,766 323,702 313,632 313,556 L 313,0 133,0 Z"/>
   <glyph unicode="q" horiz-adv-x="953" d="M 812,-407 L 812,113 C 784,74 745,41 695,15 644,-11 591,-24 534,-24 408,-24 300,26 209,127 118,228 72,366 72,541 72,648 91,743 128,828 165,913 218,977 289,1021 359,1064 436,1086 520,1086 651,1086 755,1031 830,920 L 830,1062 992,1062 992,-407 812,-407 Z M 257,534 C 257,397 286,295 343,227 400,158 469,124 549,124 626,124 692,157 747,222 802,287 830,385 830,518 830,659 801,766 743,837 684,908 616,944 537,944 459,944 393,911 339,845 284,778 257,675 257,534 Z"/>
   <glyph unicode="p" horiz-adv-x="927" d="M 135,-407 L 135,1062 299,1062 299,924 C 338,978 381,1019 430,1046 479,1073 538,1086 607,1086 698,1086 778,1063 847,1016 916,969 969,904 1004,819 1039,734 1057,640 1057,539 1057,430 1038,333 999,246 960,159 903,92 829,46 754,-1 676,-24 594,-24 534,-24 480,-11 433,14 385,39 346,71 315,110 L 315,-407 135,-407 Z M 298,525 C 298,388 326,287 381,222 436,157 503,124 582,124 662,124 731,158 788,226 845,293 873,398 873,540 873,675 845,777 790,844 734,911 667,945 590,945 513,945 446,909 387,838 328,766 298,662 298,525 Z"/>
   <glyph unicode="o" horiz-adv-x="1006" d="M 68,531 C 68,728 123,873 232,968 323,1047 435,1086 566,1086 712,1086 831,1038 924,943 1017,847 1063,715 1063,546 1063,409 1043,302 1002,224 961,145 901,84 823,41 744,-2 659,-24 566,-24 417,-24 297,24 206,119 114,214 68,352 68,531 Z M 253,531 C 253,395 283,293 342,226 401,158 476,124 566,124 655,124 730,158 789,226 848,294 878,398 878,537 878,668 848,768 789,836 729,903 655,937 566,937 476,937 401,903 342,836 283,769 253,667 253,531 Z"/>
   <glyph unicode="n" horiz-adv-x="874" d="M 135,0 L 135,1062 297,1062 297,911 C 375,1028 488,1086 635,1086 699,1086 758,1075 812,1052 865,1029 905,998 932,961 959,924 977,879 988,828 995,795 998,736 998,653 L 998,0 818,0 818,646 C 818,719 811,774 797,811 783,847 758,876 723,898 687,919 645,930 597,930 520,930 454,906 399,857 343,808 315,716 315,580 L 315,0 135,0 Z"/>
   <glyph unicode="m" horiz-adv-x="1457" d="M 135,0 L 135,1062 296,1062 296,913 C 329,965 374,1007 429,1039 484,1070 547,1086 618,1086 697,1086 761,1070 812,1037 862,1004 897,959 918,900 1002,1024 1111,1086 1246,1086 1351,1086 1432,1057 1489,999 1546,940 1574,850 1574,729 L 1574,0 1395,0 1395,669 C 1395,741 1389,793 1378,825 1366,856 1345,882 1314,901 1283,920 1247,930 1206,930 1131,930 1069,905 1020,856 971,806 946,726 946,617 L 946,0 766,0 766,690 C 766,770 751,830 722,870 693,910 645,930 578,930 527,930 481,917 438,890 395,863 363,824 344,773 325,722 315,648 315,551 L 315,0 135,0 Z"/>
   <glyph unicode="l" horiz-adv-x="213" d="M 131,0 L 131,1466 311,1466 311,0 131,0 Z"/>
   <glyph unicode="k" horiz-adv-x="901" d="M 136,0 L 136,1466 316,1466 316,630 742,1062 975,1062 569,668 1016,0 794,0 443,543 316,421 316,0 136,0 Z"/>
   <glyph unicode="i" horiz-adv-x="187" d="M 136,1259 L 136,1466 316,1466 316,1259 136,1259 Z M 136,0 L 136,1062 316,1062 316,0 136,0 Z"/>
   <glyph unicode="h" horiz-adv-x="874" d="M 135,0 L 135,1466 315,1466 315,940 C 399,1037 505,1086 633,1086 712,1086 780,1071 838,1040 896,1009 938,966 963,911 988,856 1000,777 1000,673 L 1000,0 820,0 820,673 C 820,763 801,829 762,870 723,911 667,931 596,931 543,931 493,917 446,890 399,862 365,824 345,777 325,730 315,664 315,581 L 315,0 135,0 Z"/>
   <glyph unicode="g" horiz-adv-x="953" d="M 102,-88 L 277,-114 C 284,-168 305,-207 338,-232 383,-265 444,-282 521,-282 604,-282 669,-265 714,-232 759,-199 790,-152 806,-92 815,-55 820,22 819,139 740,46 642,0 525,0 379,0 266,53 186,158 106,263 66,390 66,537 66,638 84,732 121,818 158,903 211,969 281,1016 350,1063 432,1086 526,1086 651,1086 755,1035 836,934 L 836,1062 1002,1062 1002,144 C 1002,-21 985,-138 952,-208 918,-276 865,-331 792,-371 719,-411 629,-431 522,-431 395,-431 293,-402 215,-346 137,-288 99,-203 102,-88 Z M 251,550 C 251,411 279,309 334,245 389,181 459,149 542,149 625,149 694,181 750,245 806,308 834,408 834,544 834,674 805,772 748,838 690,904 620,937 539,937 459,937 391,905 335,840 279,775 251,678 251,550 Z"/>
   <glyph unicode="f" horiz-adv-x="662" d="M 178,0 L 178,922 19,922 19,1062 178,1062 178,1175 C 178,1246 184,1299 197,1334 214,1381 245,1419 289,1448 332,1477 393,1491 472,1491 523,1491 579,1485 640,1473 L 613,1316 C 576,1323 540,1326 507,1326 452,1326 414,1314 391,1291 368,1268 357,1224 357,1160 L 357,1062 564,1062 564,922 357,922 357,0 178,0 Z"/>
   <glyph unicode="e" horiz-adv-x="1006" d="M 862,342 L 1048,319 C 1019,210 964,126 885,66 806,6 704,-24 581,-24 426,-24 303,24 212,120 121,215 75,349 75,522 75,701 121,839 213,938 305,1037 424,1086 571,1086 713,1086 829,1038 919,941 1009,844 1054,708 1054,533 1054,522 1054,506 1053,485 L 261,485 C 268,368 301,279 360,217 419,155 493,124 582,124 648,124 704,141 751,176 798,211 835,266 862,342 Z M 271,633 L 864,633 C 856,722 833,789 796,834 739,903 664,938 573,938 490,938 421,910 365,855 308,800 277,726 271,633 Z"/>
   <glyph unicode="d" horiz-adv-x="953" d="M 824,0 L 824,134 C 757,29 658,-24 527,-24 442,-24 365,-1 294,46 223,93 168,158 129,242 90,325 70,421 70,530 70,636 88,732 123,819 158,905 211,971 282,1017 353,1063 432,1086 519,1086 583,1086 640,1073 690,1046 740,1019 781,983 812,940 L 812,1466 991,1466 991,0 824,0 Z M 255,530 C 255,394 284,292 341,225 398,158 466,124 544,124 623,124 690,156 745,221 800,285 827,383 827,515 827,660 799,767 743,835 687,903 618,937 536,937 456,937 389,904 336,839 282,774 255,671 255,530 Z"/>
   <glyph unicode="c" horiz-adv-x="927" d="M 828,389 L 1005,366 C 986,244 936,149 857,80 777,11 679,-24 563,-24 418,-24 301,24 213,119 124,214 80,350 80,527 80,642 99,742 137,828 175,914 233,979 311,1022 388,1065 473,1086 564,1086 679,1086 774,1057 847,999 920,940 967,857 988,750 L 813,723 C 796,794 767,848 725,884 682,920 631,938 571,938 480,938 407,906 350,841 293,776 265,673 265,532 265,389 292,286 347,221 402,156 473,124 561,124 632,124 691,146 738,189 785,232 815,299 828,389 Z"/>
   <glyph unicode="b" horiz-adv-x="927" d="M 301,0 L 134,0 134,1466 314,1466 314,943 C 390,1038 487,1086 605,1086 670,1086 732,1073 791,1047 849,1020 897,983 935,936 972,888 1002,830 1023,763 1044,696 1055,624 1055,547 1055,365 1010,224 920,125 830,26 722,-24 596,-24 471,-24 372,28 301,133 L 301,0 Z M 299,539 C 299,412 316,320 351,263 408,170 484,124 581,124 660,124 728,158 785,227 842,295 871,397 871,532 871,671 844,773 789,839 734,905 667,938 589,938 510,938 442,904 385,836 328,767 299,668 299,539 Z"/>
   <glyph unicode="a" horiz-adv-x="1006" d="M 828,131 C 761,74 697,34 636,11 574,-12 508,-24 437,-24 320,-24 231,5 168,62 105,119 74,191 74,280 74,332 86,380 110,423 133,466 164,500 203,526 241,552 284,572 332,585 367,594 421,603 492,612 637,629 744,650 813,674 814,699 814,714 814,721 814,794 797,846 763,876 717,917 649,937 558,937 473,937 411,922 371,893 330,863 300,810 281,735 L 105,759 C 121,834 147,895 184,942 221,988 274,1024 343,1049 412,1074 493,1086 584,1086 675,1086 748,1075 805,1054 862,1033 903,1006 930,974 957,941 975,900 986,851 992,820 995,765 995,685 L 995,445 C 995,278 999,172 1007,128 1014,83 1029,41 1052,0 L 864,0 C 845,37 833,81 828,131 Z M 813,533 C 748,506 650,484 519,465 445,454 393,442 362,429 331,416 308,396 291,371 274,345 266,316 266,285 266,237 284,197 321,165 357,133 410,117 480,117 549,117 611,132 665,163 719,193 759,234 784,287 803,328 813,388 813,467 L 813,533 Z"/>
   <glyph unicode="X" horiz-adv-x="1350" d="M 9,0 L 576,764 76,1466 307,1466 573,1090 C 628,1012 668,952 691,910 724,963 762,1019 807,1077 L 1102,1466 1313,1466 798,775 1353,0 1113,0 744,523 C 723,553 702,586 680,621 647,568 624,531 610,511 L 242,0 9,0 Z"/>
   <glyph unicode="U" horiz-adv-x="1165" d="M 1120,1466 L 1314,1466 1314,619 C 1314,472 1297,355 1264,268 1231,181 1171,111 1084,57 997,2 882,-25 741,-25 604,-25 491,-1 404,46 317,93 254,162 217,252 180,341 161,464 161,619 L 161,1466 355,1466 355,620 C 355,493 367,399 391,339 414,278 455,232 513,199 570,166 641,150 724,150 867,150 968,182 1029,247 1090,312 1120,436 1120,620 L 1120,1466 Z"/>
   <glyph unicode="T" horiz-adv-x="1192" d="M 531,0 L 531,1293 48,1293 48,1466 1210,1466 1210,1293 725,1293 725,0 531,0 Z"/>
   <glyph unicode="S" horiz-adv-x="1192" d="M 92,471 L 275,487 C 284,414 304,354 336,307 367,260 416,222 483,193 550,164 625,149 708,149 782,149 847,160 904,182 961,204 1003,234 1031,273 1058,311 1072,353 1072,398 1072,444 1059,484 1032,519 1005,553 961,582 900,605 861,620 774,644 639,677 504,709 410,739 356,768 286,805 234,850 200,905 165,959 148,1020 148,1087 148,1161 169,1230 211,1295 253,1359 314,1408 395,1441 476,1474 565,1491 664,1491 773,1491 869,1474 952,1439 1035,1404 1098,1352 1143,1284 1188,1216 1212,1139 1215,1053 L 1029,1039 C 1019,1132 985,1202 928,1249 870,1296 785,1320 672,1320 555,1320 469,1299 416,1256 362,1213 335,1161 335,1100 335,1047 354,1004 392,970 429,936 527,901 685,866 842,830 950,799 1009,772 1094,733 1157,683 1198,623 1239,562 1259,493 1259,414 1259,336 1237,263 1192,194 1147,125 1083,71 1000,33 916,-6 822,-25 717,-25 584,-25 473,-6 384,33 294,72 224,130 173,208 122,285 95,373 92,471 Z"/>
   <glyph unicode="O" horiz-adv-x="1430" d="M 99,714 C 99,957 164,1148 295,1286 426,1423 594,1492 801,1492 936,1492 1058,1460 1167,1395 1276,1330 1359,1240 1416,1125 1473,1009 1501,878 1501,731 1501,582 1471,449 1411,332 1351,215 1266,126 1156,66 1046,5 927,-25 800,-25 662,-25 539,8 430,75 321,142 239,233 183,348 127,463 99,585 99,714 Z M 299,711 C 299,534 347,395 442,294 537,192 656,141 799,141 945,141 1065,192 1160,295 1254,398 1301,543 1301,732 1301,851 1281,956 1241,1045 1200,1134 1141,1203 1064,1252 986,1301 899,1325 802,1325 665,1325 547,1278 448,1184 349,1089 299,932 299,711 Z"/>
   <glyph unicode="M" horiz-adv-x="1430" d="M 152,0 L 152,1466 444,1466 791,428 C 823,331 846,259 861,211 878,264 904,343 939,446 L 1290,1466 1551,1466 1551,0 1364,0 1364,1227 938,0 763,0 339,1248 339,0 152,0 Z"/>
   <glyph unicode="L" horiz-adv-x="954" d="M 150,0 L 150,1466 344,1466 344,173 1066,173 1066,0 150,0 Z"/>
   <glyph unicode="F" horiz-adv-x="1006" d="M 168,0 L 168,1466 1157,1466 1157,1293 362,1293 362,839 1050,839 1050,666 362,666 362,0 168,0 Z"/>
   <glyph unicode="D" horiz-adv-x="1245" d="M 158,0 L 158,1466 663,1466 C 777,1466 864,1459 924,1445 1008,1426 1080,1391 1139,1340 1216,1275 1274,1191 1313,1090 1351,988 1370,872 1370,741 1370,630 1357,531 1331,445 1305,359 1272,288 1231,232 1190,175 1146,131 1098,99 1049,66 991,42 923,25 854,8 776,0 687,0 L 158,0 Z M 352,173 L 665,173 C 762,173 838,182 893,200 948,218 991,243 1024,276 1070,322 1106,384 1132,462 1157,539 1170,633 1170,744 1170,897 1145,1015 1095,1098 1044,1180 983,1235 911,1263 859,1283 775,1293 660,1293 L 352,1293 352,173 Z"/>
   <glyph unicode="?" horiz-adv-x="954" d="M 472,361 C 471,385 471,403 471,415 471,486 481,547 501,598 516,637 539,676 572,715 596,744 639,786 702,841 764,896 804,939 823,972 842,1005 851,1040 851,1079 851,1149 824,1211 769,1264 714,1317 647,1343 568,1343 491,1343 427,1319 376,1271 325,1223 291,1148 275,1046 L 90,1068 C 107,1205 156,1309 239,1382 321,1455 430,1491 565,1491 708,1491 823,1452 908,1374 993,1296 1036,1202 1036,1091 1036,1027 1021,968 991,914 961,860 902,794 815,717 756,665 718,627 700,602 682,577 669,549 660,517 651,485 646,433 645,361 L 472,361 Z M 461,0 L 461,205 666,205 666,0 461,0 Z"/>
   <glyph unicode="&gt;" horiz-adv-x="980" d="M 1083,641 L 112,226 112,405 881,724 112,1040 112,1219 1083,809 1083,641 Z"/>
   <glyph unicode="=" horiz-adv-x="980" d="M 1082,862 L 114,862 114,1030 1082,1030 1082,862 Z M 1082,417 L 114,417 114,585 1082,585 1082,417 Z"/>
   <glyph unicode="&lt;" horiz-adv-x="980" d="M 112,641 L 112,809 1083,1219 1083,1040 313,724 1083,405 1083,226 112,641 Z"/>
   <glyph unicode=":" horiz-adv-x="239" d="M 185,857 L 185,1062 390,1062 390,857 185,857 Z M 185,0 L 185,205 390,205 390,0 185,0 Z"/>
   <glyph unicode="8" horiz-adv-x="980" d="M 362,795 C 287,822 232,861 196,912 160,963 142,1023 142,1094 142,1201 180,1290 257,1363 334,1436 436,1472 563,1472 691,1472 794,1435 872,1361 950,1286 989,1196 989,1089 989,1021 971,962 936,912 900,861 846,822 773,795 863,766 932,718 979,653 1026,588 1049,510 1049,419 1049,294 1005,188 916,103 827,18 711,-25 566,-25 421,-25 305,18 216,104 127,189 83,296 83,424 83,519 107,599 156,664 204,728 273,772 362,795 Z M 326,1100 C 326,1031 348,974 393,930 438,886 496,864 567,864 636,864 693,886 738,930 782,973 804,1027 804,1090 804,1156 781,1212 736,1257 690,1302 633,1324 565,1324 496,1324 439,1302 394,1258 349,1214 326,1161 326,1100 Z M 268,423 C 268,372 280,322 305,274 329,226 365,189 413,163 461,136 513,123 568,123 654,123 725,151 781,206 837,261 865,332 865,417 865,504 836,575 779,632 721,689 649,717 562,717 477,717 407,689 352,633 296,577 268,507 268,423 Z"/>
   <glyph unicode="3" horiz-adv-x="980" d="M 86,387 L 266,411 C 287,309 322,236 372,191 421,146 482,123 553,123 638,123 709,152 768,211 826,270 855,342 855,429 855,512 828,580 774,634 720,687 651,714 568,714 534,714 492,707 441,694 L 461,852 C 473,851 483,850 490,850 567,850 636,870 697,910 758,950 789,1012 789,1095 789,1161 767,1216 722,1259 677,1302 620,1324 549,1324 479,1324 421,1302 374,1258 327,1214 297,1148 284,1060 L 104,1092 C 126,1213 176,1306 254,1373 332,1439 429,1472 545,1472 625,1472 699,1455 766,1421 833,1386 885,1339 921,1280 956,1221 974,1158 974,1091 974,1028 957,970 923,918 889,866 839,825 772,794 859,774 926,733 974,670 1022,607 1046,528 1046,433 1046,305 999,197 906,108 813,19 695,-26 552,-26 423,-26 317,12 232,89 147,166 98,265 86,387 Z"/>
   <glyph unicode="2" horiz-adv-x="980" d="M 1031,173 L 1031,0 62,0 C 61,43 68,85 83,125 108,191 147,256 202,320 256,384 334,458 437,542 596,673 704,776 760,853 816,929 844,1001 844,1069 844,1140 819,1201 768,1250 717,1299 650,1323 568,1323 481,1323 412,1297 360,1245 308,1193 282,1121 281,1029 L 96,1048 C 109,1186 156,1291 239,1364 322,1436 433,1472 572,1472 713,1472 824,1433 906,1355 988,1277 1029,1180 1029,1065 1029,1006 1017,949 993,892 969,835 929,776 874,713 818,650 725,564 596,455 488,364 419,303 388,271 357,238 332,206 312,173 L 1031,173 Z"/>
   <glyph unicode="1" horiz-adv-x="556" d="M 763,0 L 583,0 583,1147 C 540,1106 483,1064 413,1023 342,982 279,951 223,930 L 223,1104 C 324,1151 412,1209 487,1276 562,1343 616,1409 647,1472 L 763,1472 763,0 Z"/>
   <glyph unicode="0" horiz-adv-x="980" d="M 85,723 C 85,896 103,1036 139,1142 174,1247 227,1329 298,1386 368,1443 456,1472 563,1472 642,1472 711,1456 770,1425 829,1393 878,1347 917,1288 956,1228 986,1155 1008,1070 1030,984 1041,868 1041,723 1041,551 1023,412 988,307 953,201 900,119 830,62 759,4 670,-25 563,-25 422,-25 311,26 230,127 133,249 85,448 85,723 Z M 270,723 C 270,482 298,322 355,243 411,163 480,123 563,123 646,123 715,163 772,243 828,323 856,483 856,723 856,964 828,1125 772,1204 715,1283 645,1323 561,1323 478,1323 412,1288 363,1218 301,1129 270,964 270,723 Z"/>
   <glyph unicode="/" horiz-adv-x="583" d="M 0,-25 L 425,1491 569,1491 145,-25 0,-25 Z"/>
   <glyph unicode="." horiz-adv-x="213" d="M 186,0 L 186,205 391,205 391,0 186,0 Z"/>
   <glyph unicode="-" horiz-adv-x="583" d="M 65,440 L 65,621 618,621 618,440 65,440 Z"/>
   <glyph unicode="&quot;" horiz-adv-x="557" d="M 144,947 L 94,1226 94,1466 299,1466 299,1226 254,947 144,947 Z M 475,947 L 426,1226 426,1466 631,1466 631,1226 583,947 475,947 Z"/>
   <glyph unicode=" " horiz-adv-x="556"/>
  </font>
 </defs>
 <defs class="TextShapeIndex">
  <g ooo:slide="id1" ooo:id-list="id3 id4 id5 id6 id7 id8 id9 id10 id11 id12 id13 id14 id15 id16"/>
 </defs>
 <defs class="EmbeddedBulletChars">
  <g id="bullet-char-template-57356" transform="scale(0.00048828125,-0.00048828125)">
   <path d="M 580,1141 L 1163,571 580,0 -4,571 580,1141 Z"/>
  </g>
  <g id="bullet-char-template-57354" transform="scale(0.00048828125,-0.00048828125)">
   <path d="M 8,1128 L 1137,1128 1137,0 8,0 8,1128 Z"/>
  </g>
  <g id="bullet-char-template-10146" transform="scale(0.00048828125,-0.00048828125)">
   <path d="M 174,0 L 602,739 174,1481 1456,739 174,0 Z M 1358,739 L 309,1346 659,739 1358,739 Z"/>
  </g>
  <g id="bullet-char-template-10132" transform="scale(0.00048828125,-0.00048828125)">
   <path d="M 2015,739 L 1276,0 717,0 1260,543 174,543 174,936 1260,936 717,1481 1274,1481 2015,739 Z"/>
  </g>
  <g id="bullet-char-template-10007" transform="scale(0.00048828125,-0.00048828125)">
   <path d="M 0,-2 C -7,14 -16,27 -25,37 L 356,567 C 262,823 215,952 215,954 215,979 228,992 255,992 264,992 276,990 289,987 310,991 331,999 354,1012 L 381,999 492,748 772,1049 836,1024 860,1049 C 881,1039 901,1025 922,1006 886,937 835,863 770,784 769,783 710,716 594,584 L 774,223 C 774,196 753,168 711,139 L 727,119 C 717,90 699,76 672,76 641,76 570,178 457,381 L 164,-76 C 142,-110 111,-127 72,-127 30,-127 9,-110 8,-76 1,-67 -2,-52 -2,-32 -2,-23 -1,-13 0,-2 Z"/>
  </g>
  <g id="bullet-char-template-10004" transform="scale(0.00048828125,-0.00048828125)">
   <path d="M 285,-33 C 182,-33 111,30 74,156 52,228 41,333 41,471 41,549 55,616 82,672 116,743 169,778 240,778 293,778 328,747 346,684 L 369,508 C 377,444 397,411 428,410 L 1163,1116 C 1174,1127 1196,1133 1229,1133 1271,1133 1292,1118 1292,1087 L 1292,965 C 1292,929 1282,901 1262,881 L 442,47 C 390,-6 338,-33 285,-33 Z"/>
  </g>
  <g id="bullet-char-template-9679" transform="scale(0.00048828125,-0.00048828125)">
   <path d="M 813,0 C 632,0 489,54 383,161 276,268 223,411 223,592 223,773 276,916 383,1023 489,1130 632,1184 813,1184 992,1184 1136,1130 1245,1023 1353,916 1407,772 1407,592 1407,412 1353,268 1245,161 1136,54 992,0 813,0 Z"/>
  </g>
  <g id="bullet-char-template-8226" transform="scale(0.00048828125,-0.00048828125)">
   <path d="M 346,457 C 273,457 209,483 155,535 101,586 74,649 74,723 74,796 101,859 155,911 209,963 273,989 346,989 419,989 480,963 531,910 582,859 608,796 608,723 608,648 583,586 532,535 482,483 420,457 346,457 Z"/>
  </g>
  <g id="bullet-char-template-8211" transform="scale(0.00048828125,-0.00048828125)">
   <path d="M -4,459 L 1135,459 1135,606 -4,606 -4,459 Z"/>
  </g>
  <g id="bullet-char-template-61548" transform="scale(0.00048828125,-0.00048828125)">
   <path d="M 173,740 C 173,903 231,1043 346,1159 462,1274 601,1332 765,1332 928,1332 1067,1274 1183,1159 1299,1043 1357,903 1357,740 1357,577 1299,437 1183,322 1067,206 928,148 765,148 601,148 462,206 346,322 231,437 173,577 173,740 Z"/>
  </g>
 </defs>
 <g>
  <g id="id2" class="Master_Slide">
   <g id="bg-id2" class="Background"/>
   <g id="bo-id2" class="BackgroundObjects"/>
  </g>
 </g>
 <g class="SlideGroup">
  <g>
   <g id="container-id1">
    <g id="id1" class="Slide" clip-path="url(#presentation_clip_path)">
     <g class="Page">
      <g class="com.sun.star.drawing.CustomShape">
       <g id="id3">
        <rect class="BoundingBox" stroke="none" fill="none" x="7215" y="2705" width="365" height="319"/>
       </g>
      </g>
      <g class="TextShape">
       <g id="id4">
        <rect class="BoundingBox" stroke="none" fill="none" x="1009" y="1057" width="14450" height="12501"/>
        <path fill="rgb(245,245,245)" stroke="none" d="M 8234,13556 L 1010,13556 1010,1058 15457,1058 15457,13556 8234,13556 Z"/>
        <path fill="none" stroke="rgb(52,101,164)" d="M 8234,13556 L 8183,13556"/>
        <path fill="none" stroke="rgb(52,101,164)" d="M 8132,13556 L 8081,13556"/>
        <path fill="none" stroke="rgb(52,101,164)" d="M 8030,13556 L 7979,13556"/>
        <path fill="none" stroke="rgb(52,101,164)" d="M 7928,13556 L 7877,13556"/>
        <path fill="none" stroke="rgb(52,101,164)" d="M 7826,13556 L 7775,13556"/>
        <path fill="none" stroke="rgb(52,101,164)" d="M 7724,13556 L 7673,13556"/>
        <path fill="none" stroke="rgb(52,101,164)" d="M 7622,13556 L 7571,13556"/>
        <path fill="none" stroke="rgb(52,101,164)" d="M 7520,13556 L 7469,13556"/>
        <path fill="none" stroke="rgb(52,101,164)" d="M 7418,13556 L 7367,13556"/>
        <path fill="none" stroke="rgb(52,101,164)" d="M 7316,13556 L 7265,13556"/>
        <path fill="none" stroke="rgb(52,101,164)" d="M 7214,13556 L 7163,13556"/>
        <path fill="none" stroke="rgb(52,101,164)" d="M 7112,13556 L 7061,13556"/>
        <path fill="none" stroke="rgb(52,101,164)" d="M 7010,13556 L 6959,13556"/>
        <path fill="none" stroke="rgb(52,101,164)" d="M 6908,13556 L 6857,13556"/>
        <path fill="none" stroke="rgb(52,101,164)" d="M 6806,13556 L 6755,13556"/>
        <path fill="none" stroke="rgb(52,101,164)" d="M 6704,13556 L 6653,13556"/>
        <path fill="none" stroke="rgb(52,101,164)" d="M 6602,13556 L 6551,13556"/>
        <path fill="none" stroke="rgb(52,101,164)" d="M 6500,13556 L 6449,13556"/>
        <path fill="none" stroke="rgb(52,101,164)" d="M 6398,13556 L 6347,13556"/>
        <path fill="none" stroke="rgb(52,101,164)" d="M 6296,13556 L 6245,13556"/>
        <path fill="none" stroke="rgb(52,101,164)" d="M 6194,13556 L 6143,13556"/>
        <path fill="none" stroke="rgb(52,101,164)" d="M 6092,13556 L 6041,13556"/>
        <path fill="none" stroke="rgb(52,101,164)" d="M 5990,13556 L 5939,13556"/>
        <path fill="none" stroke="rgb(52,101,164)" d="M 5888,13556 L 5837,13556"/>
        <path fill="none" stroke="rgb(52,101,164)" d="M 5786,13556 L 5735,13556"/>
        <path fill="none" stroke="rgb(52,101,164)" d="M 5684,13556 L 5633,13556"/>
        <path fill="none" stroke="rgb(52,101,164)" d="M 5582,13556 L 5531,13556"/>
        <path fill="none" stroke="rgb(52,101,164)" d="M 5480,13556 L 5429,13556"/>
        <path fill="none" stroke="rgb(52,101,164)" d="M 5378,13556 L 5327,13556"/>
        <path fill="none" stroke="rgb(52,101,164)" d="M 5276,13556 L 5225,13556"/>
        <path fill="none" stroke="rgb(52,101,164)" d="M 5174,13556 L 5123,13556"/>
        <path fill="none" stroke="rgb(52,101,164)" d="M 5072,13556 L 5021,13556"/>
        <path fill="none" stroke="rgb(52,101,164)" d="M 4970,13556 L 4919,13556"/>
        <path fill="none" stroke="rgb(52,101,164)" d="M 4868,13556 L 4817,13556"/>
        <path fill="none" stroke="rgb(52,101,164)" d="M 4766,13556 L 4715,13556"/>
        <path fill="none" stroke="rgb(52,101,164)" d="M 4664,13556 L 4613,13556"/>
        <path fill="none" stroke="rgb(52,101,164)" d="M 4562,13556 L 4511,13556"/>
        <path fill="none" stroke="rgb(52,101,164)" d="M 4460,13556 L 4409,13556"/>
        <path fill="none" stroke="rgb(52,101,164)" d="M 4358,13556 L 4307,13556"/>
        <path fill="none" stroke="rgb(52,101,164)" d="M 4256,13556 L 4205,13556"/>
        <path fill="none" stroke="rgb(52,101,164)" d="M 4154,13556 L 4103,13556"/>
        <path fill="none" stroke="rgb(52,101,164)" d="M 4052,13556 L 4001,13556"/>
        <path fill="none" stroke="rgb(52,101,164)" d="M 3950,13556 L 3899,13556"/>
        <path fill="none" stroke="rgb(52,101,164)" d="M 3848,13556 L 3797,13556"/>
        <path fill="none" stroke="rgb(52,101,164)" d="M 3746,13556 L 3695,13556"/>
        <path fill="none" stroke="rgb(52,101,164)" d="M 3644,13556 L 3593,13556"/>
        <path fill="none" stroke="rgb(52,101,164)" d="M 3542,13556 L 3491,13556"/>
        <path fill="none" stroke="rgb(52,101,164)" d="M 3440,13556 L 3389,13556"/>
        <path fill="none" stroke="rgb(52,101,164)" d="M 3338,13556 L 3287,13556"/>
        <path fill="none" stroke="rgb(52,101,164)" d="M 3236,13556 L 3185,13556"/>
        <path fill="none" stroke="rgb(52,101,164)" d="M 3134,13556 L 3083,13556"/>
        <path fill="none" stroke="rgb(52,101,164)" d="M 3032,13556 L 2981,13556"/>
        <path fill="none" stroke="rgb(52,101,164)" d="M 2930,13556 L 2879,13556"/>
        <path fill="none" stroke="rgb(52,101,164)" d="M 2828,13556 L 2777,13556"/>
        <path fill="none" stroke="rgb(52,101,164)" d="M 2726,13556 L 2675,13556"/>
        <path fill="none" stroke="rgb(52,101,164)" d="M 2624,13556 L 2573,13556"/>
        <path fill="none" stroke="rgb(52,101,164)" d="M 2522,13556 L 2471,13556"/>
        <path fill="none" stroke="rgb(52,101,164)" d="M 2420,13556 L 2369,13556"/>
        <path fill="none" stroke="rgb(52,101,164)" d="M 2318,13556 L 2267,13556"/>
        <path fill="none" stroke="rgb(52,101,164)" d="M 2216,13556 L 2165,13556"/>
        <path fill="none" stroke="rgb(52,101,164)" d="M 2114,13556 L 2063,13556"/>
        <path fill="none" stroke="rgb(52,101,164)" d="M 2012,13556 L 1961,13556"/>
        <path fill="none" stroke="rgb(52,101,164)" d="M 1910,13556 L 1859,13556"/>
        <path fill="none" stroke="rgb(52,101,164)" d="M 1808,13556 L 1757,13556"/>
        <path fill="none" stroke="rgb(52,101,164)" d="M 1706,13556 L 1655,13556"/>
        <path fill="none" stroke="rgb(52,101,164)" d="M 1604,13556 L 1553,13556"/>
        <path fill="none" stroke="rgb(52,101,164)" d="M 1502,13556 L 1451,13556"/>
        <path fill="none" stroke="rgb(52,101,164)" d="M 1400,13556 L 1349,13556"/>
        <path fill="none" stroke="rgb(52,101,164)" d="M 1298,13556 L 1247,13556"/>
        <path fill="none" stroke="rgb(52,101,164)" d="M 1196,13556 L 1145,13556"/>
        <path fill="none" stroke="rgb(52,101,164)" d="M 1094,13556 L 1043,13556"/>
        <path fill="none" stroke="rgb(52,101,164)" d="M 1010,13538 L 1010,13487"/>
        <path fill="none" stroke="rgb(52,101,164)" d="M 1010,13436 L 1010,13385"/>
        <path fill="none" stroke="rgb(52,101,164)" d="M 1010,13334 L 1010,13283"/>
        <path fill="none" stroke="rgb(52,101,164)" d="M 1010,13232 L 1010,13181"/>
        <path fill="none" stroke="rgb(52,101,164)" d="M 1010,13130 L 1010,13079"/>
        <path fill="none" stroke="rgb(52,101,164)" d="M 1010,13028 L 1010,12977"/>
        <path fill="none" stroke="rgb(52,101,164)" d="M 1010,12926 L 1010,12875"/>
        <path fill="none" stroke="rgb(52,101,164)" d="M 1010,12824 L 1010,12773"/>
        <path fill="none" stroke="rgb(52,101,164)" d="M 1010,12722 L 1010,12671"/>
        <path fill="none" stroke="rgb(52,101,164)" d="M 1010,12620 L 1010,12569"/>
        <path fill="none" stroke="rgb(52,101,164)" d="M 1010,12518 L 1010,12467"/>
        <path fill="none" stroke="rgb(52,101,164)" d="M 1010,12416 L 1010,12365"/>
        <path fill="none" stroke="rgb(52,101,164)" d="M 1010,12314 L 1010,12263"/>
        <path fill="none" stroke="rgb(52,101,164)" d="M 1010,12212 L 1010,12161"/>
        <path fill="none" stroke="rgb(52,101,164)" d="M 1010,12110 L 1010,12059"/>
        <path fill="none" stroke="rgb(52,101,164)" d="M 1010,12008 L 1010,11957"/>
        <path fill="none" stroke="rgb(52,101,164)" d="M 1010,11906 L 1010,11855"/>
        <path fill="none" stroke="rgb(52,101,164)" d="M 1010,11804 L 1010,11753"/>
        <path fill="none" stroke="rgb(52,101,164)" d="M 1010,11702 L 1010,11651"/>
        <path fill="none" stroke="rgb(52,101,164)" d="M 1010,11600 L 1010,11549"/>
        <path fill="none" stroke="rgb(52,101,164)" d="M 1010,11498 L 1010,11447"/>
        <path fill="none" stroke="rgb(52,101,164)" d="M 1010,11396 L 1010,11345"/>
        <path fill="none" stroke="rgb(52,101,164)" d="M 1010,11294 L 1010,11243"/>
        <path fill="none" stroke="rgb(52,101,164)" d="M 1010,11192 L 1010,11141"/>
        <path fill="none" stroke="rgb(52,101,164)" d="M 1010,11090 L 1010,11039"/>
        <path fill="none" stroke="rgb(52,101,164)" d="M 1010,10988 L 1010,10937"/>
        <path fill="none" stroke="rgb(52,101,164)" d="M 1010,10886 L 1010,10835"/>
        <path fill="none" stroke="rgb(52,101,164)" d="M 1010,10784 L 1010,10733"/>
        <path fill="none" stroke="rgb(52,101,164)" d="M 1010,10682 L 1010,10631"/>
        <path fill="none" stroke="rgb(52,101,164)" d="M 1010,10580 L 1010,10529"/>
        <path fill="none" stroke="rgb(52,101,164)" d="M 1010,10478 L 1010,10427"/>
        <path fill="none" stroke="rgb(52,101,164)" d="M 1010,10376 L 1010,10325"/>
        <path fill="none" stroke="rgb(52,101,164)" d="M 1010,10274 L 1010,10223"/>
        <path fill="none" stroke="rgb(52,101,164)" d="M 1010,10172 L 1010,10121"/>
        <path fill="none" stroke="rgb(52,101,164)" d="M 1010,10070 L 1010,10019"/>
        <path fill="none" stroke="rgb(52,101,164)" d="M 1010,9968 L 1010,9917"/>
        <path fill="none" stroke="rgb(52,101,164)" d="M 1010,9866 L 1010,9815"/>
        <path fill="none" stroke="rgb(52,101,164)" d="M 1010,9764 L 1010,9713"/>
        <path fill="none" stroke="rgb(52,101,164)" d="M 1010,9662 L 1010,9611"/>
        <path fill="none" stroke="rgb(52,101,164)" d="M 1010,9560 L 1010,9509"/>
        <path fill="none" stroke="rgb(52,101,164)" d="M 1010,9458 L 1010,9407"/>
        <path fill="none" stroke="rgb(52,101,164)" d="M 1010,9356 L 1010,9305"/>
        <path fill="none" stroke="rgb(52,101,164)" d="M 1010,9254 L 1010,9203"/>
        <path fill="none" stroke="rgb(52,101,164)" d="M 1010,9152 L 1010,9101"/>
        <path fill="none" stroke="rgb(52,101,164)" d="M 1010,9050 L 1010,8999"/>
        <path fill="none" stroke="rgb(52,101,164)" d="M 1010,8948 L 1010,8897"/>
        <path fill="none" stroke="rgb(52,101,164)" d="M 1010,8846 L 1010,8795"/>
        <path fill="none" stroke="rgb(52,101,164)" d="M 1010,8744 L 1010,8693"/>
        <path fill="none" stroke="rgb(52,101,164)" d="M 1010,8642 L 1010,8591"/>
        <path fill="none" stroke="rgb(52,101,164)" d="M 1010,8540 L 1010,8489"/>
        <path fill="none" stroke="rgb(52,101,164)" d="M 1010,8438 L 1010,8387"/>
        <path fill="none" stroke="rgb(52,101,164)" d="M 1010,8336 L 1010,8285"/>
        <path fill="none" stroke="rgb(52,101,164)" d="M 1010,8234 L 1010,8183"/>
        <path fill="none" stroke="rgb(52,101,164)" d="M 1010,8132 L 1010,8081"/>
        <path fill="none" stroke="rgb(52,101,164)" d="M 1010,8030 L 1010,7979"/>
        <path fill="none" stroke="rgb(52,101,164)" d="M 1010,7928 L 1010,7877"/>
        <path fill="none" stroke="rgb(52,101,164)" d="M 1010,7826 L 1010,7775"/>
        <path fill="none" stroke="rgb(52,101,164)" d="M 1010,7724 L 1010,7673"/>
        <path fill="none" stroke="rgb(52,101,164)" d="M 1010,7622 L 1010,7571"/>
        <path fill="none" stroke="rgb(52,101,164)" d="M 1010,7520 L 1010,7469"/>
        <path fill="none" stroke="rgb(52,101,164)" d="M 1010,7418 L 1010,7367"/>
        <path fill="none" stroke="rgb(52,101,164)" d="M 1010,7316 L 1010,7265"/>
        <path fill="none" stroke="rgb(52,101,164)" d="M 1010,7214 L 1010,7162"/>
        <path fill="none" stroke="rgb(52,101,164)" d="M 1010,7112 L 1010,7061"/>
        <path fill="none" stroke="rgb(52,101,164)" d="M 1010,7010 L 1010,6959"/>
        <path fill="none" stroke="rgb(52,101,164)" d="M 1010,6908 L 1010,6857"/>
        <path fill="none" stroke="rgb(52,101,164)" d="M 1010,6806 L 1010,6755"/>
        <path fill="none" stroke="rgb(52,101,164)" d="M 1010,6703 L 1010,6653"/>
        <path fill="none" stroke="rgb(52,101,164)" d="M 1010,6602 L 1010,6551"/>
        <path fill="none" stroke="rgb(52,101,164)" d="M 1010,6499 L 1010,6449"/>
        <path fill="none" stroke="rgb(52,101,164)" d="M 1010,6398 L 1010,6347"/>
        <path fill="none" stroke="rgb(52,101,164)" d="M 1010,6295 L 1010,6245"/>
        <path fill="none" stroke="rgb(52,101,164)" d="M 1010,6194 L 1010,6143"/>
        <path fill="none" stroke="rgb(52,101,164)" d="M 1010,6091 L 1010,6041"/>
        <path fill="none" stroke="rgb(52,101,164)" d="M 1010,5990 L 1010,5939"/>
        <path fill="none" stroke="rgb(52,101,164)" d="M 1010,5887 L 1010,5837"/>
        <path fill="none" stroke="rgb(52,101,164)" d="M 1010,5786 L 1010,5735"/>
        <path fill="none" stroke="rgb(52,101,164)" d="M 1010,5684 L 1010,5633"/>
        <path fill="none" stroke="rgb(52,101,164)" d="M 1010,5582 L 1010,5531"/>
        <path fill="none" stroke="rgb(52,101,164)" d="M 1010,5480 L 1010,5428"/>
        <path fill="none" stroke="rgb(52,101,164)" d="M 1010,5378 L 1010,5327"/>
        <path fill="none" stroke="rgb(52,101,164)" d="M 1010,5276 L 1010,5225"/>
        <path fill="none" stroke="rgb(52,101,164)" d="M 1010,5174 L 1010,5123"/>
        <path fill="none" stroke="rgb(52,101,164)" d="M 1010,5072 L 1010,5021"/>
        <path fill="none" stroke="rgb(52,101,164)" d="M 1010,4970 L 1010,4919"/>
        <path fill="none" stroke="rgb(52,101,164)" d="M 1010,4868 L 1010,4817"/>
        <path fill="none" stroke="rgb(52,101,164)" d="M 1010,4766 L 1010,4715"/>
        <path fill="none" stroke="rgb(52,101,164)" d="M 1010,4664 L 1010,4613"/>
        <path fill="none" stroke="rgb(52,101,164)" d="M 1010,4562 L 1010,4511"/>
        <path fill="none" stroke="rgb(52,101,164)" d="M 1010,4460 L 1010,4409"/>
        <path fill="none" stroke="rgb(52,101,164)" d="M 1010,4358 L 1010,4307"/>
        <path fill="none" stroke="rgb(52,101,164)" d="M 1010,4256 L 1010,4205"/>
        <path fill="none" stroke="rgb(52,101,164)" d="M 1010,4154 L 1010,4103"/>
        <path fill="none" stroke="rgb(52,101,164)" d="M 1010,4052 L 1010,4001"/>
        <path fill="none" stroke="rgb(52,101,164)" d="M 1010,3950 L 1010,3899"/>
        <path fill="none" stroke="rgb(52,101,164)" d="M 1010,3848 L 1010,3797"/>
        <path fill="none" stroke="rgb(52,101,164)" d="M 1010,3746 L 1010,3695"/>
        <path fill="none" stroke="rgb(52,101,164)" d="M 1010,3644 L 1010,3593"/>
        <path fill="none" stroke="rgb(52,101,164)" d="M 1010,3542 L 1010,3491"/>
        <path fill="none" stroke="rgb(52,101,164)" d="M 1010,3440 L 1010,3389"/>
        <path fill="none" stroke="rgb(52,101,164)" d="M 1010,3338 L 1010,3287"/>
        <path fill="none" stroke="rgb(52,101,164)" d="M 1010,3236 L 1010,3185"/>
        <path fill="none" stroke="rgb(52,101,164)" d="M 1010,3134 L 1010,3083"/>
        <path fill="none" stroke="rgb(52,101,164)" d="M 1010,3032 L 1010,2981"/>
        <path fill="none" stroke="rgb(52,101,164)" d="M 1010,2930 L 1010,2879"/>
        <path fill="none" stroke="rgb(52,101,164)" d="M 1010,2828 L 1010,2777"/>
        <path fill="none" stroke="rgb(52,101,164)" d="M 1010,2726 L 1010,2675"/>
        <path fill="none" stroke="rgb(52,101,164)" d="M 1010,2624 L 1010,2573"/>
        <path fill="none" stroke="rgb(52,101,164)" d="M 1010,2522 L 1010,2471"/>
        <path fill="none" stroke="rgb(52,101,164)" d="M 1010,2420 L 1010,2369"/>
        <path fill="none" stroke="rgb(52,101,164)" d="M 1010,2318 L 1010,2267"/>
        <path fill="none" stroke="rgb(52,101,164)" d="M 1010,2216 L 1010,2165"/>
        <path fill="none" stroke="rgb(52,101,164)" d="M 1010,2114 L 1010,2063"/>
        <path fill="none" stroke="rgb(52,101,164)" d="M 1010,2012 L 1010,1961"/>
        <path fill="none" stroke="rgb(52,101,164)" d="M 1010,1910 L 1010,1859"/>
        <path fill="none" stroke="rgb(52,101,164)" d="M 1010,1808 L 1010,1757"/>
        <path fill="none" stroke="rgb(52,101,164)" d="M 1010,1706 L 1010,1655"/>
        <path fill="none" stroke="rgb(52,101,164)" d="M 1010,1604 L 1010,1553"/>
        <path fill="none" stroke="rgb(52,101,164)" d="M 1010,1502 L 1010,1451"/>
        <path fill="none" stroke="rgb(52,101,164)" d="M 1010,1400 L 1010,1349"/>
        <path fill="none" stroke="rgb(52,101,164)" d="M 1010,1298 L 1010,1247"/>
        <path fill="none" stroke="rgb(52,101,164)" d="M 1010,1196 L 1010,1145"/>
        <path fill="none" stroke="rgb(52,101,164)" d="M 1010,1094 L 1010,1058 1026,1058"/>
        <path fill="none" stroke="rgb(52,101,164)" d="M 1077,1058 L 1128,1058"/>
        <path fill="none" stroke="rgb(52,101,164)" d="M 1179,1058 L 1230,1058"/>
        <path fill="none" stroke="rgb(52,101,164)" d="M 1281,1058 L 1332,1058"/>
        <path fill="none" stroke="rgb(52,101,164)" d="M 1383,1058 L 1434,1058"/>
        <path fill="none" stroke="rgb(52,101,164)" d="M 1485,1058 L 1536,1058"/>
        <path fill="none" stroke="rgb(52,101,164)" d="M 1587,1058 L 1638,1058"/>
        <path fill="none" stroke="rgb(52,101,164)" d="M 1689,1058 L 1740,1058"/>
        <path fill="none" stroke="rgb(52,101,164)" d="M 1791,1058 L 1842,1058"/>
        <path fill="none" stroke="rgb(52,101,164)" d="M 1893,1058 L 1944,1058"/>
        <path fill="none" stroke="rgb(52,101,164)" d="M 1995,1058 L 2046,1058"/>
        <path fill="none" stroke="rgb(52,101,164)" d="M 2097,1058 L 2148,1058"/>
        <path fill="none" stroke="rgb(52,101,164)" d="M 2199,1058 L 2250,1058"/>
        <path fill="none" stroke="rgb(52,101,164)" d="M 2301,1058 L 2352,1058"/>
        <path fill="none" stroke="rgb(52,101,164)" d="M 2403,1058 L 2454,1058"/>
        <path fill="none" stroke="rgb(52,101,164)" d="M 2505,1058 L 2556,1058"/>
        <path fill="none" stroke="rgb(52,101,164)" d="M 2607,1058 L 2658,1058"/>
        <path fill="none" stroke="rgb(52,101,164)" d="M 2709,1058 L 2760,1058"/>
        <path fill="none" stroke="rgb(52,101,164)" d="M 2811,1058 L 2862,1058"/>
        <path fill="none" stroke="rgb(52,101,164)" d="M 2913,1058 L 2964,1058"/>
        <path fill="none" stroke="rgb(52,101,164)" d="M 3015,1058 L 3066,1058"/>
        <path fill="none" stroke="rgb(52,101,164)" d="M 3117,1058 L 3168,1058"/>
        <path fill="none" stroke="rgb(52,101,164)" d="M 3219,1058 L 3270,1058"/>
        <path fill="none" stroke="rgb(52,101,164)" d="M 3321,1058 L 3372,1058"/>
        <path fill="none" stroke="rgb(52,101,164)" d="M 3423,1058 L 3474,1058"/>
        <path fill="none" stroke="rgb(52,101,164)" d="M 3525,1058 L 3576,1058"/>
        <path fill="none" stroke="rgb(52,101,164)" d="M 3627,1058 L 3678,1058"/>
        <path fill="none" stroke="rgb(52,101,164)" d="M 3729,1058 L 3780,1058"/>
        <path fill="none" stroke="rgb(52,101,164)" d="M 3831,1058 L 3882,1058"/>
        <path fill="none" stroke="rgb(52,101,164)" d="M 3933,1058 L 3984,1058"/>
        <path fill="none" stroke="rgb(52,101,164)" d="M 4035,1058 L 4086,1058"/>
        <path fill="none" stroke="rgb(52,101,164)" d="M 4137,1058 L 4188,1058"/>
        <path fill="none" stroke="rgb(52,101,164)" d="M 4239,1058 L 4290,1058"/>
        <path fill="none" stroke="rgb(52,101,164)" d="M 4341,1058 L 4392,1058"/>
        <path fill="none" stroke="rgb(52,101,164)" d="M 4443,1058 L 4494,1058"/>
        <path fill="none" stroke="rgb(52,101,164)" d="M 4545,1058 L 4596,1058"/>
        <path fill="none" stroke="rgb(52,101,164)" d="M 4647,1058 L 4698,1058"/>
        <path fill="none" stroke="rgb(52,101,164)" d="M 4749,1058 L 4800,1058"/>
        <path fill="none" stroke="rgb(52,101,164)" d="M 4851,1058 L 4902,1058"/>
        <path fill="none" stroke="rgb(52,101,164)" d="M 4953,1058 L 5004,1058"/>
        <path fill="none" stroke="rgb(52,101,164)" d="M 5055,1058 L 5106,1058"/>
        <path fill="none" stroke="rgb(52,101,164)" d="M 5157,1058 L 5208,1058"/>
        <path fill="none" stroke="rgb(52,101,164)" d="M 5259,1058 L 5310,1058"/>
        <path fill="none" stroke="rgb(52,101,164)" d="M 5361,1058 L 5412,1058"/>
        <path fill="none" stroke="rgb(52,101,164)" d="M 5463,1058 L 5514,1058"/>
        <path fill="none" stroke="rgb(52,101,164)" d="M 5565,1058 L 5616,1058"/>
        <path fill="none" stroke="rgb(52,101,164)" d="M 5667,1058 L 5718,1058"/>
        <path fill="none" stroke="rgb(52,101,164)" d="M 5769,1058 L 5820,1058"/>
        <path fill="none" stroke="rgb(52,101,164)" d="M 5871,1058 L 5922,1058"/>
        <path fill="none" stroke="rgb(52,101,164)" d="M 5973,1058 L 6024,1058"/>
        <path fill="none" stroke="rgb(52,101,164)" d="M 6075,1058 L 6126,1058"/>
        <path fill="none" stroke="rgb(52,101,164)" d="M 6177,1058 L 6228,1058"/>
        <path fill="none" stroke="rgb(52,101,164)" d="M 6279,1058 L 6330,1058"/>
        <path fill="none" stroke="rgb(52,101,164)" d="M 6381,1058 L 6432,1058"/>
        <path fill="none" stroke="rgb(52,101,164)" d="M 6483,1058 L 6534,1058"/>
        <path fill="none" stroke="rgb(52,101,164)" d="M 6585,1058 L 6636,1058"/>
        <path fill="none" stroke="rgb(52,101,164)" d="M 6687,1058 L 6738,1058"/>
        <path fill="none" stroke="rgb(52,101,164)" d="M 6789,1058 L 6840,1058"/>
        <path fill="none" stroke="rgb(52,101,164)" d="M 6891,1058 L 6942,1058"/>
        <path fill="none" stroke="rgb(52,101,164)" d="M 6993,1058 L 7044,1058"/>
        <path fill="none" stroke="rgb(52,101,164)" d="M 7095,1058 L 7146,1058"/>
        <path fill="none" stroke="rgb(52,101,164)" d="M 7197,1058 L 7248,1058"/>
        <path fill="none" stroke="rgb(52,101,164)" d="M 7299,1058 L 7350,1058"/>
        <path fill="none" stroke="rgb(52,101,164)" d="M 7401,1058 L 7452,1058"/>
        <path fill="none" stroke="rgb(52,101,164)" d="M 7503,1058 L 7554,1058"/>
        <path fill="none" stroke="rgb(52,101,164)" d="M 7605,1058 L 7656,1058"/>
        <path fill="none" stroke="rgb(52,101,164)" d="M 7707,1058 L 7758,1058"/>
        <path fill="none" stroke="rgb(52,101,164)" d="M 7809,1058 L 7860,1058"/>
        <path fill="none" stroke="rgb(52,101,164)" d="M 7911,1058 L 7962,1058"/>
        <path fill="none" stroke="rgb(52,101,164)" d="M 8013,1058 L 8064,1058"/>
        <path fill="none" stroke="rgb(52,101,164)" d="M 8115,1058 L 8166,1058"/>
        <path fill="none" stroke="rgb(52,101,164)" d="M 8217,1058 L 8268,1058"/>
        <path fill="none" stroke="rgb(52,101,164)" d="M 8319,1058 L 8370,1058"/>
        <path fill="none" stroke="rgb(52,101,164)" d="M 8421,1058 L 8472,1058"/>
        <path fill="none" stroke="rgb(52,101,164)" d="M 8523,1058 L 8574,1058"/>
        <path fill="none" stroke="rgb(52,101,164)" d="M 8625,1058 L 8676,1058"/>
        <path fill="none" stroke="rgb(52,101,164)" d="M 8727,1058 L 8778,1058"/>
        <path fill="none" stroke="rgb(52,101,164)" d="M 8829,1058 L 8880,1058"/>
        <path fill="none" stroke="rgb(52,101,164)" d="M 8931,1058 L 8982,1058"/>
        <path fill="none" stroke="rgb(52,101,164)" d="M 9033,1058 L 9084,1058"/>
        <path fill="none" stroke="rgb(52,101,164)" d="M 9135,1058 L 9186,1058"/>
        <path fill="none" stroke="rgb(52,101,164)" d="M 9237,1058 L 9288,1058"/>
        <path fill="none" stroke="rgb(52,101,164)" d="M 9339,1058 L 9390,1058"/>
        <path fill="none" stroke="rgb(52,101,164)" d="M 9441,1058 L 9492,1058"/>
        <path fill="none" stroke="rgb(52,101,164)" d="M 9543,1058 L 9594,1058"/>
        <path fill="none" stroke="rgb(52,101,164)" d="M 9645,1058 L 9696,1058"/>
        <path fill="none" stroke="rgb(52,101,164)" d="M 9747,1058 L 9798,1058"/>
        <path fill="none" stroke="rgb(52,101,164)" d="M 9849,1058 L 9900,1058"/>
        <path fill="none" stroke="rgb(52,101,164)" d="M 9951,1058 L 10002,1058"/>
        <path fill="none" stroke="rgb(52,101,164)" d="M 10053,1058 L 10104,1058"/>
        <path fill="none" stroke="rgb(52,101,164)" d="M 10155,1058 L 10206,1058"/>
        <path fill="none" stroke="rgb(52,101,164)" d="M 10257,1058 L 10308,1058"/>
        <path fill="none" stroke="rgb(52,101,164)" d="M 10359,1058 L 10410,1058"/>
        <path fill="none" stroke="rgb(52,101,164)" d="M 10461,1058 L 10512,1058"/>
        <path fill="none" stroke="rgb(52,101,164)" d="M 10563,1058 L 10614,1058"/>
        <path fill="none" stroke="rgb(52,101,164)" d="M 10665,1058 L 10716,1058"/>
        <path fill="none" stroke="rgb(52,101,164)" d="M 10767,1058 L 10818,1058"/>
        <path fill="none" stroke="rgb(52,101,164)" d="M 10869,1058 L 10920,1058"/>
        <path fill="none" stroke="rgb(52,101,164)" d="M 10971,1058 L 11022,1058"/>
        <path fill="none" stroke="rgb(52,101,164)" d="M 11073,1058 L 11124,1058"/>
        <path fill="none" stroke="rgb(52,101,164)" d="M 11175,1058 L 11226,1058"/>
        <path fill="none" stroke="rgb(52,101,164)" d="M 11277,1058 L 11328,1058"/>
        <path fill="none" stroke="rgb(52,101,164)" d="M 11379,1058 L 11430,1058"/>
        <path fill="none" stroke="rgb(52,101,164)" d="M 11481,1058 L 11532,1058"/>
        <path fill="none" stroke="rgb(52,101,164)" d="M 11583,1058 L 11634,1058"/>
        <path fill="none" stroke="rgb(52,101,164)" d="M 11685,1058 L 11736,1058"/>
        <path fill="none" stroke="rgb(52,101,164)" d="M 11787,1058 L 11838,1058"/>
        <path fill="none" stroke="rgb(52,101,164)" d="M 11889,1058 L 11940,1058"/>
        <path fill="none" stroke="rgb(52,101,164)" d="M 11991,1058 L 12042,1058"/>
        <path fill="none" stroke="rgb(52,101,164)" d="M 12093,1058 L 12144,1058"/>
        <path fill="none" stroke="rgb(52,101,164)" d="M 12195,1058 L 12246,1058"/>
        <path fill="none" stroke="rgb(52,101,164)" d="M 12297,1058 L 12348,1058"/>
        <path fill="none" stroke="rgb(52,101,164)" d="M 12399,1058 L 12450,1058"/>
        <path fill="none" stroke="rgb(52,101,164)" d="M 12501,1058 L 12552,1058"/>
        <path fill="none" stroke="rgb(52,101,164)" d="M 12603,1058 L 12654,1058"/>
        <path fill="none" stroke="rgb(52,101,164)" d="M 12705,1058 L 12756,1058"/>
        <path fill="none" stroke="rgb(52,101,164)" d="M 12807,1058 L 12858,1058"/>
        <path fill="none" stroke="rgb(52,101,164)" d="M 12909,1058 L 12960,1058"/>
        <path fill="none" stroke="rgb(52,101,164)" d="M 13011,1058 L 13062,1058"/>
        <path fill="none" stroke="rgb(52,101,164)" d="M 13113,1058 L 13164,1058"/>
        <path fill="none" stroke="rgb(52,101,164)" d="M 13215,1058 L 13266,1058"/>
        <path fill="none" stroke="rgb(52,101,164)" d="M 13317,1058 L 13368,1058"/>
        <path fill="none" stroke="rgb(52,101,164)" d="M 13419,1058 L 13470,1058"/>
        <path fill="none" stroke="rgb(52,101,164)" d="M 13521,1058 L 13572,1058"/>
        <path fill="none" stroke="rgb(52,101,164)" d="M 13623,1058 L 13674,1058"/>
        <path fill="none" stroke="rgb(52,101,164)" d="M 13725,1058 L 13776,1058"/>
        <path fill="none" stroke="rgb(52,101,164)" d="M 13827,1058 L 13878,1058"/>
        <path fill="none" stroke="rgb(52,101,164)" d="M 13929,1058 L 13980,1058"/>
        <path fill="none" stroke="rgb(52,101,164)" d="M 14031,1058 L 14082,1058"/>
        <path fill="none" stroke="rgb(52,101,164)" d="M 14133,1058 L 14184,1058"/>
        <path fill="none" stroke="rgb(52,101,164)" d="M 14235,1058 L 14286,1058"/>
        <path fill="none" stroke="rgb(52,101,164)" d="M 14337,1058 L 14388,1058"/>
        <path fill="none" stroke="rgb(52,101,164)" d="M 14439,1058 L 14490,1058"/>
        <path fill="none" stroke="rgb(52,101,164)" d="M 14541,1058 L 14592,1058"/>
        <path fill="none" stroke="rgb(52,101,164)" d="M 14643,1058 L 14694,1058"/>
        <path fill="none" stroke="rgb(52,101,164)" d="M 14745,1058 L 14796,1058"/>
        <path fill="none" stroke="rgb(52,101,164)" d="M 14847,1058 L 14898,1058"/>
        <path fill="none" stroke="rgb(52,101,164)" d="M 14949,1058 L 15000,1058"/>
        <path fill="none" stroke="rgb(52,101,164)" d="M 15051,1058 L 15102,1058"/>
        <path fill="none" stroke="rgb(52,101,164)" d="M 15153,1058 L 15204,1058"/>
        <path fill="none" stroke="rgb(52,101,164)" d="M 15255,1058 L 15306,1058"/>
        <path fill="none" stroke="rgb(52,101,164)" d="M 15357,1058 L 15408,1058"/>
        <path fill="none" stroke="rgb(52,101,164)" d="M 15457,1060 L 15457,1111"/>
        <path fill="none" stroke="rgb(52,101,164)" d="M 15457,1162 L 15457,1213"/>
        <path fill="none" stroke="rgb(52,101,164)" d="M 15457,1264 L 15457,1315"/>
        <path fill="none" stroke="rgb(52,101,164)" d="M 15457,1366 L 15457,1417"/>
        <path fill="none" stroke="rgb(52,101,164)" d="M 15457,1468 L 15457,1519"/>
        <path fill="none" stroke="rgb(52,101,164)" d="M 15457,1570 L 15457,1621"/>
        <path fill="none" stroke="rgb(52,101,164)" d="M 15457,1672 L 15457,1723"/>
        <path fill="none" stroke="rgb(52,101,164)" d="M 15457,1774 L 15457,1825"/>
        <path fill="none" stroke="rgb(52,101,164)" d="M 15457,1876 L 15457,1927"/>
        <path fill="none" stroke="rgb(52,101,164)" d="M 15457,1978 L 15457,2029"/>
        <path fill="none" stroke="rgb(52,101,164)" d="M 15457,2080 L 15457,2131"/>
        <path fill="none" stroke="rgb(52,101,164)" d="M 15457,2182 L 15457,2233"/>
        <path fill="none" stroke="rgb(52,101,164)" d="M 15457,2284 L 15457,2335"/>
        <path fill="none" stroke="rgb(52,101,164)" d="M 15457,2386 L 15457,2437"/>
        <path fill="none" stroke="rgb(52,101,164)" d="M 15457,2488 L 15457,2539"/>
        <path fill="none" stroke="rgb(52,101,164)" d="M 15457,2590 L 15457,2641"/>
        <path fill="none" stroke="rgb(52,101,164)" d="M 15457,2692 L 15457,2743"/>
        <path fill="none" stroke="rgb(52,101,164)" d="M 15457,2794 L 15457,2845"/>
        <path fill="none" stroke="rgb(52,101,164)" d="M 15457,2896 L 15457,2947"/>
        <path fill="none" stroke="rgb(52,101,164)" d="M 15457,2998 L 15457,3049"/>
        <path fill="none" stroke="rgb(52,101,164)" d="M 15457,3100 L 15457,3151"/>
        <path fill="none" stroke="rgb(52,101,164)" d="M 15457,3202 L 15457,3253"/>
        <path fill="none" stroke="rgb(52,101,164)" d="M 15457,3304 L 15457,3355"/>
        <path fill="none" stroke="rgb(52,101,164)" d="M 15457,3406 L 15457,3457"/>
        <path fill="none" stroke="rgb(52,101,164)" d="M 15457,3508 L 15457,3559"/>
        <path fill="none" stroke="rgb(52,101,164)" d="M 15457,3610 L 15457,3661"/>
        <path fill="none" stroke="rgb(52,101,164)" d="M 15457,3712 L 15457,3763"/>
        <path fill="none" stroke="rgb(52,101,164)" d="M 15457,3814 L 15457,3865"/>
        <path fill="none" stroke="rgb(52,101,164)" d="M 15457,3916 L 15457,3967"/>
        <path fill="none" stroke="rgb(52,101,164)" d="M 15457,4018 L 15457,4069"/>
        <path fill="none" stroke="rgb(52,101,164)" d="M 15457,4120 L 15457,4171"/>
        <path fill="none" stroke="rgb(52,101,164)" d="M 15457,4222 L 15457,4273"/>
        <path fill="none" stroke="rgb(52,101,164)" d="M 15457,4324 L 15457,4375"/>
        <path fill="none" stroke="rgb(52,101,164)" d="M 15457,4426 L 15457,4477"/>
        <path fill="none" stroke="rgb(52,101,164)" d="M 15457,4528 L 15457,4579"/>
        <path fill="none" stroke="rgb(52,101,164)" d="M 15457,4630 L 15457,4681"/>
        <path fill="none" stroke="rgb(52,101,164)" d="M 15457,4732 L 15457,4783"/>
        <path fill="none" stroke="rgb(52,101,164)" d="M 15457,4834 L 15457,4885"/>
        <path fill="none" stroke="rgb(52,101,164)" d="M 15457,4936 L 15457,4987"/>
        <path fill="none" stroke="rgb(52,101,164)" d="M 15457,5038 L 15457,5089"/>
        <path fill="none" stroke="rgb(52,101,164)" d="M 15457,5140 L 15457,5191"/>
        <path fill="none" stroke="rgb(52,101,164)" d="M 15457,5242 L 15457,5293"/>
        <path fill="none" stroke="rgb(52,101,164)" d="M 15457,5344 L 15457,5395"/>
        <path fill="none" stroke="rgb(52,101,164)" d="M 15457,5446 L 15457,5497"/>
        <path fill="none" stroke="rgb(52,101,164)" d="M 15457,5548 L 15457,5599"/>
        <path fill="none" stroke="rgb(52,101,164)" d="M 15457,5650 L 15457,5701"/>
        <path fill="none" stroke="rgb(52,101,164)" d="M 15457,5752 L 15457,5803"/>
        <path fill="none" stroke="rgb(52,101,164)" d="M 15457,5854 L 15457,5905"/>
        <path fill="none" stroke="rgb(52,101,164)" d="M 15457,5956 L 15457,6007"/>
        <path fill="none" stroke="rgb(52,101,164)" d="M 15457,6058 L 15457,6109"/>
        <path fill="none" stroke="rgb(52,101,164)" d="M 15457,6160 L 15457,6211"/>
        <path fill="none" stroke="rgb(52,101,164)" d="M 15457,6262 L 15457,6313"/>
        <path fill="none" stroke="rgb(52,101,164)" d="M 15457,6364 L 15457,6415"/>
        <path fill="none" stroke="rgb(52,101,164)" d="M 15457,6466 L 15457,6517"/>
        <path fill="none" stroke="rgb(52,101,164)" d="M 15457,6568 L 15457,6619"/>
        <path fill="none" stroke="rgb(52,101,164)" d="M 15457,6670 L 15457,6721"/>
        <path fill="none" stroke="rgb(52,101,164)" d="M 15457,6772 L 15457,6823"/>
        <path fill="none" stroke="rgb(52,101,164)" d="M 15457,6874 L 15457,6925"/>
        <path fill="none" stroke="rgb(52,101,164)" d="M 15457,6976 L 15457,7027"/>
        <path fill="none" stroke="rgb(52,101,164)" d="M 15457,7078 L 15457,7129"/>
        <path fill="none" stroke="rgb(52,101,164)" d="M 15457,7180 L 15457,7231"/>
        <path fill="none" stroke="rgb(52,101,164)" d="M 15457,7282 L 15457,7333"/>
        <path fill="none" stroke="rgb(52,101,164)" d="M 15457,7384 L 15457,7435"/>
        <path fill="none" stroke="rgb(52,101,164)" d="M 15457,7485 L 15457,7537"/>
        <path fill="none" stroke="rgb(52,101,164)" d="M 15457,7588 L 15457,7639"/>
        <path fill="none" stroke="rgb(52,101,164)" d="M 15457,7690 L 15457,7741"/>
        <path fill="none" stroke="rgb(52,101,164)" d="M 15457,7792 L 15457,7843"/>
        <path fill="none" stroke="rgb(52,101,164)" d="M 15457,7894 L 15457,7944"/>
        <path fill="none" stroke="rgb(52,101,164)" d="M 15457,7996 L 15457,8047"/>
        <path fill="none" stroke="rgb(52,101,164)" d="M 15457,8098 L 15457,8148"/>
        <path fill="none" stroke="rgb(52,101,164)" d="M 15457,8200 L 15457,8251"/>
        <path fill="none" stroke="rgb(52,101,164)" d="M 15457,8302 L 15457,8353"/>
        <path fill="none" stroke="rgb(52,101,164)" d="M 15457,8404 L 15457,8455"/>
        <path fill="none" stroke="rgb(52,101,164)" d="M 15457,8506 L 15457,8557"/>
        <path fill="none" stroke="rgb(52,101,164)" d="M 15457,8608 L 15457,8659"/>
        <path fill="none" stroke="rgb(52,101,164)" d="M 15457,8710 L 15457,8761"/>
        <path fill="none" stroke="rgb(52,101,164)" d="M 15457,8812 L 15457,8863"/>
        <path fill="none" stroke="rgb(52,101,164)" d="M 15457,8914 L 15457,8965"/>
        <path fill="none" stroke="rgb(52,101,164)" d="M 15457,9016 L 15457,9067"/>
        <path fill="none" stroke="rgb(52,101,164)" d="M 15457,9118 L 15457,9169"/>
        <path fill="none" stroke="rgb(52,101,164)" d="M 15457,9220 L 15457,9271"/>
        <path fill="none" stroke="rgb(52,101,164)" d="M 15457,9322 L 15457,9373"/>
        <path fill="none" stroke="rgb(52,101,164)" d="M 15457,9424 L 15457,9475"/>
        <path fill="none" stroke="rgb(52,101,164)" d="M 15457,9526 L 15457,9577"/>
        <path fill="none" stroke="rgb(52,101,164)" d="M 15457,9628 L 15457,9679"/>
        <path fill="none" stroke="rgb(52,101,164)" d="M 15457,9730 L 15457,9781"/>
        <path fill="none" stroke="rgb(52,101,164)" d="M 15457,9832 L 15457,9883"/>
        <path fill="none" stroke="rgb(52,101,164)" d="M 15457,9934 L 15457,9985"/>
        <path fill="none" stroke="rgb(52,101,164)" d="M 15457,10036 L 15457,10087"/>
        <path fill="none" stroke="rgb(52,101,164)" d="M 15457,10138 L 15457,10189"/>
        <path fill="none" stroke="rgb(52,101,164)" d="M 15457,10240 L 15457,10291"/>
        <path fill="none" stroke="rgb(52,101,164)" d="M 15457,10342 L 15457,10393"/>
        <path fill="none" stroke="rgb(52,101,164)" d="M 15457,10444 L 15457,10495"/>
        <path fill="none" stroke="rgb(52,101,164)" d="M 15457,10546 L 15457,10597"/>
        <path fill="none" stroke="rgb(52,101,164)" d="M 15457,10648 L 15457,10699"/>
        <path fill="none" stroke="rgb(52,101,164)" d="M 15457,10750 L 15457,10801"/>
        <path fill="none" stroke="rgb(52,101,164)" d="M 15457,10852 L 15457,10903"/>
        <path fill="none" stroke="rgb(52,101,164)" d="M 15457,10954 L 15457,11005"/>
        <path fill="none" stroke="rgb(52,101,164)" d="M 15457,11056 L 15457,11107"/>
        <path fill="none" stroke="rgb(52,101,164)" d="M 15457,11158 L 15457,11209"/>
        <path fill="none" stroke="rgb(52,101,164)" d="M 15457,11260 L 15457,11311"/>
        <path fill="none" stroke="rgb(52,101,164)" d="M 15457,11362 L 15457,11413"/>
        <path fill="none" stroke="rgb(52,101,164)" d="M 15457,11464 L 15457,11515"/>
        <path fill="none" stroke="rgb(52,101,164)" d="M 15457,11566 L 15457,11617"/>
        <path fill="none" stroke="rgb(52,101,164)" d="M 15457,11668 L 15457,11719"/>
        <path fill="none" stroke="rgb(52,101,164)" d="M 15457,11770 L 15457,11821"/>
        <path fill="none" stroke="rgb(52,101,164)" d="M 15457,11872 L 15457,11923"/>
        <path fill="none" stroke="rgb(52,101,164)" d="M 15457,11974 L 15457,12025"/>
        <path fill="none" stroke="rgb(52,101,164)" d="M 15457,12076 L 15457,12127"/>
        <path fill="none" stroke="rgb(52,101,164)" d="M 15457,12178 L 15457,12229"/>
        <path fill="none" stroke="rgb(52,101,164)" d="M 15457,12280 L 15457,12331"/>
        <path fill="none" stroke="rgb(52,101,164)" d="M 15457,12382 L 15457,12433"/>
        <path fill="none" stroke="rgb(52,101,164)" d="M 15457,12484 L 15457,12535"/>
        <path fill="none" stroke="rgb(52,101,164)" d="M 15457,12586 L 15457,12637"/>
        <path fill="none" stroke="rgb(52,101,164)" d="M 15457,12688 L 15457,12739"/>
        <path fill="none" stroke="rgb(52,101,164)" d="M 15457,12790 L 15457,12841"/>
        <path fill="none" stroke="rgb(52,101,164)" d="M 15457,12892 L 15457,12943"/>
        <path fill="none" stroke="rgb(52,101,164)" d="M 15457,12994 L 15457,13045"/>
        <path fill="none" stroke="rgb(52,101,164)" d="M 15457,13096 L 15457,13147"/>
        <path fill="none" stroke="rgb(52,101,164)" d="M 15457,13198 L 15457,13249"/>
        <path fill="none" stroke="rgb(52,101,164)" d="M 15457,13300 L 15457,13351"/>
        <path fill="none" stroke="rgb(52,101,164)" d="M 15457,13402 L 15457,13453"/>
        <path fill="none" stroke="rgb(52,101,164)" d="M 15457,13504 L 15457,13555"/>
        <path fill="none" stroke="rgb(52,101,164)" d="M 15408,13556 L 15357,13556"/>
        <path fill="none" stroke="rgb(52,101,164)" d="M 15306,13556 L 15255,13556"/>
        <path fill="none" stroke="rgb(52,101,164)" d="M 15204,13556 L 15153,13556"/>
        <path fill="none" stroke="rgb(52,101,164)" d="M 15102,13556 L 15051,13556"/>
        <path fill="none" stroke="rgb(52,101,164)" d="M 15000,13556 L 14949,13556"/>
        <path fill="none" stroke="rgb(52,101,164)" d="M 14898,13556 L 14847,13556"/>
        <path fill="none" stroke="rgb(52,101,164)" d="M 14796,13556 L 14745,13556"/>
        <path fill="none" stroke="rgb(52,101,164)" d="M 14694,13556 L 14643,13556"/>
        <path fill="none" stroke="rgb(52,101,164)" d="M 14592,13556 L 14541,13556"/>
        <path fill="none" stroke="rgb(52,101,164)" d="M 14490,13556 L 14439,13556"/>
        <path fill="none" stroke="rgb(52,101,164)" d="M 14388,13556 L 14337,13556"/>
        <path fill="none" stroke="rgb(52,101,164)" d="M 14286,13556 L 14235,13556"/>
        <path fill="none" stroke="rgb(52,101,164)" d="M 14184,13556 L 14133,13556"/>
        <path fill="none" stroke="rgb(52,101,164)" d="M 14082,13556 L 14031,13556"/>
        <path fill="none" stroke="rgb(52,101,164)" d="M 13980,13556 L 13929,13556"/>
        <path fill="none" stroke="rgb(52,101,164)" d="M 13878,13556 L 13827,13556"/>
        <path fill="none" stroke="rgb(52,101,164)" d="M 13776,13556 L 13725,13556"/>
        <path fill="none" stroke="rgb(52,101,164)" d="M 13674,13556 L 13623,13556"/>
        <path fill="none" stroke="rgb(52,101,164)" d="M 13572,13556 L 13521,13556"/>
        <path fill="none" stroke="rgb(52,101,164)" d="M 13470,13556 L 13419,13556"/>
        <path fill="none" stroke="rgb(52,101,164)" d="M 13368,13556 L 13317,13556"/>
        <path fill="none" stroke="rgb(52,101,164)" d="M 13266,13556 L 13215,13556"/>
        <path fill="none" stroke="rgb(52,101,164)" d="M 13164,13556 L 13113,13556"/>
        <path fill="none" stroke="rgb(52,101,164)" d="M 13062,13556 L 13011,13556"/>
        <path fill="none" stroke="rgb(52,101,164)" d="M 12960,13556 L 12909,13556"/>
        <path fill="none" stroke="rgb(52,101,164)" d="M 12858,13556 L 12807,13556"/>
        <path fill="none" stroke="rgb(52,101,164)" d="M 12756,13556 L 12705,13556"/>
        <path fill="none" stroke="rgb(52,101,164)" d="M 12654,13556 L 12603,13556"/>
        <path fill="none" stroke="rgb(52,101,164)" d="M 12552,13556 L 12501,13556"/>
        <path fill="none" stroke="rgb(52,101,164)" d="M 12450,13556 L 12399,13556"/>
        <path fill="none" stroke="rgb(52,101,164)" d="M 12348,13556 L 12297,13556"/>
        <path fill="none" stroke="rgb(52,101,164)" d="M 12246,13556 L 12195,13556"/>
        <path fill="none" stroke="rgb(52,101,164)" d="M 12144,13556 L 12093,13556"/>
        <path fill="none" stroke="rgb(52,101,164)" d="M 12042,13556 L 11991,13556"/>
        <path fill="none" stroke="rgb(52,101,164)" d="M 11940,13556 L 11889,13556"/>
        <path fill="none" stroke="rgb(52,101,164)" d="M 11838,13556 L 11787,13556"/>
        <path fill="none" stroke="rgb(52,101,164)" d="M 11736,13556 L 11685,13556"/>
        <path fill="none" stroke="rgb(52,101,164)" d="M 11634,13556 L 11583,13556"/>
        <path fill="none" stroke="rgb(52,101,164)" d="M 11532,13556 L 11481,13556"/>
        <path fill="none" stroke="rgb(52,101,164)" d="M 11430,13556 L 11379,13556"/>
        <path fill="none" stroke="rgb(52,101,164)" d="M 11328,13556 L 11277,13556"/>
        <path fill="none" stroke="rgb(52,101,164)" d="M 11226,13556 L 11175,13556"/>
        <path fill="none" stroke="rgb(52,101,164)" d="M 11124,13556 L 11073,13556"/>
        <path fill="none" stroke="rgb(52,101,164)" d="M 11022,13556 L 10971,13556"/>
        <path fill="none" stroke="rgb(52,101,164)" d="M 10920,13556 L 10869,13556"/>
        <path fill="none" stroke="rgb(52,101,164)" d="M 10818,13556 L 10767,13556"/>
        <path fill="none" stroke="rgb(52,101,164)" d="M 10716,13556 L 10665,13556"/>
        <path fill="none" stroke="rgb(52,101,164)" d="M 10614,13556 L 10563,13556"/>
        <path fill="none" stroke="rgb(52,101,164)" d="M 10512,13556 L 10461,13556"/>
        <path fill="none" stroke="rgb(52,101,164)" d="M 10410,13556 L 10359,13556"/>
        <path fill="none" stroke="rgb(52,101,164)" d="M 10308,13556 L 10257,13556"/>
        <path fill="none" stroke="rgb(52,101,164)" d="M 10206,13556 L 10155,13556"/>
        <path fill="none" stroke="rgb(52,101,164)" d="M 10104,13556 L 10053,13556"/>
        <path fill="none" stroke="rgb(52,101,164)" d="M 10002,13556 L 9951,13556"/>
        <path fill="none" stroke="rgb(52,101,164)" d="M 9900,13556 L 9849,13556"/>
        <path fill="none" stroke="rgb(52,101,164)" d="M 9798,13556 L 9747,13556"/>
        <path fill="none" stroke="rgb(52,101,164)" d="M 9696,13556 L 9645,13556"/>
        <path fill="none" stroke="rgb(52,101,164)" d="M 9594,13556 L 9543,13556"/>
        <path fill="none" stroke="rgb(52,101,164)" d="M 9492,13556 L 9441,13556"/>
        <path fill="none" stroke="rgb(52,101,164)" d="M 9390,13556 L 9339,13556"/>
        <path fill="none" stroke="rgb(52,101,164)" d="M 9288,13556 L 9237,13556"/>
        <path fill="none" stroke="rgb(52,101,164)" d="M 9186,13556 L 9135,13556"/>
        <path fill="none" stroke="rgb(52,101,164)" d="M 9084,13556 L 9033,13556"/>
        <path fill="none" stroke="rgb(52,101,164)" d="M 8982,13556 L 8931,13556"/>
        <path fill="none" stroke="rgb(52,101,164)" d="M 8880,13556 L 8829,13556"/>
        <path fill="none" stroke="rgb(52,101,164)" d="M 8778,13556 L 8727,13556"/>
        <path fill="none" stroke="rgb(52,101,164)" d="M 8676,13556 L 8625,13556"/>
        <path fill="none" stroke="rgb(52,101,164)" d="M 8574,13556 L 8523,13556"/>
        <path fill="none" stroke="rgb(52,101,164)" d="M 8472,13556 L 8421,13556"/>
        <path fill="none" stroke="rgb(52,101,164)" d="M 8370,13556 L 8319,13556"/>
        <path fill="none" stroke="rgb(52,101,164)" d="M 8268,13556 L 8234,13556"/>
        <text class="SVGTextShape"><tspan class="TextParagraph" font-family="Arial, sans-serif" font-size="352px" font-weight="400"><tspan class="TextPosition" x="1010" y="1376"><tspan fill="rgb(0,65,123)" stroke="none" style="white-space: pre">&lt;?</tspan><tspan fill="rgb(0,128,0)" stroke="none" style="white-space: pre">xml</tspan><tspan fill="rgb(0,65,123)" stroke="none" style="white-space: pre"> </tspan><tspan fill="rgb(255,0,0)" stroke="none" style="white-space: pre">version</tspan><tspan fill="rgb(0,65,123)" stroke="none" style="white-space: pre">=&quot;</tspan><tspan fill="rgb(128,0,128)" stroke="none" style="white-space: pre">1.0</tspan><tspan fill="rgb(0,65,123)" stroke="none" style="white-space: pre">&quot; </tspan><tspan fill="rgb(255,0,0)" stroke="none" style="white-space: pre">encoding</tspan><tspan fill="rgb(0,65,123)" stroke="none" style="white-space: pre">=&quot;</tspan><tspan fill="rgb(128,0,128)" stroke="none" style="white-space: pre">UTF-8</tspan><tspan fill="rgb(0,65,123)" stroke="none" style="white-space: pre">&quot;?&gt;</tspan></tspan></tspan><tspan class="TextParagraph" font-family="Arial, sans-serif" font-size="352px" font-weight="400"><tspan class="TextPosition" x="1010" y="1770"><tspan fill="rgb(0,65,123)" stroke="none" style="white-space: pre">&lt;</tspan><tspan fill="rgb(255,149,14)" stroke="none" style="white-space: pre">xs</tspan><tspan fill="rgb(0,65,123)" stroke="none" style="white-space: pre">:</tspan><tspan fill="rgb(0,128,0)" stroke="none" style="white-space: pre">schema</tspan><tspan fill="rgb(0,65,123)" stroke="none" style="white-space: pre"> </tspan><tspan fill="rgb(255,149,14)" stroke="none" style="white-space: pre">xmlns</tspan><tspan fill="rgb(0,65,123)" stroke="none" style="white-space: pre">:</tspan><tspan fill="rgb(255,0,0)" stroke="none" style="white-space: pre">xs</tspan><tspan fill="rgb(0,65,123)" stroke="none" style="white-space: pre">=&quot;</tspan><tspan fill="rgb(128,0,128)" stroke="none" style="white-space: pre">http://www.w3.org/2001/XMLSchema</tspan><tspan fill="rgb(0,65,123)" stroke="none" style="white-space: pre">&quot; </tspan></tspan></tspan><tspan class="TextParagraph" font-family="Arial, sans-serif" font-size="352px" font-weight="400"><tspan class="TextPosition" x="1010" y="2215"><tspan fill="rgb(0,65,123)" stroke="none" style="white-space: pre">                   </tspan><tspan fill="rgb(255,0,0)" stroke="none" style="white-space: pre">elementFormDefault</tspan><tspan fill="rgb(0,65,123)" stroke="none" style="white-space: pre">=&quot;</tspan><tspan fill="rgb(128,0,128)" stroke="none" style="white-space: pre">qualified</tspan><tspan fill="rgb(0,65,123)" stroke="none" style="white-space: pre">&quot;&gt;</tspan></tspan></tspan><tspan class="TextParagraph" font-family="Arial, sans-serif" font-size="352px" font-weight="400"><tspan class="TextPosition" x="2280" y="3003"><tspan fill="rgb(0,65,123)" stroke="none" style="white-space: pre">&lt;</tspan><tspan fill="rgb(255,149,14)" stroke="none" style="white-space: pre">xs</tspan><tspan fill="rgb(0,65,123)" stroke="none" style="white-space: pre">:</tspan><tspan fill="rgb(0,128,0)" stroke="none" style="white-space: pre">simpleType</tspan><tspan fill="rgb(0,65,123)" stroke="none" style="white-space: pre"> </tspan><tspan fill="rgb(255,0,0)" stroke="none" style="white-space: pre">name</tspan><tspan fill="rgb(0,65,123)" stroke="none" style="white-space: pre">=&quot;</tspan><tspan fill="rgb(148,0,107)" stroke="none" style="white-space: pre">navn</tspan><tspan fill="rgb(0,65,123)" stroke="none" style="white-space: pre">&quot;&gt;</tspan></tspan></tspan><tspan class="TextParagraph" font-family="Arial, sans-serif" font-size="352px" font-weight="400"><tspan class="TextPosition" x="3550" y="3397"><tspan fill="rgb(0,65,123)" stroke="none" style="white-space: pre">&lt;</tspan><tspan fill="rgb(255,149,14)" stroke="none" style="white-space: pre">xs</tspan><tspan fill="rgb(0,65,123)" stroke="none" style="white-space: pre">:</tspan><tspan fill="rgb(0,128,0)" stroke="none" style="white-space: pre">restriction </tspan><tspan fill="rgb(255,0,0)" stroke="none" style="white-space: pre">base</tspan><tspan fill="rgb(0,65,123)" stroke="none" style="white-space: pre">=&quot;</tspan><tspan fill="rgb(255,149,14)" stroke="none" style="white-space: pre">xs</tspan><tspan fill="rgb(0,65,123)" stroke="none" style="white-space: pre">:</tspan><tspan fill="rgb(0,128,0)" stroke="none" style="white-space: pre">string</tspan><tspan fill="rgb(0,65,123)" stroke="none" style="white-space: pre">&quot;</tspan><tspan fill="rgb(0,65,123)" stroke="none" style="white-space: pre">/&gt;</tspan></tspan></tspan><tspan class="TextParagraph" font-family="Arial, sans-serif" font-size="352px" font-weight="400"><tspan class="TextPosition" x="2280" y="3842"><tspan fill="rgb(0,65,123)" stroke="none" style="white-space: pre">&lt;/</tspan><tspan fill="rgb(255,149,14)" stroke="none" style="white-space: pre">xs</tspan><tspan fill="rgb(0,65,123)" stroke="none" style="white-space: pre">:</tspan><tspan fill="rgb(0,128,0)" stroke="none" style="white-space: pre">simpleType</tspan><tspan fill="rgb(0,65,123)" stroke="none" style="white-space: pre">&gt;</tspan></tspan></tspan><tspan class="TextParagraph" font-family="Arial, sans-serif" font-size="352px" font-weight="400"><tspan class="TextPosition" x="2280" y="4681"><tspan fill="rgb(0,65,123)" stroke="none" style="white-space: pre">&lt;</tspan><tspan fill="rgb(255,149,14)" stroke="none" style="white-space: pre">xs</tspan><tspan fill="rgb(0,65,123)" stroke="none" style="white-space: pre">:</tspan><tspan fill="rgb(0,128,0)" stroke="none" style="white-space: pre">simpleType</tspan><tspan fill="rgb(0,65,123)" stroke="none" style="white-space: pre"> </tspan><tspan fill="rgb(255,0,0)" stroke="none" style="white-space: pre">name</tspan><tspan fill="rgb(0,65,123)" stroke="none" style="white-space: pre">=&quot;</tspan><tspan fill="rgb(148,0,107)" stroke="none" style="white-space: pre">befolkning</tspan><tspan fill="rgb(0,65,123)" stroke="none" style="white-space: pre">&quot;&gt;</tspan></tspan></tspan><tspan class="TextParagraph" font-family="Arial, sans-serif" font-size="352px" font-weight="400"><tspan class="TextPosition" x="3550" y="5075"><tspan fill="rgb(0,65,123)" stroke="none" style="white-space: pre">&lt;</tspan><tspan fill="rgb(255,149,14)" stroke="none" style="white-space: pre">xs</tspan><tspan fill="rgb(0,65,123)" stroke="none" style="white-space: pre">:</tspan><tspan fill="rgb(0,128,0)" stroke="none" style="white-space: pre">restriction </tspan><tspan fill="rgb(255,0,0)" stroke="none" style="white-space: pre">base</tspan><tspan fill="rgb(0,65,123)" stroke="none" style="white-space: pre">=&quot;</tspan><tspan fill="rgb(255,149,14)" stroke="none" style="white-space: pre">xs</tspan><tspan fill="rgb(0,65,123)" stroke="none" style="white-space: pre">:</tspan><tspan fill="rgb(0,128,0)" stroke="none" style="white-space: pre">integer</tspan><tspan fill="rgb(0,65,123)" stroke="none" style="white-space: pre">&quot;</tspan><tspan fill="rgb(0,65,123)" stroke="none" style="white-space: pre">/&gt;</tspan></tspan></tspan><tspan class="TextParagraph" font-family="Arial, sans-serif" font-size="352px" font-weight="400"><tspan class="TextPosition" x="2280" y="5520"><tspan fill="rgb(0,65,123)" stroke="none" style="white-space: pre">&lt;/</tspan><tspan fill="rgb(255,149,14)" stroke="none" style="white-space: pre">xs</tspan><tspan fill="rgb(0,65,123)" stroke="none" style="white-space: pre">:</tspan><tspan fill="rgb(0,128,0)" stroke="none" style="white-space: pre">simpleType</tspan><tspan fill="rgb(0,65,123)" stroke="none" style="white-space: pre">&gt;</tspan></tspan></tspan><tspan class="TextParagraph" font-family="Arial, sans-serif" font-size="352px" font-weight="400"><tspan class="TextPosition" x="2280" y="6410"><tspan fill="rgb(0,65,123)" stroke="none" style="white-space: pre">&lt;</tspan><tspan fill="rgb(255,149,14)" stroke="none" style="white-space: pre">xs</tspan><tspan fill="rgb(0,0,0)" stroke="none" style="white-space: pre">:</tspan><tspan fill="rgb(0,128,0)" stroke="none" style="white-space: pre">complexType </tspan><tspan fill="rgb(255,0,0)" stroke="none" style="white-space: pre">name</tspan><tspan fill="rgb(0,65,123)" stroke="none" style="white-space: pre">=&quot;</tspan><tspan fill="rgb(148,0,107)" stroke="none" style="white-space: pre">land</tspan><tspan fill="rgb(0,65,123)" stroke="none" style="white-space: pre">&quot;</tspan><tspan fill="rgb(0,65,123)" stroke="none" style="white-space: pre">&gt;</tspan></tspan></tspan><tspan class="TextParagraph" font-family="Arial, sans-serif" font-size="352px" font-weight="400"><tspan class="TextPosition" x="3550" y="6855"><tspan fill="rgb(0,65,123)" stroke="none" style="white-space: pre">&lt;</tspan><tspan fill="rgb(255,149,14)" stroke="none" style="white-space: pre">xs</tspan><tspan fill="rgb(0,0,0)" stroke="none" style="white-space: pre">:</tspan><tspan fill="rgb(0,128,0)" stroke="none" style="white-space: pre">sequence</tspan><tspan fill="rgb(0,65,123)" stroke="none" style="white-space: pre">&gt;</tspan></tspan></tspan><tspan class="TextParagraph" font-family="Arial, sans-serif" font-size="352px" font-weight="400"><tspan class="TextPosition" x="4820" y="7300"><tspan fill="rgb(0,65,123)" stroke="none" style="white-space: pre">&lt;</tspan><tspan fill="rgb(255,149,14)" stroke="none" style="white-space: pre">xs</tspan><tspan fill="rgb(0,0,0)" stroke="none" style="white-space: pre">:</tspan><tspan fill="rgb(0,128,0)" stroke="none" style="white-space: pre">element</tspan><tspan fill="rgb(0,0,0)" stroke="none" style="white-space: pre"> </tspan><tspan fill="rgb(255,0,0)" stroke="none" style="white-space: pre">name</tspan><tspan fill="rgb(0,65,123)" stroke="none" style="white-space: pre">=&quot;</tspan><tspan fill="rgb(148,0,107)" stroke="none" style="white-space: pre">navn</tspan><tspan fill="rgb(0,65,123)" stroke="none" style="white-space: pre">&quot;</tspan><tspan fill="rgb(0,0,0)" stroke="none" style="white-space: pre"> </tspan><tspan fill="rgb(255,0,0)" stroke="none" style="white-space: pre">type</tspan><tspan fill="rgb(0,65,123)" stroke="none" style="white-space: pre">=&quot;</tspan><tspan fill="rgb(148,0,107)" stroke="none" style="white-space: pre">navn</tspan><tspan fill="rgb(0,65,123)" stroke="none" style="white-space: pre">&quot;/&gt;</tspan></tspan></tspan><tspan class="TextParagraph" font-family="Arial, sans-serif" font-size="352px" font-weight="400"><tspan class="TextPosition" x="4820" y="7745"><tspan fill="rgb(0,65,123)" stroke="none" style="white-space: pre">&lt;</tspan><tspan fill="rgb(255,149,14)" stroke="none" style="white-space: pre">xs</tspan><tspan fill="rgb(0,0,0)" stroke="none" style="white-space: pre">:</tspan><tspan fill="rgb(0,128,0)" stroke="none" style="white-space: pre">element</tspan><tspan fill="rgb(0,0,0)" stroke="none" style="white-space: pre"> </tspan><tspan fill="rgb(255,0,0)" stroke="none" style="white-space: pre">name</tspan><tspan fill="rgb(0,65,123)" stroke="none" style="white-space: pre">=&quot;</tspan><tspan fill="rgb(148,0,107)" stroke="none" style="white-space: pre">befolkning</tspan><tspan fill="rgb(0,65,123)" stroke="none" style="white-space: pre">&quot;</tspan><tspan fill="rgb(0,0,0)" stroke="none" style="white-space: pre"> </tspan><tspan fill="rgb(255,0,0)" stroke="none" style="white-space: pre">type</tspan><tspan fill="rgb(0,65,123)" stroke="none" style="white-space: pre">=&quot;</tspan><tspan fill="rgb(148,0,107)" stroke="none" style="white-space: pre">befolkning</tspan><tspan fill="rgb(0,65,123)" stroke="none" style="white-space: pre">&quot;/&gt;</tspan></tspan></tspan><tspan class="TextParagraph" font-family="Arial, sans-serif" font-size="352px" font-weight="400"><tspan class="TextPosition" x="3550" y="8190"><tspan fill="rgb(0,65,123)" stroke="none" style="white-space: pre">&lt;/</tspan><tspan fill="rgb(255,149,14)" stroke="none" style="white-space: pre">xs</tspan><tspan fill="rgb(0,0,0)" stroke="none" style="white-space: pre">:</tspan><tspan fill="rgb(0,128,0)" stroke="none" style="white-space: pre">sequence</tspan><tspan fill="rgb(0,65,123)" stroke="none" style="white-space: pre">&gt;</tspan></tspan></tspan><tspan class="TextParagraph" font-family="Arial, sans-serif" font-size="352px" font-weight="400"><tspan class="TextPosition" x="2280" y="8635"><tspan fill="rgb(0,65,123)" stroke="none" style="white-space: pre">&lt;/</tspan><tspan fill="rgb(255,149,14)" stroke="none" style="white-space: pre">xs</tspan><tspan fill="rgb(0,0,0)" stroke="none" style="white-space: pre">:</tspan><tspan fill="rgb(0,128,0)" stroke="none" style="white-space: pre">complexType</tspan><tspan fill="rgb(0,65,123)" stroke="none" style="white-space: pre">&gt;</tspan></tspan></tspan><tspan class="TextParagraph" font-family="Arial, sans-serif" font-size="352px" font-weight="400"><tspan class="TextPosition" x="2280" y="9525"><tspan fill="rgb(0,65,123)" stroke="none" style="white-space: pre">&lt;</tspan><tspan fill="rgb(255,149,14)" stroke="none" style="white-space: pre">xs</tspan><tspan fill="rgb(0,65,123)" stroke="none" style="white-space: pre">:</tspan><tspan fill="rgb(0,128,0)" stroke="none" style="white-space: pre">complexType </tspan><tspan fill="rgb(255,0,0)" stroke="none" style="white-space: pre">name</tspan><tspan fill="rgb(0,65,123)" stroke="none" style="white-space: pre">=&quot;</tspan><tspan fill="rgb(148,0,107)" stroke="none" style="white-space: pre">landListe</tspan><tspan fill="rgb(0,65,123)" stroke="none" style="white-space: pre">&quot;</tspan><tspan fill="rgb(0,65,123)" stroke="none" style="white-space: pre">&gt;</tspan></tspan></tspan><tspan class="TextParagraph" font-family="Arial, sans-serif" font-size="352px" font-weight="400"><tspan class="TextPosition" x="3550" y="9970"><tspan fill="rgb(0,65,123)" stroke="none" style="white-space: pre">&lt;</tspan><tspan fill="rgb(255,149,14)" stroke="none" style="white-space: pre">xs</tspan><tspan fill="rgb(0,65,123)" stroke="none" style="white-space: pre">:</tspan><tspan fill="rgb(0,128,0)" stroke="none" style="white-space: pre">sequence</tspan><tspan fill="rgb(0,65,123)" stroke="none" style="white-space: pre">&gt;</tspan></tspan></tspan><tspan class="TextParagraph" font-family="Arial, sans-serif" font-size="352px" font-weight="400"><tspan class="TextPosition" x="4820" y="10415"><tspan fill="rgb(0,65,123)" stroke="none" style="white-space: pre">&lt;</tspan><tspan fill="rgb(255,149,14)" stroke="none" style="white-space: pre">xs</tspan><tspan fill="rgb(0,65,123)" stroke="none" style="white-space: pre">:</tspan><tspan fill="rgb(0,128,0)" stroke="none" style="white-space: pre">element</tspan><tspan fill="rgb(0,65,123)" stroke="none" style="white-space: pre"> </tspan><tspan fill="rgb(255,0,0)" stroke="none" style="white-space: pre">name</tspan><tspan fill="rgb(0,65,123)" stroke="none" style="white-space: pre">=&quot;</tspan><tspan fill="rgb(148,0,107)" stroke="none" style="white-space: pre">land</tspan><tspan fill="rgb(0,65,123)" stroke="none" style="white-space: pre">&quot; </tspan><tspan fill="rgb(255,0,0)" stroke="none" style="white-space: pre">type</tspan><tspan fill="rgb(0,65,123)" stroke="none" style="white-space: pre">=&quot;</tspan><tspan fill="rgb(148,0,107)" stroke="none" style="white-space: pre">land</tspan><tspan fill="rgb(0,65,123)" stroke="none" style="white-space: pre">&quot; </tspan><tspan fill="rgb(255,0,0)" stroke="none" style="white-space: pre">maxOccurs</tspan><tspan fill="rgb(0,65,123)" stroke="none" style="white-space: pre">=&quot;</tspan><tspan fill="rgb(148,0,107)" stroke="none" style="white-space: pre">unbounded</tspan><tspan fill="rgb(0,65,123)" stroke="none" style="white-space: pre">&quot;/&gt;</tspan></tspan></tspan><tspan class="TextParagraph" font-family="Arial, sans-serif" font-size="352px" font-weight="400"><tspan class="TextPosition" x="3550" y="10860"><tspan fill="rgb(0,65,123)" stroke="none" style="white-space: pre">&lt;/</tspan><tspan fill="rgb(255,149,14)" stroke="none" style="white-space: pre">xs</tspan><tspan fill="rgb(0,65,123)" stroke="none" style="white-space: pre">:</tspan><tspan fill="rgb(0,128,0)" stroke="none" style="white-space: pre">sequence</tspan><tspan fill="rgb(0,65,123)" stroke="none" style="white-space: pre">&gt;</tspan></tspan></tspan><tspan class="TextParagraph" font-family="Arial, sans-serif" font-size="352px" font-weight="400"><tspan class="TextPosition" x="2280" y="11305"><tspan fill="rgb(0,65,123)" stroke="none" style="white-space: pre">&lt;/</tspan><tspan fill="rgb(255,149,14)" stroke="none" style="white-space: pre">xs</tspan><tspan fill="rgb(0,65,123)" stroke="none" style="white-space: pre">:</tspan><tspan fill="rgb(0,128,0)" stroke="none" style="white-space: pre">complexType</tspan><tspan fill="rgb(0,65,123)" stroke="none" style="white-space: pre">&gt;</tspan></tspan></tspan><tspan class="TextParagraph" font-family="Arial, sans-serif" font-size="352px" font-weight="400"><tspan class="TextPosition" x="2280" y="12195"><tspan fill="rgb(0,65,123)" stroke="none" style="white-space: pre">&lt;</tspan><tspan fill="rgb(255,149,14)" stroke="none" style="white-space: pre">xs</tspan><tspan fill="rgb(0,65,123)" stroke="none" style="white-space: pre">:</tspan><tspan fill="rgb(0,128,0)" stroke="none" style="white-space: pre">element</tspan><tspan fill="rgb(0,0,0)" stroke="none" style="white-space: pre"> </tspan><tspan fill="rgb(255,0,0)" stroke="none" style="white-space: pre">name</tspan><tspan fill="rgb(0,65,123)" stroke="none" style="white-space: pre">=&quot;</tspan><tspan fill="rgb(148,0,107)" stroke="none" style="white-space: pre">landListe</tspan><tspan fill="rgb(0,65,123)" stroke="none" style="white-space: pre">&quot;  </tspan><tspan fill="rgb(255,0,0)" stroke="none" style="white-space: pre">type</tspan><tspan fill="rgb(0,65,123)" stroke="none" style="white-space: pre">=&quot;</tspan><tspan fill="rgb(148,0,107)" stroke="none" style="white-space: pre">landListe</tspan><tspan fill="rgb(0,65,123)" stroke="none" style="white-space: pre">&quot;</tspan><tspan fill="rgb(0,65,123)" stroke="none" style="white-space: pre">/&gt;</tspan></tspan></tspan><tspan class="TextParagraph" font-family="Arial, sans-serif" font-size="352px" font-weight="400"><tspan class="TextPosition" x="1010" y="13085"><tspan fill="rgb(0,65,123)" stroke="none" style="white-space: pre">&lt;/</tspan><tspan fill="rgb(255,149,14)" stroke="none" style="white-space: pre">xs</tspan><tspan fill="rgb(0,0,0)" stroke="none" style="white-space: pre">:</tspan><tspan fill="rgb(0,128,0)" stroke="none" style="white-space: pre">schema</tspan><tspan fill="rgb(0,65,123)" stroke="none" style="white-space: pre">&gt;</tspan></tspan></tspan></text>
       </g>
      </g>
      <g class="com.sun.star.drawing.ConnectorShape">
       <g id="id5">
        <rect class="BoundingBox" stroke="none" fill="none" x="7781" y="6079" width="7459" height="4030"/>
        <path fill="none" stroke="rgb(0,0,255)" stroke-width="51" stroke-linejoin="round" d="M 15101,9850 L 15101,6267 8320,6267"/>
        <path fill="rgb(0,0,255)" stroke="none" d="M 15239,10108 L 14963,10108 14963,9832 15239,9832 15239,10108 Z"/>
        <path fill="rgb(0,0,255)" stroke="none" d="M 7781,6267 L 8345,6455 8345,6079 7781,6267 Z"/>
       </g>
      </g>
      <g class="com.sun.star.drawing.ConnectorShape">
       <g id="id6">
        <rect class="BoundingBox" stroke="none" fill="none" x="8181" y="9279" width="2159" height="2930"/>
        <path fill="none" stroke="rgb(25,255,25)" stroke-width="51" stroke-linejoin="round" d="M 10201,11950 L 10201,9467 8720,9467"/>
        <path fill="rgb(25,255,25)" stroke="none" d="M 10339,12208 L 10063,12208 10063,11932 10339,11932 10339,12208 Z"/>
        <path fill="rgb(25,255,25)" stroke="none" d="M 8181,9467 L 8745,9655 8745,9279 8181,9467 Z"/>
       </g>
      </g>
      <g class="com.sun.star.drawing.CustomShape">
       <g id="id7">
        <rect class="BoundingBox" stroke="none" fill="none" x="8016" y="4405" width="364" height="319"/>
       </g>
      </g>
      <g class="com.sun.star.drawing.CustomShape">
       <g id="id8">
        <rect class="BoundingBox" stroke="none" fill="none" x="11217" y="7205" width="364" height="319"/>
       </g>
      </g>
      <g class="com.sun.star.drawing.CustomShape">
       <g id="id9">
        <rect class="BoundingBox" stroke="none" fill="none" x="12918" y="7806" width="364" height="320"/>
       </g>
      </g>
      <g class="com.sun.star.drawing.ConnectorShape">
       <g id="id10">
        <rect class="BoundingBox" stroke="none" fill="none" x="7479" y="2677" width="4186" height="4576"/>
        <path fill="none" stroke="rgb(128,0,128)" stroke-width="51" stroke-linejoin="round" d="M 11526,6994 L 11526,2865 8018,2865"/>
        <path fill="rgb(128,0,128)" stroke="none" d="M 11664,7252 L 11388,7252 11388,6976 11664,6976 11664,7252 Z"/>
        <path fill="rgb(128,0,128)" stroke="none" d="M 7479,2865 L 8043,3053 8043,2677 7479,2865 Z"/>
       </g>
      </g>
      <g class="com.sun.star.drawing.ConnectorShape">
       <g id="id11">
        <rect class="BoundingBox" stroke="none" fill="none" x="8378" y="4377" width="4860" height="3431"/>
        <path fill="none" stroke="rgb(128,0,128)" stroke-width="51" stroke-linejoin="round" d="M 13099,7549 L 13099,4565 8917,4565"/>
        <path fill="rgb(128,0,128)" stroke="none" d="M 13237,7807 L 12961,7807 12961,7531 13237,7531 13237,7807 Z"/>
        <path fill="rgb(128,0,128)" stroke="none" d="M 8378,4565 L 8942,4753 8942,4377 8378,4565 Z"/>
       </g>
      </g>
      <g class="com.sun.star.drawing.CustomShape">
       <g id="id12">
        <rect class="BoundingBox" stroke="none" fill="none" x="7117" y="2705" width="364" height="319"/>
       </g>
      </g>
      <g class="com.sun.star.drawing.CustomShape">
       <g id="id13">
        <rect class="BoundingBox" stroke="none" fill="none" x="7819" y="9307" width="364" height="319"/>
       </g>
      </g>
      <g class="com.sun.star.drawing.CustomShape">
       <g id="id14">
        <rect class="BoundingBox" stroke="none" fill="none" x="10020" y="12207" width="364" height="319"/>
       </g>
      </g>
      <g class="com.sun.star.drawing.CustomShape">
       <g id="id15">
        <rect class="BoundingBox" stroke="none" fill="none" x="7419" y="6107" width="364" height="319"/>
       </g>
      </g>
      <g class="com.sun.star.drawing.CustomShape">
       <g id="id16">
        <rect class="BoundingBox" stroke="none" fill="none" x="14920" y="10107" width="364" height="319"/>
       </g>
      </g>
     </g>
    </g>
   </g>
  </g>
 </g>
</svg>